Time,PSZ-AC:1:DesPer 1:Des Heat Mass Flow [kg/s],PSZ-AC:1:DesPer 1:Des Heat Cap [W],PSZ-AC:1:DesPer 1:Des Cool Mass Flow [kg/s],PSZ-AC:1:DesPer 1:Des Sens Cool Cap [W],PSZ-AC:1:DesPer 1:Des Tot Cool Cap [W],PSZ-AC:1:DesPer 2:Des Heat Mass Flow [kg/s],PSZ-AC:1:DesPer 2:Des Heat Cap [W],PSZ-AC:1:DesPer 2:Des Cool Mass Flow [kg/s],PSZ-AC:1:DesPer 2:Des Sens Cool Cap [W],PSZ-AC:1:DesPer 2:Des Tot Cool Cap [W],PSZ-AC:2:DesPer 1:Des Heat Mass Flow [kg/s],PSZ-AC:2:DesPer 1:Des Heat Cap [W],PSZ-AC:2:DesPer 1:Des Cool Mass Flow [kg/s],PSZ-AC:2:DesPer 1:Des Sens Cool Cap [W],PSZ-AC:2:DesPer 1:Des Tot Cool Cap [W],PSZ-AC:2:DesPer 2:Des Heat Mass Flow [kg/s],PSZ-AC:2:DesPer 2:Des Heat Cap [W],PSZ-AC:2:DesPer 2:Des Cool Mass Flow [kg/s],PSZ-AC:2:DesPer 2:Des Sens Cool Cap [W],PSZ-AC:2:DesPer 2:Des Tot Cool Cap [W],PSZ-AC:3:DesPer 1:Des Heat Mass Flow [kg/s],PSZ-AC:3:DesPer 1:Des Heat Cap [W],PSZ-AC:3:DesPer 1:Des Cool Mass Flow [kg/s],PSZ-AC:3:DesPer 1:Des Sens Cool Cap [W],PSZ-AC:3:DesPer 1:Des Tot Cool Cap [W],PSZ-AC:3:DesPer 2:Des Heat Mass Flow [kg/s],PSZ-AC:3:DesPer 2:Des Heat Cap [W],PSZ-AC:3:DesPer 2:Des Cool Mass Flow [kg/s],PSZ-AC:3:DesPer 2:Des Sens Cool Cap [W],PSZ-AC:3:DesPer 2:Des Tot Cool Cap [W],PSZ-AC:4:DesPer 1:Des Heat Mass Flow [kg/s],PSZ-AC:4:DesPer 1:Des Heat Cap [W],PSZ-AC:4:DesPer 1:Des Cool Mass Flow [kg/s],PSZ-AC:4:DesPer 1:Des Sens Cool Cap [W],PSZ-AC:4:DesPer 1:Des Tot Cool Cap [W],PSZ-AC:4:DesPer 2:Des Heat Mass Flow [kg/s],PSZ-AC:4:DesPer 2:Des Heat Cap [W],PSZ-AC:4:DesPer 2:Des Cool Mass Flow [kg/s],PSZ-AC:4:DesPer 2:Des Sens Cool Cap [W],PSZ-AC:4:DesPer 2:Des Tot Cool Cap [W],PSZ-AC:5:DesPer 1:Des Heat Mass Flow [kg/s],PSZ-AC:5:DesPer 1:Des Heat Cap [W],PSZ-AC:5:DesPer 1:Des Cool Mass Flow [kg/s],PSZ-AC:5:DesPer 1:Des Sens Cool Cap [W],PSZ-AC:5:DesPer 1:Des Tot Cool Cap [W],PSZ-AC:5:DesPer 2:Des Heat Mass Flow [kg/s],PSZ-AC:5:DesPer 2:Des Heat Cap [W],PSZ-AC:5:DesPer 2:Des Cool Mass Flow [kg/s],PSZ-AC:5:DesPer 2:Des Sens Cool Cap [W],PSZ-AC:5:DesPer 2:Des Tot Cool Cap [W]
00:10:00,2.691753E-01,9.194579E+03,9.698115E-02,0.000000E+00,0.000000E+00,9.698115E-02,1.723055E+03,9.698115E-02,9.276489E+02,3.137928E+03,3.541975E-01,9.837255E+03,7.351799E-02,0.000000E+00,0.000000E+00,7.351799E-02,1.306187E+03,7.351799E-02,7.032179E+02,2.378753E+03,2.230044E-01,6.081840E+03,4.361182E-02,0.000000E+00,0.000000E+00,4.361182E-02,7.748470E+02,4.361182E-02,4.171579E+02,1.411107E+03,3.375793E-01,9.519885E+03,7.351799E-02,0.000000E+00,0.000000E+00,7.351799E-02,1.306187E+03,7.351799E-02,7.032179E+02,2.378753E+03,2.227852E-01,6.077653E+03,4.361182E-02,0.000000E+00,0.000000E+00,4.361182E-02,7.748470E+02,4.903138E-02,4.928336E+02,1.527674E+03
00:20:00,2.691771E-01,9.194613E+03,9.698115E-02,0.000000E+00,0.000000E+00,9.698115E-02,1.733482E+03,9.698115E-02,9.172215E+02,3.098531E+03,3.541989E-01,9.837281E+03,7.351799E-02,0.000000E+00,0.000000E+00,7.351799E-02,1.314092E+03,7.351799E-02,6.953133E+02,2.348887E+03,2.230053E-01,6.081857E+03,4.361182E-02,0.000000E+00,0.000000E+00,4.361182E-02,7.795362E+02,4.361182E-02,4.124688E+02,1.393390E+03,3.375807E-01,9.519911E+03,7.351799E-02,0.000000E+00,0.000000E+00,7.351799E-02,1.314092E+03,7.351799E-02,6.953133E+02,2.348887E+03,2.227861E-01,6.077670E+03,4.361182E-02,0.000000E+00,0.000000E+00,4.361182E-02,7.795362E+02,5.018825E-02,5.042973E+02,1.534611E+03
00:30:00,2.691788E-01,9.194646E+03,9.698115E-02,0.000000E+00,0.000000E+00,9.698115E-02,1.743910E+03,9.698115E-02,9.067941E+02,3.059312E+03,3.542003E-01,9.837307E+03,7.351799E-02,0.000000E+00,0.000000E+00,7.351799E-02,1.321996E+03,7.351799E-02,6.874086E+02,2.319156E+03,2.230062E-01,6.081874E+03,4.361182E-02,0.000000E+00,0.000000E+00,4.361182E-02,7.842253E+02,4.361182E-02,4.077796E+02,1.375753E+03,3.375820E-01,9.519937E+03,7.351799E-02,0.000000E+00,0.000000E+00,7.351799E-02,1.321996E+03,7.351799E-02,6.874086E+02,2.319156E+03,2.227870E-01,6.077687E+03,4.361182E-02,0.000000E+00,0.000000E+00,4.361182E-02,7.842253E+02,5.112800E-02,5.127291E+02,1.536749E+03
00:40:00,2.691805E-01,9.194677E+03,9.698115E-02,0.000000E+00,0.000000E+00,9.698115E-02,1.754337E+03,9.698115E-02,8.963667E+02,3.020268E+03,3.542016E-01,9.837332E+03,7.351799E-02,0.000000E+00,0.000000E+00,7.351799E-02,1.329901E+03,7.351799E-02,6.795040E+02,2.289559E+03,2.230070E-01,6.081890E+03,4.361182E-02,0.000000E+00,0.000000E+00,4.361182E-02,7.889145E+02,4.361182E-02,4.030905E+02,1.358196E+03,3.375833E-01,9.519961E+03,7.351799E-02,0.000000E+00,0.000000E+00,7.351799E-02,1.329901E+03,7.351799E-02,6.795040E+02,2.289559E+03,2.227878E-01,6.077703E+03,4.361182E-02,0.000000E+00,0.000000E+00,4.361182E-02,7.889145E+02,5.188274E-02,5.185779E+02,1.534800E+03
00:50:00,2.691821E-01,9.194708E+03,9.698115E-02,0.000000E+00,0.000000E+00,9.698115E-02,1.764764E+03,9.698115E-02,8.859393E+02,2.981401E+03,3.542028E-01,9.837356E+03,7.351799E-02,0.000000E+00,0.000000E+00,7.351799E-02,1.337806E+03,7.351799E-02,6.715993E+02,2.260095E+03,2.230078E-01,6.081905E+03,4.361182E-02,0.000000E+00,0.000000E+00,4.361182E-02,7.936036E+02,4.361182E-02,3.984014E+02,1.340717E+03,3.375846E-01,9.519985E+03,7.351799E-02,0.000000E+00,0.000000E+00,7.351799E-02,1.337806E+03,7.351799E-02,6.715993E+02,2.260095E+03,2.227886E-01,6.077718E+03,4.361182E-02,0.000000E+00,0.000000E+00,4.361182E-02,7.936036E+02,5.247836E-02,5.222051E+02,1.529356E+03
01:00:00,2.691836E-01,9.194737E+03,9.698115E-02,0.000000E+00,0.000000E+00,9.698115E-02,1.775192E+03,9.698115E-02,8.755119E+02,2.942707E+03,3.542040E-01,9.837379E+03,7.351799E-02,0.000000E+00,0.000000E+00,7.351799E-02,1.345710E+03,7.351799E-02,6.636947E+02,2.230763E+03,2.230086E-01,6.081920E+03,4.361182E-02,0.000000E+00,0.000000E+00,4.361182E-02,7.982927E+02,4.361182E-02,3.937122E+02,1.323317E+03,3.375858E-01,9.520008E+03,7.351799E-02,0.000000E+00,0.000000E+00,7.351799E-02,1.345710E+03,7.351799E-02,6.636947E+02,2.230763E+03,2.227894E-01,6.077734E+03,4.361182E-02,0.000000E+00,0.000000E+00,4.361182E-02,7.982927E+02,5.293704E-02,5.239204E+02,1.520935E+03
01:10:00,2.691851E-01,9.194766E+03,9.698115E-02,0.000000E+00,0.000000E+00,9.698115E-02,1.782143E+03,9.698115E-02,8.685603E+02,2.917008E+03,3.542051E-01,9.837399E+03,7.351799E-02,0.000000E+00,0.000000E+00,7.351799E-02,1.350980E+03,7.351799E-02,6.584249E+02,2.211281E+03,2.230093E-01,6.081933E+03,4.361182E-02,0.000000E+00,0.000000E+00,4.361182E-02,8.014188E+02,4.361182E-02,3.905861E+02,1.311760E+03,3.375868E-01,9.520028E+03,7.351799E-02,0.000000E+00,0.000000E+00,7.351799E-02,1.350980E+03,7.351799E-02,6.584249E+02,2.211281E+03,2.227901E-01,6.077747E+03,4.361182E-02,0.000000E+00,0.000000E+00,4.361182E-02,8.014188E+02,5.340269E-02,5.272962E+02,1.518389E+03
01:20:00,2.691865E-01,9.194793E+03,9.698115E-02,0.000000E+00,0.000000E+00,9.698115E-02,1.789095E+03,9.698115E-02,8.616087E+02,2.891386E+03,3.542061E-01,9.837419E+03,7.351799E-02,0.000000E+00,0.000000E+00,7.351799E-02,1.356250E+03,7.351799E-02,6.531552E+02,2.191858E+03,2.230100E-01,6.081946E+03,4.361182E-02,0.000000E+00,0.000000E+00,4.361182E-02,8.045449E+02,4.361182E-02,3.874600E+02,1.300238E+03,3.375879E-01,9.520048E+03,7.351799E-02,0.000000E+00,0.000000E+00,7.351799E-02,1.356250E+03,7.351799E-02,6.531552E+02,2.191858E+03,2.227908E-01,6.077759E+03,4.361182E-02,0.000000E+00,0.000000E+00,4.361182E-02,8.045449E+02,5.377986E-02,5.294367E+02,1.513946E+03
01:30:00,2.691879E-01,9.194820E+03,9.698115E-02,0.000000E+00,0.000000E+00,9.698115E-02,1.796047E+03,9.698115E-02,8.546571E+02,2.865840E+03,3.542071E-01,9.837438E+03,7.351799E-02,0.000000E+00,0.000000E+00,7.351799E-02,1.361520E+03,7.351799E-02,6.478854E+02,2.172492E+03,2.230106E-01,6.081958E+03,4.361182E-02,0.000000E+00,0.000000E+00,4.361182E-02,8.076710E+02,4.361182E-02,3.843339E+02,1.288750E+03,3.375888E-01,9.520067E+03,7.351799E-02,0.000000E+00,0.000000E+00,7.351799E-02,1.361520E+03,7.351799E-02,6.478854E+02,2.172492E+03,2.227914E-01,6.077772E+03,4.361182E-02,0.000000E+00,0.000000E+00,4.361182E-02,8.076710E+02,5.408152E-02,5.305231E+02,1.507910E+03
01:40:00,2.691893E-01,9.194846E+03,9.698115E-02,0.000000E+00,0.000000E+00,9.698115E-02,1.802998E+03,9.698115E-02,8.477055E+02,2.840370E+03,3.542081E-01,9.837456E+03,7.351799E-02,0.000000E+00,0.000000E+00,7.351799E-02,1.366789E+03,7.351799E-02,6.426156E+02,2.153184E+03,2.230112E-01,6.081970E+03,4.361182E-02,0.000000E+00,0.000000E+00,4.361182E-02,8.107971E+02,4.361182E-02,3.812079E+02,1.277297E+03,3.375898E-01,9.520085E+03,7.351799E-02,0.000000E+00,0.000000E+00,7.351799E-02,1.366789E+03,7.351799E-02,6.426156E+02,2.153184E+03,2.227920E-01,6.077784E+03,4.361182E-02,0.000000E+00,0.000000E+00,4.361182E-02,8.107971E+02,5.431944E-02,5.307194E+02,1.500555E+03
01:50:00,2.691906E-01,9.194871E+03,9.698115E-02,0.000000E+00,0.000000E+00,9.698115E-02,1.809950E+03,9.698115E-02,8.407539E+02,2.814976E+03,3.542090E-01,9.837474E+03,7.351799E-02,0.000000E+00,0.000000E+00,7.351799E-02,1.372059E+03,7.351799E-02,6.373459E+02,2.133934E+03,2.230118E-01,6.081982E+03,4.361182E-02,0.000000E+00,0.000000E+00,4.361182E-02,8.139232E+02,4.361182E-02,3.780818E+02,1.265877E+03,3.375907E-01,9.520103E+03,7.351799E-02,0.000000E+00,0.000000E+00,7.351799E-02,1.372059E+03,7.351799E-02,6.373459E+02,2.133934E+03,2.227926E-01,6.077795E+03,4.361182E-02,0.000000E+00,0.000000E+00,4.361182E-02,8.139232E+02,5.450365E-02,5.301659E+02,1.492111E+03
02:00:00,2.691919E-01,9.194896E+03,9.698115E-02,0.000000E+00,0.000000E+00,9.698115E-02,1.816901E+03,9.698115E-02,8.338023E+02,2.789658E+03,3.542099E-01,9.837492E+03,7.351799E-02,0.000000E+00,0.000000E+00,7.351799E-02,1.377329E+03,7.351799E-02,6.320761E+02,2.114742E+03,2.230124E-01,6.081993E+03,4.361182E-02,0.000000E+00,0.000000E+00,4.361182E-02,8.170493E+02,4.361182E-02,3.749557E+02,1.254492E+03,3.375916E-01,9.520120E+03,7.351799E-02,0.000000E+00,0.000000E+00,7.351799E-02,1.377329E+03,7.351799E-02,6.320761E+02,2.114742E+03,2.227932E-01,6.077806E+03,4.361182E-02,0.000000E+00,0.000000E+00,4.361182E-02,8.170493E+02,5.464275E-02,5.289826E+02,1.482775E+03
02:10:00,2.691932E-01,9.194920E+03,9.698115E-02,0.000000E+00,0.000000E+00,9.698115E-02,1.822115E+03,9.698115E-02,8.285886E+02,2.770719E+03,3.542108E-01,9.837509E+03,7.351799E-02,0.000000E+00,0.000000E+00,7.351799E-02,1.381281E+03,7.351799E-02,6.281238E+02,2.100384E+03,2.230130E-01,6.082004E+03,4.361182E-02,0.000000E+00,0.000000E+00,4.361182E-02,8.193938E+02,4.372854E-02,3.742409E+02,1.248509E+03,3.375925E-01,9.520137E+03,7.351799E-02,0.000000E+00,0.000000E+00,7.351799E-02,1.381281E+03,7.351799E-02,6.281238E+02,2.100384E+03,2.227938E-01,6.077817E+03,4.361182E-02,0.000000E+00,0.000000E+00,4.361182E-02,8.193938E+02,5.473547E-02,5.279333E+02,1.475366E+03
02:20:00,2.691944E-01,9.194943E+03,9.698115E-02,0.000000E+00,0.000000E+00,9.698115E-02,1.827329E+03,9.698115E-02,8.233748E+02,2.751822E+03,3.542117E-01,9.837525E+03,7.351799E-02,0.000000E+00,0.000000E+00,7.351799E-02,1.385234E+03,7.351799E-02,6.241715E+02,2.086059E+03,2.230135E-01,6.082014E+03,4.361182E-02,0.000000E+00,0.000000E+00,4.361182E-02,8.217384E+02,4.384562E-02,3.735312E+02,1.242535E+03,3.375934E-01,9.520153E+03,7.351799E-02,0.000000E+00,0.000000E+00,7.351799E-02,1.385234E+03,7.351799E-02,6.241715E+02,2.086059E+03,2.227943E-01,6.077828E+03,4.361182E-02,0.000000E+00,0.000000E+00,4.361182E-02,8.217384E+02,5.478791E-02,5.263214E+02,1.467189E+03
02:30:00,2.691956E-01,9.194966E+03,9.698115E-02,0.000000E+00,0.000000E+00,9.698115E-02,1.832543E+03,9.698115E-02,8.181611E+02,2.732967E+03,3.542125E-01,9.837541E+03,7.351799E-02,0.000000E+00,0.000000E+00,7.351799E-02,1.389186E+03,7.351799E-02,6.202191E+02,2.071766E+03,2.230141E-01,6.082025E+03,4.361182E-02,0.000000E+00,0.000000E+00,4.361182E-02,8.240830E+02,4.393285E-02,3.724047E+02,1.235920E+03,3.375942E-01,9.520169E+03,7.351799E-02,0.000000E+00,0.000000E+00,7.351799E-02,1.389186E+03,7.351799E-02,6.202191E+02,2.071766E+03,2.227949E-01,6.077838E+03,4.361182E-02,0.000000E+00,0.000000E+00,4.361182E-02,8.240830E+02,5.480528E-02,5.242200E+02,1.458356E+03
02:40:00,2.691967E-01,9.194988E+03,9.698115E-02,0.000000E+00,0.000000E+00,9.698115E-02,1.837756E+03,9.698115E-02,8.129474E+02,2.714155E+03,3.542133E-01,9.837556E+03,7.351799E-02,0.000000E+00,0.000000E+00,7.351799E-02,1.393138E+03,7.351799E-02,6.162668E+02,2.057505E+03,2.230146E-01,6.082035E+03,4.361182E-02,0.000000E+00,0.000000E+00,4.361182E-02,8.264276E+02,4.399400E-02,3.709139E+02,1.228751E+03,3.375950E-01,9.520184E+03,7.351799E-02,0.000000E+00,0.000000E+00,7.351799E-02,1.393138E+03,7.351799E-02,6.162668E+02,2.057505E+03,2.227954E-01,6.077848E+03,4.361182E-02,0.000000E+00,0.000000E+00,4.361182E-02,8.264276E+02,5.479207E-02,5.216916E+02,1.448962E+03
02:50:00,2.691978E-01,9.195009E+03,9.698115E-02,0.000000E+00,0.000000E+00,9.698115E-02,1.842970E+03,9.698115E-02,8.077337E+02,2.695384E+03,3.542141E-01,9.837572E+03,7.351799E-02,0.000000E+00,0.000000E+00,7.351799E-02,1.397091E+03,7.351799E-02,6.123145E+02,2.043275E+03,2.230151E-01,6.082044E+03,4.361182E-02,0.000000E+00,0.000000E+00,4.361182E-02,8.287721E+02,4.403232E-02,3.691046E+02,1.221106E+03,3.375958E-01,9.520199E+03,7.351799E-02,0.000000E+00,0.000000E+00,7.351799E-02,1.397091E+03,7.351799E-02,6.123145E+02,2.043275E+03,2.227959E-01,6.077858E+03,4.361182E-02,0.000000E+00,0.000000E+00,4.361182E-02,8.287721E+02,5.475219E-02,5.187906E+02,1.439089E+03
03:00:00,2.691989E-01,9.195030E+03,9.698115E-02,0.000000E+00,0.000000E+00,9.698115E-02,1.848184E+03,9.698115E-02,8.025200E+02,2.676655E+03,3.542149E-01,9.837586E+03,7.351799E-02,0.000000E+00,0.000000E+00,7.351799E-02,1.401043E+03,7.351799E-02,6.083622E+02,2.029078E+03,2.230156E-01,6.082054E+03,4.361182E-02,0.000000E+00,0.000000E+00,4.361182E-02,8.311167E+02,4.405068E-02,3.670163E+02,1.213049E+03,3.375965E-01,9.520214E+03,7.351799E-02,0.000000E+00,0.000000E+00,7.351799E-02,1.401043E+03,7.351799E-02,6.083622E+02,2.029078E+03,2.227964E-01,6.077867E+03,4.361182E-02,0.000000E+00,0.000000E+00,4.361182E-02,8.311167E+02,5.468901E-02,5.155644E+02,1.428807E+03
03:10:00,2.692000E-01,9.195050E+03,9.698115E-02,0.000000E+00,0.000000E+00,9.698115E-02,1.853397E+03,9.698115E-02,7.973063E+02,2.657967E+03,3.542156E-01,9.837600E+03,7.351799E-02,0.000000E+00,0.000000E+00,7.351799E-02,1.404995E+03,7.351799E-02,6.044098E+02,2.014911E+03,2.230161E-01,6.082063E+03,4.361182E-02,0.000000E+00,0.000000E+00,4.361182E-02,8.334613E+02,4.404284E-02,3.645623E+02,1.204452E+03,3.375973E-01,9.520228E+03,7.351799E-02,0.000000E+00,0.000000E+00,7.351799E-02,1.404995E+03,7.351799E-02,6.044098E+02,2.014911E+03,2.227969E-01,6.077876E+03,4.361182E-02,0.000000E+00,0.000000E+00,4.361182E-02,8.334613E+02,5.459677E-02,5.119324E+02,1.417998E+03
03:20:00,2.692010E-01,9.195070E+03,9.698115E-02,0.000000E+00,0.000000E+00,9.698115E-02,1.858611E+03,9.698115E-02,7.920926E+02,2.639322E+03,3.542163E-01,9.837614E+03,7.351799E-02,0.000000E+00,0.000000E+00,7.351799E-02,1.408948E+03,7.351799E-02,6.004575E+02,2.000777E+03,2.230165E-01,6.082072E+03,4.361182E-02,0.000000E+00,0.000000E+00,4.361182E-02,8.358058E+02,4.401081E-02,3.617705E+02,1.195362E+03,3.375980E-01,9.520242E+03,7.351799E-02,0.000000E+00,0.000000E+00,7.351799E-02,1.408948E+03,7.351799E-02,6.004575E+02,2.000777E+03,2.227973E-01,6.077885E+03,4.361182E-02,0.000000E+00,0.000000E+00,4.361182E-02,8.358058E+02,5.447786E-02,5.079279E+02,1.406712E+03
03:30:00,2.692020E-01,9.195089E+03,9.698115E-02,0.000000E+00,0.000000E+00,9.698115E-02,1.863825E+03,9.698115E-02,7.868789E+02,2.620717E+03,3.542171E-01,9.837628E+03,7.351799E-02,0.000000E+00,0.000000E+00,7.351799E-02,1.412900E+03,7.351799E-02,5.965052E+02,1.986673E+03,2.230170E-01,6.082080E+03,4.361182E-02,0.000000E+00,0.000000E+00,4.361182E-02,8.381504E+02,4.395634E-02,3.586653E+02,1.185820E+03,3.375987E-01,9.520255E+03,7.351799E-02,0.000000E+00,0.000000E+00,7.351799E-02,1.412900E+03,7.351799E-02,5.965052E+02,1.986673E+03,2.227978E-01,6.077894E+03,4.361182E-02,0.000000E+00,0.000000E+00,4.361182E-02,8.381504E+02,5.433439E-02,5.035805E+02,1.394991E+03
03:40:00,2.692030E-01,9.195108E+03,9.698115E-02,0.000000E+00,0.000000E+00,9.698115E-02,1.869038E+03,9.698115E-02,7.816652E+02,2.602154E+03,3.542177E-01,9.837641E+03,7.351799E-02,0.000000E+00,0.000000E+00,7.351799E-02,1.416852E+03,7.351799E-02,5.925529E+02,1.972601E+03,2.230174E-01,6.082089E+03,4.361182E-02,0.000000E+00,0.000000E+00,4.361182E-02,8.404950E+02,4.388095E-02,3.552680E+02,1.175860E+03,3.375994E-01,9.520268E+03,7.351799E-02,0.000000E+00,0.000000E+00,7.351799E-02,1.416852E+03,7.351799E-02,5.925529E+02,1.972601E+03,2.227982E-01,6.077902E+03,4.361182E-02,0.000000E+00,0.000000E+00,4.361182E-02,8.404950E+02,5.416821E-02,4.989159E+02,1.382871E+03
03:50:00,2.692040E-01,9.195126E+03,9.698115E-02,0.000000E+00,0.000000E+00,9.698115E-02,1.874252E+03,9.698115E-02,7.764515E+02,2.583632E+03,3.542184E-01,9.837653E+03,7.351799E-02,0.000000E+00,0.000000E+00,7.351799E-02,1.420805E+03,7.351799E-02,5.886005E+02,1.958561E+03,2.230179E-01,6.082097E+03,4.361182E-02,0.000000E+00,0.000000E+00,4.361182E-02,8.428395E+02,4.378602E-02,3.515979E+02,1.165516E+03,3.376000E-01,9.520281E+03,7.351799E-02,0.000000E+00,0.000000E+00,7.351799E-02,1.420805E+03,7.351799E-02,5.886005E+02,1.958561E+03,2.227986E-01,6.077910E+03,4.361182E-02,0.000000E+00,0.000000E+00,4.361182E-02,8.428395E+02,5.398098E-02,4.939573E+02,1.370385E+03
04:00:00,2.692049E-01,9.195144E+03,9.698115E-02,0.000000E+00,0.000000E+00,9.698115E-02,1.879466E+03,9.698115E-02,7.712378E+02,2.565152E+03,3.542191E-01,9.837666E+03,7.351799E-02,0.000000E+00,0.000000E+00,7.351799E-02,1.424757E+03,7.351799E-02,5.846482E+02,1.944551E+03,2.230183E-01,6.082105E+03,4.361182E-02,0.000000E+00,0.000000E+00,4.361182E-02,8.451841E+02,4.367279E-02,3.476722E+02,1.154815E+03,3.376007E-01,9.520293E+03,7.351799E-02,0.000000E+00,0.000000E+00,7.351799E-02,1.424757E+03,7.351799E-02,5.846482E+02,1.944551E+03,2.227991E-01,6.077918E+03,4.361182E-02,0.000000E+00,0.000000E+00,4.361182E-02,8.451841E+02,5.377419E-02,4.887256E+02,1.357562E+03
04:10:00,2.692058E-01,9.195162E+03,9.698115E-02,0.000000E+00,0.000000E+00,9.698115E-02,1.882942E+03,9.698115E-02,7.677620E+02,2.552854E+03,3.542197E-01,9.837678E+03,7.351799E-02,0.000000E+00,0.000000E+00,7.351799E-02,1.427392E+03,7.351799E-02,5.820133E+02,1.935229E+03,2.230187E-01,6.082113E+03,4.361182E-02,0.000000E+00,0.000000E+00,4.361182E-02,8.467471E+02,4.361182E-02,3.452578E+02,1.148002E+03,3.376013E-01,9.520305E+03,7.351799E-02,0.000000E+00,0.000000E+00,7.351799E-02,1.427392E+03,7.351799E-02,5.820133E+02,1.935229E+03,2.227995E-01,6.077926E+03,4.361182E-02,0.000000E+00,0.000000E+00,4.361182E-02,8.467471E+02,5.355832E-02,4.841486E+02,1.347373E+03
04:20:00,2.692067E-01,9.195179E+03,9.698115E-02,0.000000E+00,0.000000E+00,9.698115E-02,1.886417E+03,9.698115E-02,7.642862E+02,2.540574E+03,3.542203E-01,9.837690E+03,7.351799E-02,0.000000E+00,0.000000E+00,7.351799E-02,1.430027E+03,7.351799E-02,5.793785E+02,1.925920E+03,2.230191E-01,6.082120E+03,4.361182E-02,0.000000E+00,0.000000E+00,4.361182E-02,8.483102E+02,4.361182E-02,3.436948E+02,1.142480E+03,3.376019E-01,9.520317E+03,7.351799E-02,0.000000E+00,0.000000E+00,7.351799E-02,1.430027E+03,7.351799E-02,5.793785E+02,1.925920E+03,2.227999E-01,6.077933E+03,4.361182E-02,0.000000E+00,0.000000E+00,4.361182E-02,8.483102E+02,5.333399E-02,4.794534E+02,1.337070E+03
04:30:00,2.692076E-01,9.195195E+03,9.698115E-02,0.000000E+00,0.000000E+00,9.698115E-02,1.889893E+03,9.698115E-02,7.608104E+02,2.528313E+03,3.542209E-01,9.837701E+03,7.351799E-02,0.000000E+00,0.000000E+00,7.351799E-02,1.432661E+03,7.351799E-02,5.767436E+02,1.916625E+03,2.230195E-01,6.082127E+03,4.361182E-02,0.000000E+00,0.000000E+00,4.361182E-02,8.498732E+02,4.361182E-02,3.421317E+02,1.136966E+03,3.376025E-01,9.520328E+03,7.351799E-02,0.000000E+00,0.000000E+00,7.351799E-02,1.432661E+03,7.351799E-02,5.767436E+02,1.916625E+03,2.228002E-01,6.077941E+03,4.361182E-02,0.000000E+00,0.000000E+00,4.361182E-02,8.498732E+02,5.310272E-02,4.746614E+02,1.326678E+03
04:40:00,2.692084E-01,9.195211E+03,9.698115E-02,0.000000E+00,0.000000E+00,9.698115E-02,1.893369E+03,9.698115E-02,7.573346E+02,2.516069E+03,3.542215E-01,9.837712E+03,7.351799E-02,0.000000E+00,0.000000E+00,7.351799E-02,1.435296E+03,7.351799E-02,5.741087E+02,1.907344E+03,2.230198E-01,6.082135E+03,4.361182E-02,0.000000E+00,0.000000E+00,4.361182E-02,8.514363E+02,4.361182E-02,3.405687E+02,1.131461E+03,3.376031E-01,9.520339E+03,7.351799E-02,0.000000E+00,0.000000E+00,7.351799E-02,1.435296E+03,7.351799E-02,5.741087E+02,1.907344E+03,2.228006E-01,6.077948E+03,4.361182E-02,0.000000E+00,0.000000E+00,4.361182E-02,8.514363E+02,5.286582E-02,4.697907E+02,1.316219E+03
04:50:00,2.692092E-01,9.195227E+03,9.698115E-02,0.000000E+00,0.000000E+00,9.698115E-02,1.896845E+03,9.698115E-02,7.538588E+02,2.503844E+03,3.542220E-01,9.837723E+03,7.351799E-02,0.000000E+00,0.000000E+00,7.351799E-02,1.437931E+03,7.351799E-02,5.714738E+02,1.898076E+03,2.230202E-01,6.082141E+03,4.361182E-02,0.000000E+00,0.000000E+00,4.361182E-02,8.529993E+02,4.361182E-02,3.390056E+02,1.125963E+03,3.376037E-01,9.520350E+03,7.351799E-02,0.000000E+00,0.000000E+00,7.351799E-02,1.437931E+03,7.351799E-02,5.714738E+02,1.898076E+03,2.228010E-01,6.077955E+03,4.361182E-02,0.000000E+00,0.000000E+00,4.361182E-02,8.529993E+02,5.262676E-02,4.648898E+02,1.305757E+03
05:00:00,2.692101E-01,9.195243E+03,9.698115E-02,0.000000E+00,0.000000E+00,9.698115E-02,1.900321E+03,9.698115E-02,7.503830E+02,2.491637E+03,3.542226E-01,9.837733E+03,7.351799E-02,0.000000E+00,0.000000E+00,7.351799E-02,1.440566E+03,7.351799E-02,5.688389E+02,1.888822E+03,2.230206E-01,6.082148E+03,4.361182E-02,0.000000E+00,0.000000E+00,4.361182E-02,8.545624E+02,4.361182E-02,3.374426E+02,1.120474E+03,3.376042E-01,9.520360E+03,7.351799E-02,0.000000E+00,0.000000E+00,7.351799E-02,1.440566E+03,7.351799E-02,5.688389E+02,1.888822E+03,2.228013E-01,6.077961E+03,4.361182E-02,0.000000E+00,0.000000E+00,4.361182E-02,8.545624E+02,5.241136E-02,4.603191E+02,1.295803E+03
05:10:00,2.692108E-01,9.195258E+03,9.698115E-02,0.000000E+00,0.000000E+00,9.698115E-02,1.896845E+03,9.698115E-02,7.538588E+02,2.503844E+03,3.542231E-01,9.837744E+03,7.351799E-02,0.000000E+00,0.000000E+00,7.351799E-02,1.437931E+03,7.351799E-02,5.714738E+02,1.898076E+03,2.230209E-01,6.082155E+03,4.361182E-02,0.000000E+00,0.000000E+00,4.361182E-02,8.529993E+02,4.474104E-02,3.547741E+02,1.149388E+03,3.376047E-01,9.520370E+03,7.351799E-02,0.000000E+00,0.000000E+00,7.351799E-02,1.437931E+03,7.351799E-02,5.714738E+02,1.898076E+03,2.228017E-01,6.077968E+03,4.361182E-02,0.000000E+00,0.000000E+00,4.361182E-02,8.529993E+02,5.229541E-02,4.602633E+02,1.298816E+03
05:20:00,2.692116E-01,9.195272E+03,9.698115E-02,0.000000E+00,0.000000E+00,9.698115E-02,1.893369E+03,9.698115E-02,7.573346E+02,2.516069E+03,3.542237E-01,9.837754E+03,7.351799E-02,0.000000E+00,0.000000E+00,7.351799E-02,1.435296E+03,7.351799E-02,5.741087E+02,1.907344E+03,2.230212E-01,6.082161E+03,4.361182E-02,0.000000E+00,0.000000E+00,4.361182E-02,8.514363E+02,4.740399E-02,3.935225E+02,1.209620E+03,3.376053E-01,9.520380E+03,7.351799E-02,0.000000E+00,0.000000E+00,7.351799E-02,1.435296E+03,7.351799E-02,5.741087E+02,1.907344E+03,2.228020E-01,6.077974E+03,4.361182E-02,0.000000E+00,0.000000E+00,4.361182E-02,8.514363E+02,5.232255E-02,4.622055E+02,1.304709E+03
05:30:00,2.692124E-01,9.195286E+03,9.698115E-02,0.000000E+00,0.000000E+00,9.698115E-02,1.889893E+03,9.698115E-02,7.608104E+02,2.528313E+03,3.542242E-01,9.837764E+03,7.351799E-02,0.000000E+00,0.000000E+00,7.351799E-02,1.432661E+03,7.351799E-02,5.767436E+02,1.916625E+03,2.230216E-01,6.082167E+03,4.361182E-02,0.000000E+00,0.000000E+00,4.361182E-02,8.498732E+02,5.179450E-02,4.563932E+02,1.303930E+03,3.376058E-01,9.520390E+03,7.351799E-02,0.000000E+00,0.000000E+00,7.351799E-02,1.432661E+03,7.351799E-02,5.767436E+02,1.916625E+03,2.228023E-01,6.077981E+03,4.361182E-02,0.000000E+00,0.000000E+00,4.361182E-02,8.498732E+02,5.254157E-02,4.668271E+02,1.314417E+03
05:40:00,2.692131E-01,9.195300E+03,9.698115E-02,0.000000E+00,0.000000E+00,9.698115E-02,1.886417E+03,9.698115E-02,7.642862E+02,2.540574E+03,3.542247E-01,9.837773E+03,7.351799E-02,0.000000E+00,0.000000E+00,7.351799E-02,1.430027E+03,7.351799E-02,5.793785E+02,1.925920E+03,2.230219E-01,6.082174E+03,4.361182E-02,0.000000E+00,0.000000E+00,4.361182E-02,8.483102E+02,5.802886E-02,5.450081E+02,1.432453E+03,3.376063E-01,9.520399E+03,7.351799E-02,0.000000E+00,0.000000E+00,7.351799E-02,1.430027E+03,7.351799E-02,5.793785E+02,1.925920E+03,2.228027E-01,6.077987E+03,4.361182E-02,0.000000E+00,0.000000E+00,4.361182E-02,8.483102E+02,5.296144E-02,4.742531E+02,1.328078E+03
05:50:00,2.692138E-01,9.195314E+03,9.698115E-02,0.000000E+00,0.000000E+00,9.698115E-02,1.882942E+03,9.698115E-02,7.677620E+02,2.552854E+03,3.542252E-01,9.837782E+03,7.351799E-02,0.000000E+00,0.000000E+00,7.351799E-02,1.427392E+03,7.351799E-02,5.820133E+02,1.935229E+03,2.230222E-01,6.082179E+03,4.361182E-02,0.000000E+00,0.000000E+00,4.361182E-02,8.467471E+02,6.608849E-02,6.591082E+02,1.589736E+03,3.376067E-01,9.520409E+03,7.351799E-02,0.000000E+00,0.000000E+00,7.351799E-02,1.427392E+03,7.351799E-02,5.820133E+02,1.935229E+03,2.228030E-01,6.077993E+03,4.361182E-02,0.000000E+00,0.000000E+00,4.361182E-02,8.467471E+02,5.355723E-02,4.841368E+02,1.345120E+03
06:00:00,2.692145E-01,9.195327E+03,9.698115E-02,0.000000E+00,0.000000E+00,9.698115E-02,1.879466E+03,9.698115E-02,7.712378E+02,2.565152E+03,3.542256E-01,9.837791E+03,7.351799E-02,0.000000E+00,0.000000E+00,7.351799E-02,1.424757E+03,7.351799E-02,5.846482E+02,1.944551E+03,2.230225E-01,6.082185E+03,4.361182E-02,0.000000E+00,0.000000E+00,4.361182E-02,8.451841E+02,7.556991E-02,7.930630E+02,1.770306E+03,3.376072E-01,9.520418E+03,7.351799E-02,0.000000E+00,0.000000E+00,7.351799E-02,1.424757E+03,7.351799E-02,5.846482E+02,1.944551E+03,2.228033E-01,6.077998E+03,4.361182E-02,0.000000E+00,0.000000E+00,4.361182E-02,8.451841E+02,5.430858E-02,4.961938E+02,1.365298E+03
06:10:00,2.490320E-01,8.809835E+03,9.698115E-02,0.000000E+00,0.000000E+00,9.698115E-02,1.867301E+03,1.745498E-01,1.839335E+03,4.167200E+03,3.429467E-01,9.622386E+03,7.351799E-02,0.000000E+00,0.000000E+00,7.351799E-02,1.415535E+03,1.430718E-01,1.540759E+03,3.280316E+03,2.155034E-01,5.938582E+03,4.361182E-02,0.000000E+00,0.000000E+00,4.361182E-02,8.397134E+02,1.360198E-01,1.610345E+03,2.774634E+03,3.263283E-01,9.305013E+03,7.351799E-02,0.000000E+00,0.000000E+00,7.351799E-02,1.415535E+03,1.397635E-01,1.495709E+03,3.234769E+03,2.152842E-01,5.934395E+03,4.361182E-02,0.000000E+00,0.000000E+00,4.361182E-02,8.397134E+02,1.006927E-01,1.129386E+03,2.205611E+03
06:20:00,2.288460E-01,8.424203E+03,9.698115E-02,0.000000E+00,0.000000E+00,9.698115E-02,1.855135E+03,2.546767E-01,2.871893E+03,5.536506E+03,3.316691E-01,9.406968E+03,7.351799E-02,0.000000E+00,0.000000E+00,7.351799E-02,1.406313E+03,2.103099E-01,2.404332E+03,4.361186E+03,2.079855E-01,5.794973E+03,4.361182E-02,0.000000E+00,0.000000E+00,4.361182E-02,8.342428E+02,1.966220E-01,2.372842E+03,3.616220E+03,3.150507E-01,9.089595E+03,7.351799E-02,0.000000E+00,0.000000E+00,7.351799E-02,1.406313E+03,2.067302E-01,2.357166E+03,4.324941E+03,2.077662E-01,5.790786E+03,4.361182E-02,0.000000E+00,0.000000E+00,4.361182E-02,8.342428E+02,1.437375E-01,1.676248E+03,2.857622E+03
06:30:00,2.086555E-01,8.038497E+03,9.698115E-02,0.000000E+00,0.000000E+00,9.698115E-02,1.842970E+03,3.278494E-01,3.743169E+03,6.441323E+03,3.203916E-01,9.191516E+03,7.351799E-02,0.000000E+00,0.000000E+00,7.351799E-02,1.397091E+03,2.717000E-01,3.132374E+03,5.102657E+03,2.004678E-01,5.651344E+03,4.361182E-02,0.000000E+00,0.000000E+00,4.361182E-02,8.287721E+02,2.531487E-01,3.028178E+03,4.211001E+03,3.037730E-01,8.874144E+03,7.351799E-02,0.000000E+00,0.000000E+00,7.351799E-02,1.397091E+03,2.676692E-01,3.081072E+03,5.062110E+03,2.002486E-01,5.647157E+03,4.361182E-02,0.000000E+00,0.000000E+00,4.361182E-02,8.287721E+02,1.827146E-01,2.132146E+03,3.302543E+03
06:40:00,1.884613E-01,7.652742E+03,9.698115E-02,0.000000E+00,0.000000E+00,9.698115E-02,1.830805E+03,3.971678E-01,4.501039E+03,7.259221E+03,3.091128E-01,8.976018E+03,7.351799E-02,0.000000E+00,0.000000E+00,7.351799E-02,1.387869E+03,3.298967E-01,3.765741E+03,5.778249E+03,1.929494E-01,5.507686E+03,4.361182E-02,0.000000E+00,0.000000E+00,4.361182E-02,8.233015E+02,3.074279E-01,3.604843E+03,4.798488E+03,2.924939E-01,8.658647E+03,7.351799E-02,0.000000E+00,0.000000E+00,7.351799E-02,1.387869E+03,3.253186E-01,3.709541E+03,5.731013E+03,1.927301E-01,5.503499E+03,4.361182E-02,0.000000E+00,0.000000E+00,4.361182E-02,8.233015E+02,2.193724E-01,2.524352E+03,3.716451E+03
06:50:00,1.682639E-01,7.266951E+03,9.698115E-02,0.000000E+00,0.000000E+00,9.698115E-02,1.818639E+03,4.634014E-01,5.159808E+03,7.984194E+03,2.978319E-01,8.760472E+03,7.351799E-02,0.000000E+00,0.000000E+00,7.351799E-02,1.378646E+03,3.856178E-01,4.317253E+03,6.381643E+03,1.854296E-01,5.363998E+03,4.361182E-02,0.000000E+00,0.000000E+00,4.361182E-02,8.178308E+02,3.598014E-01,4.109950E+03,5.336440E+03,2.812127E-01,8.443105E+03,7.351799E-02,0.000000E+00,0.000000E+00,7.351799E-02,1.378646E+03,3.804111E-01,4.255688E+03,6.326931E+03,1.852103E-01,5.359811E+03,4.361182E-02,0.000000E+00,0.000000E+00,4.361182E-02,8.178308E+02,2.542399E-01,2.862269E+03,4.087909E+03
07:00:00,1.480635E-01,6.881132E+03,9.698115E-02,0.000000E+00,0.000000E+00,9.698115E-02,1.806474E+03,5.270732E-01,5.729568E+03,8.640874E+03,2.865487E-01,8.544880E+03,7.351799E-02,0.000000E+00,0.000000E+00,7.351799E-02,1.369424E+03,4.393601E-01,4.795887E+03,6.928167E+03,1.779083E-01,5.220281E+03,4.361182E-02,0.000000E+00,0.000000E+00,4.361182E-02,8.123601E+02,4.104971E-01,4.548627E+03,5.821971E+03,2.699292E-01,8.227518E+03,7.351799E-02,0.000000E+00,0.000000E+00,7.351799E-02,1.369424E+03,4.333253E-01,4.727258E+03,6.864899E+03,1.776890E-01,5.216094E+03,4.361182E-02,0.000000E+00,0.000000E+00,4.361182E-02,8.123601E+02,2.876927E-01,3.152577E+03,4.423542E+03
07:10:00,1.480437E-01,6.880713E+03,9.698115E-02,0.000000E+00,0.000000E+00,9.698115E-02,1.776930E+03,4.991403E-01,5.401307E+03,8.286763E+03,2.865425E-01,8.544634E+03,7.351799E-02,0.000000E+00,0.000000E+00,7.351799E-02,1.347028E+03,4.198701E-01,4.561881E+03,6.695799E+03,1.779048E-01,5.220126E+03,4.361182E-02,0.000000E+00,0.000000E+00,4.361182E-02,7.990743E+02,4.095292E-01,4.513383E+03,5.813032E+03,2.699227E-01,8.227278E+03,7.351799E-02,0.000000E+00,0.000000E+00,7.351799E-02,1.347028E+03,4.134139E-01,4.489150E+03,6.625935E+03,1.776855E-01,5.215939E+03,4.361182E-02,0.000000E+00,0.000000E+00,4.361182E-02,7.990743E+02,2.744930E-01,2.992486E+03,4.270963E+03
07:20:00,1.480248E-01,6.880339E+03,9.698115E-02,0.000000E+00,0.000000E+00,9.698115E-02,1.747385E+03,4.803612E-01,5.217302E+03,8.127437E+03,2.865327E-01,8.544345E+03,7.351799E-02,0.000000E+00,0.000000E+00,7.351799E-02,1.324631E+03,4.057205E-01,4.423019E+03,6.585871E+03,1.778986E-01,5.219939E+03,4.361182E-02,0.000000E+00,0.000000E+00,4.361182E-02,7.857884E+02,4.074796E-01,4.500970E+03,5.832866E+03,2.699127E-01,8.226995E+03,7.351799E-02,0.000000E+00,0.000000E+00,7.351799E-02,1.324631E+03,3.981000E-01,4.337250E+03,6.500413E+03,1.776793E-01,5.215752E+03,4.361182E-02,0.000000E+00,0.000000E+00,4.361182E-02,7.857884E+02,2.637845E-01,2.883836E+03,4.182436E+03
07:30:00,1.480082E-01,6.880013E+03,9.698115E-02,0.000000E+00,0.000000E+00,9.698115E-02,1.717841E+03,4.669875E-01,5.096422E+03,8.059178E+03,2.865207E-01,8.544044E+03,7.351799E-02,0.000000E+00,0.000000E+00,7.351799E-02,1.302235E+03,3.964278E-01,4.340854E+03,6.550104E+03,1.778908E-01,5.219741E+03,4.361182E-02,0.000000E+00,0.000000E+00,4.361182E-02,7.725025E+02,4.079658E-01,4.519612E+03,5.889764E+03,2.699008E-01,8.226702E+03,7.351799E-02,0.000000E+00,0.000000E+00,7.351799E-02,1.302235E+03,3.876005E-01,4.241515E+03,6.449079E+03,1.776715E-01,5.215555E+03,4.361182E-02,0.000000E+00,0.000000E+00,4.361182E-02,7.725025E+02,2.564012E-01,2.814021E+03,4.142217E+03
07:40:00,1.479932E-01,6.879717E+03,9.698115E-02,0.000000E+00,0.000000E+00,9.698115E-02,1.688297E+03,4.561202E-01,5.003757E+03,8.034096E+03,2.865082E-01,8.543755E+03,7.351799E-02,0.000000E+00,0.000000E+00,7.351799E-02,1.279838E+03,3.894529E-01,4.284814E+03,6.549546E+03,1.778825E-01,5.219550E+03,4.361182E-02,0.000000E+00,0.000000E+00,4.361182E-02,7.592166E+02,4.089019E-01,4.543461E+03,5.954425E+03,2.698884E-01,8.226419E+03,7.351799E-02,0.000000E+00,0.000000E+00,7.351799E-02,1.279838E+03,3.794911E-01,4.172711E+03,6.434070E+03,1.776632E-01,5.215363E+03,4.361182E-02,0.000000E+00,0.000000E+00,4.361182E-02,7.592166E+02,2.507195E-01,2.763397E+03,4.125529E+03
07:50:00,1.479794E-01,6.879447E+03,9.698115E-02,0.000000E+00,0.000000E+00,9.698115E-02,1.658753E+03,4.471991E-01,4.932959E+03,8.040294E+03,2.864961E-01,8.543489E+03,7.351799E-02,0.000000E+00,0.000000E+00,7.351799E-02,1.257442E+03,3.841981E-01,4.248107E+03,6.574151E+03,1.778743E-01,5.219373E+03,4.361182E-02,0.000000E+00,0.000000E+00,4.361182E-02,7.459307E+02,4.098660E-01,4.567616E+03,6.021012E+03,2.698764E-01,8.226157E+03,7.351799E-02,0.000000E+00,0.000000E+00,7.351799E-02,1.257442E+03,3.732439E-01,4.124837E+03,6.446112E+03,1.776551E-01,5.215186E+03,4.361182E-02,0.000000E+00,0.000000E+00,4.361182E-02,7.459307E+02,2.463202E-01,2.727193E+03,4.126334E+03
08:00:00,1.479668E-01,6.879201E+03,9.698115E-02,0.000000E+00,0.000000E+00,9.698115E-02,1.629208E+03,4.397987E-01,4.879257E+03,8.070108E+03,2.864848E-01,8.543249E+03,7.351799E-02,0.000000E+00,0.000000E+00,7.351799E-02,1.235045E+03,3.802973E-01,4.226628E+03,6.618107E+03,1.778668E-01,5.219213E+03,4.361182E-02,0.000000E+00,0.000000E+00,4.361182E-02,7.326448E+02,4.104612E-01,4.587615E+03,6.084459E+03,2.698652E-01,8.225920E+03,7.351799E-02,0.000000E+00,0.000000E+00,7.351799E-02,1.235045E+03,3.686219E-01,4.095242E+03,6.481022E+03,1.776475E-01,5.215026E+03,4.361182E-02,0.000000E+00,0.000000E+00,4.361182E-02,7.326448E+02,2.429614E-01,2.702692E+03,4.141066E+03
08:10:00,1.479553E-01,6.878976E+03,9.698115E-02,0.000000E+00,0.000000E+00,9.698115E-02,1.596188E+03,4.335964E-01,4.842503E+03,8.108837E+03,2.864745E-01,8.543036E+03,7.351799E-02,0.000000E+00,0.000000E+00,7.351799E-02,1.210014E+03,3.773025E-01,4.217973E+03,6.668084E+03,1.778599E-01,5.219071E+03,4.361182E-02,0.000000E+00,0.000000E+00,4.361182E-02,7.177959E+02,4.105487E-01,4.603461E+03,6.138615E+03,2.698549E-01,8.225708E+03,7.351799E-02,0.000000E+00,0.000000E+00,7.351799E-02,1.210014E+03,3.651018E-01,4.080675E+03,6.524438E+03,1.776406E-01,5.214884E+03,4.361182E-02,0.000000E+00,0.000000E+00,4.361182E-02,7.177959E+02,2.403527E-01,2.688193E+03,4.161636E+03
08:20:00,1.479448E-01,6.878771E+03,9.698115E-02,0.000000E+00,0.000000E+00,9.698115E-02,1.563168E+03,4.283906E-01,4.816958E+03,8.085262E+03,2.864652E-01,8.542847E+03,7.351799E-02,0.000000E+00,0.000000E+00,7.351799E-02,1.184983E+03,3.749645E-01,4.216706E+03,6.669370E+03,1.778536E-01,5.218945E+03,4.361182E-02,0.000000E+00,0.000000E+00,4.361182E-02,7.029469E+02,4.100537E-01,4.612751E+03,6.151333E+03,2.698457E-01,8.225520E+03,7.351799E-02,0.000000E+00,0.000000E+00,7.351799E-02,1.184983E+03,3.623893E-01,4.075194E+03,6.521057E+03,1.776344E-01,5.214759E+03,4.361182E-02,0.000000E+00,0.000000E+00,4.361182E-02,7.029469E+02,2.383186E-01,2.680157E+03,4.155235E+03
08:30:00,1.479353E-01,6.878584E+03,9.698115E-02,0.000000E+00,0.000000E+00,9.698115E-02,1.530148E+03,4.240343E-01,4.800957E+03,8.070285E+03,2.864569E-01,8.542681E+03,7.351799E-02,0.000000E+00,0.000000E+00,7.351799E-02,1.159951E+03,3.731233E-01,4.221019E+03,6.675388E+03,1.778481E-01,5.218835E+03,4.361182E-02,0.000000E+00,0.000000E+00,4.361182E-02,6.880980E+02,4.090797E-01,4.616639E+03,6.156806E+03,2.698374E-01,8.225354E+03,7.351799E-02,0.000000E+00,0.000000E+00,7.351799E-02,1.159951E+03,3.603141E-01,4.076873E+03,6.524191E+03,1.776288E-01,5.214648E+03,4.361182E-02,0.000000E+00,0.000000E+00,4.361182E-02,6.880980E+02,2.367422E-01,2.677267E+03,4.153311E+03
08:40:00,1.479266E-01,6.878415E+03,9.698115E-02,0.000000E+00,0.000000E+00,9.698115E-02,1.497128E+03,4.203548E-01,4.792568E+03,8.062171E+03,2.864495E-01,8.542535E+03,7.351799E-02,0.000000E+00,0.000000E+00,7.351799E-02,1.134920E+03,3.716708E-01,4.229703E+03,6.685152E+03,1.778432E-01,5.218738E+03,4.361182E-02,0.000000E+00,0.000000E+00,4.361182E-02,6.732491E+02,4.076958E-01,4.615913E+03,6.156707E+03,2.698300E-01,8.225208E+03,7.351799E-02,0.000000E+00,0.000000E+00,7.351799E-02,1.134920E+03,3.587126E-01,4.083879E+03,6.532134E+03,1.776239E-01,5.214551E+03,4.361182E-02,0.000000E+00,0.000000E+00,4.361182E-02,6.732491E+02,2.355208E-01,2.678368E+03,4.154927E+03
08:50:00,1.479186E-01,6.878260E+03,9.698115E-02,0.000000E+00,0.000000E+00,9.698115E-02,1.464108E+03,4.172117E-01,4.790215E+03,8.059689E+03,2.864430E-01,8.542407E+03,7.351799E-02,0.000000E+00,0.000000E+00,7.351799E-02,1.109888E+03,3.705213E-01,4.241796E+03,6.697967E+03,1.778388E-01,5.218652E+03,4.361182E-02,0.000000E+00,0.000000E+00,4.361182E-02,6.584001E+02,4.058823E-01,4.610351E+03,6.151313E+03,2.698234E-01,8.225078E+03,7.351799E-02,0.000000E+00,0.000000E+00,7.351799E-02,1.109888E+03,3.574912E-01,4.095164E+03,6.544102E+03,1.776196E-01,5.214466E+03,4.361182E-02,0.000000E+00,0.000000E+00,4.361182E-02,6.584001E+02,2.345931E-01,2.682776E+03,4.159648E+03
09:00:00,1.479114E-01,6.878120E+03,9.698115E-02,0.000000E+00,0.000000E+00,9.698115E-02,1.431088E+03,4.144906E-01,4.792611E+03,8.061734E+03,2.864372E-01,8.542293E+03,7.351799E-02,0.000000E+00,0.000000E+00,7.351799E-02,1.084857E+03,3.695577E-01,4.255981E+03,6.712548E+03,1.778350E-01,5.218577E+03,4.361182E-02,0.000000E+00,0.000000E+00,4.361182E-02,6.435512E+02,4.037069E-01,4.600718E+03,6.141710E+03,2.698176E-01,8.224963E+03,7.351799E-02,0.000000E+00,0.000000E+00,7.351799E-02,1.084857E+03,3.564882E-01,4.108906E+03,6.558266E+03,1.776157E-01,5.214390E+03,4.361182E-02,0.000000E+00,0.000000E+00,4.361182E-02,6.435512E+02,2.338438E-01,2.689191E+03,4.166196E+03
09:10:00,1.479048E-01,6.877992E+03,9.698115E-02,0.000000E+00,0.000000E+00,9.698115E-02,1.401543E+03,4.120841E-01,4.795073E+03,8.063637E+03,2.864320E-01,8.542192E+03,7.351799E-02,0.000000E+00,0.000000E+00,7.351799E-02,1.062461E+03,3.688268E-01,4.270151E+03,6.726935E+03,1.778315E-01,5.218510E+03,4.361182E-02,0.000000E+00,0.000000E+00,4.361182E-02,6.302653E+02,4.009938E-01,4.583472E+03,6.124336E+03,2.698124E-01,8.224862E+03,7.351799E-02,0.000000E+00,0.000000E+00,7.351799E-02,1.062461E+03,3.556613E-01,4.121996E+03,6.571593E+03,1.776123E-01,5.214324E+03,4.361182E-02,0.000000E+00,0.000000E+00,4.361182E-02,6.302653E+02,2.332521E-01,2.695817E+03,4.172862E+03
09:20:00,1.478987E-01,6.877875E+03,9.698115E-02,0.000000E+00,0.000000E+00,9.698115E-02,1.371999E+03,4.099263E-01,4.800333E+03,8.068278E+03,2.864274E-01,8.542103E+03,7.351799E-02,0.000000E+00,0.000000E+00,7.351799E-02,1.040064E+03,3.684094E-01,4.287850E+03,6.744856E+03,1.778285E-01,5.218451E+03,4.361182E-02,0.000000E+00,0.000000E+00,4.361182E-02,6.169794E+02,3.975122E-01,4.557578E+03,6.098241E+03,2.698077E-01,8.224771E+03,7.351799E-02,0.000000E+00,0.000000E+00,7.351799E-02,1.040064E+03,3.549755E-01,4.136673E+03,6.586460E+03,1.776092E-01,5.214265E+03,4.361182E-02,0.000000E+00,0.000000E+00,4.361182E-02,6.169794E+02,2.327928E-01,2.703934E+03,4.181011E+03
09:30:00,1.478932E-01,6.877767E+03,9.698115E-02,0.000000E+00,0.000000E+00,9.698115E-02,1.342455E+03,4.079668E-01,4.807825E+03,8.075128E+03,2.864232E-01,8.542023E+03,7.351799E-02,0.000000E+00,0.000000E+00,7.351799E-02,1.017668E+03,3.684156E-01,4.310315E+03,6.767617E+03,1.778257E-01,5.218398E+03,4.361182E-02,0.000000E+00,0.000000E+00,4.361182E-02,6.036935E+02,3.928418E-01,4.518307E+03,6.058814E+03,2.698035E-01,8.224690E+03,7.351799E-02,0.000000E+00,0.000000E+00,7.351799E-02,1.017668E+03,3.543824E-01,4.152395E+03,6.602348E+03,1.776064E-01,5.214212E+03,4.361182E-02,0.000000E+00,0.000000E+00,4.361182E-02,6.036935E+02,2.324373E-01,2.713218E+03,4.190341E+03
09:40:00,1.478881E-01,6.877669E+03,9.698115E-02,0.000000E+00,0.000000E+00,9.698115E-02,1.312910E+03,4.061656E-01,4.817100E+03,8.083757E+03,2.864195E-01,8.541950E+03,7.351799E-02,0.000000E+00,0.000000E+00,7.351799E-02,9.952711E+02,3.689589E-01,4.338825E+03,6.796547E+03,1.778232E-01,5.218351E+03,4.361182E-02,0.000000E+00,0.000000E+00,4.361182E-02,5.904076E+02,3.867659E-01,4.463221E+03,6.003681E+03,2.697997E-01,8.224617E+03,7.351799E-02,0.000000E+00,0.000000E+00,7.351799E-02,9.952711E+02,3.538586E-01,4.168896E+03,6.619011E+03,1.776040E-01,5.214164E+03,4.361182E-02,0.000000E+00,0.000000E+00,4.361182E-02,5.904076E+02,2.321758E-01,2.723561E+03,4.200756E+03
09:50:00,1.478834E-01,6.877578E+03,9.698115E-02,0.000000E+00,0.000000E+00,9.698115E-02,1.283366E+03,4.044911E-01,4.827800E+03,8.093812E+03,2.864161E-01,8.541885E+03,7.351799E-02,0.000000E+00,0.000000E+00,7.351799E-02,9.728746E+02,3.701192E-01,4.374278E+03,6.832611E+03,1.778210E-01,5.218308E+03,4.361182E-02,0.000000E+00,0.000000E+00,4.361182E-02,5.771218E+02,3.789943E-01,4.389052E+03,5.929238E+03,2.697963E-01,8.224551E+03,7.351799E-02,0.000000E+00,0.000000E+00,7.351799E-02,9.728746E+02,3.534192E-01,4.186348E+03,6.636631E+03,1.776017E-01,5.214121E+03,4.361182E-02,0.000000E+00,0.000000E+00,4.361182E-02,5.771218E+02,2.320238E-01,2.735137E+03,4.212431E+03
10:00:00,1.478791E-01,6.877495E+03,9.698115E-02,0.000000E+00,0.000000E+00,9.698115E-02,1.253822E+03,4.029316E-01,4.839783E+03,8.105003E+03,2.864130E-01,8.541826E+03,7.351799E-02,0.000000E+00,0.000000E+00,7.351799E-02,9.504782E+02,3.720091E-01,4.417932E+03,6.877433E+03,1.778190E-01,5.218269E+03,4.361182E-02,0.000000E+00,0.000000E+00,4.361182E-02,5.638359E+02,3.695836E-01,4.296430E+03,5.835077E+03,2.697931E-01,8.224491E+03,7.351799E-02,0.000000E+00,0.000000E+00,7.351799E-02,9.504782E+02,3.530335E-01,4.204396E+03,6.654774E+03,1.775997E-01,5.214082E+03,4.361182E-02,0.000000E+00,0.000000E+00,4.361182E-02,5.638359E+02,2.319615E-01,2.747715E+03,4.225108E+03
10:10:00,1.478751E-01,6.877417E+03,9.698115E-02,0.000000E+00,0.000000E+00,9.698115E-02,1.227753E+03,4.014511E-01,4.849175E+03,8.113739E+03,2.864101E-01,8.541771E+03,7.351799E-02,0.000000E+00,0.000000E+00,7.351799E-02,9.307165E+02,3.746988E-01,4.467946E+03,6.928771E+03,1.778171E-01,5.218233E+03,4.361182E-02,0.000000E+00,0.000000E+00,4.361182E-02,5.521130E+02,3.586331E-01,4.184912E+03,5.721750E+03,2.697903E-01,8.224436E+03,7.351799E-02,0.000000E+00,0.000000E+00,7.351799E-02,9.307165E+02,3.526547E-01,4.219881E+03,6.670304E+03,1.775979E-01,5.214047E+03,4.361182E-02,0.000000E+00,0.000000E+00,4.361182E-02,5.521130E+02,2.319553E-01,2.759360E+03,4.236835E+03
10:20:00,1.478714E-01,6.877346E+03,9.698115E-02,0.000000E+00,0.000000E+00,9.698115E-02,1.201685E+03,4.000386E-01,4.859331E+03,8.123243E+03,2.864075E-01,8.541721E+03,7.351799E-02,0.000000E+00,0.000000E+00,7.351799E-02,9.109549E+02,3.781864E-01,4.526939E+03,6.989522E+03,1.778154E-01,5.218201E+03,4.361182E-02,0.000000E+00,0.000000E+00,4.361182E-02,5.403902E+02,3.464792E-01,4.059852E+03,5.593610E+03,2.697876E-01,8.224386E+03,7.351799E-02,0.000000E+00,0.000000E+00,7.351799E-02,9.109549E+02,3.522807E-01,4.235421E+03,6.685923E+03,1.775961E-01,5.214014E+03,4.361182E-02,0.000000E+00,0.000000E+00,4.361182E-02,5.403902E+02,2.319981E-01,2.771555E+03,4.249177E+03
10:30:00,1.478679E-01,6.877279E+03,9.698115E-02,0.000000E+00,0.000000E+00,9.698115E-02,1.175616E+03,3.986863E-01,4.870165E+03,8.133459E+03,2.864051E-01,8.541675E+03,7.351799E-02,0.000000E+00,0.000000E+00,7.351799E-02,8.911933E+02,3.824271E-01,4.594407E+03,7.059111E+03,1.778138E-01,5.218171E+03,4.361182E-02,0.000000E+00,0.000000E+00,4.361182E-02,5.286673E+02,3.337866E-01,3.928730E+03,5.458506E+03,2.697852E-01,8.224339E+03,7.351799E-02,0.000000E+00,0.000000E+00,7.351799E-02,8.911933E+02,3.519232E-01,4.251146E+03,6.701774E+03,1.775946E-01,5.213984E+03,4.361182E-02,0.000000E+00,0.000000E+00,4.361182E-02,5.286673E+02,2.320870E-01,2.784268E+03,4.262102E+03
10:40:00,1.478646E-01,6.877217E+03,9.698115E-02,0.000000E+00,0.000000E+00,9.698115E-02,1.149548E+03,3.973911E-01,4.881642E+03,8.144344E+03,2.864029E-01,8.541632E+03,7.351799E-02,0.000000E+00,0.000000E+00,7.351799E-02,8.714317E+02,3.873255E-01,4.669275E+03,7.136380E+03,1.778124E-01,5.218143E+03,4.361182E-02,0.000000E+00,0.000000E+00,4.361182E-02,5.169445E+02,3.211277E-01,3.797989E+03,5.323003E+03,2.697830E-01,8.224296E+03,7.351799E-02,0.000000E+00,0.000000E+00,7.351799E-02,8.714317E+02,3.515812E-01,4.267046E+03,6.717819E+03,1.775931E-01,5.213956E+03,4.361182E-02,0.000000E+00,0.000000E+00,4.361182E-02,5.169445E+02,2.322064E-01,2.797326E+03,4.275403E+03
10:50:00,1.478616E-01,6.877158E+03,9.698115E-02,0.000000E+00,0.000000E+00,9.698115E-02,1.123479E+03,3.961535E-01,4.893766E+03,8.155903E+03,2.864008E-01,8.541592E+03,7.351799E-02,0.000000E+00,0.000000E+00,7.351799E-02,8.516701E+02,3.928299E-01,4.750961E+03,7.220769E+03,1.778110E-01,5.218117E+03,4.361182E-02,0.000000E+00,0.000000E+00,4.361182E-02,5.052217E+02,3.092196E-01,3.675696E+03,5.195564E+03,2.697809E-01,8.224256E+03,7.351799E-02,0.000000E+00,0.000000E+00,7.351799E-02,8.516701E+02,3.512253E-01,4.282789E+03,6.733643E+03,1.775917E-01,5.213930E+03,4.361182E-02,0.000000E+00,0.000000E+00,4.361182E-02,5.052217E+02,2.323205E-01,2.810324E+03,4.288611E+03
11:00:00,1.478587E-01,6.877103E+03,9.698115E-02,0.000000E+00,0.000000E+00,9.698115E-02,1.097411E+03,3.949627E-01,4.906430E+03,8.167997E+03,2.863988E-01,8.541555E+03,7.351799E-02,0.000000E+00,0.000000E+00,7.351799E-02,8.319085E+02,3.987873E-01,4.837756E+03,7.310438E+03,1.778097E-01,5.218092E+03,4.361182E-02,0.000000E+00,0.000000E+00,4.361182E-02,4.934988E+02,2.984747E-01,3.566500E+03,5.081021E+03,2.697789E-01,8.224218E+03,7.351799E-02,0.000000E+00,0.000000E+00,7.351799E-02,8.319085E+02,3.508801E-01,4.298662E+03,6.749553E+03,1.775905E-01,5.213906E+03,4.361182E-02,0.000000E+00,0.000000E+00,4.361182E-02,4.934988E+02,2.324320E-01,2.823297E+03,4.301765E+03
11:10:00,1.478561E-01,6.877052E+03,9.698115E-02,0.000000E+00,0.000000E+00,9.698115E-02,1.080032E+03,3.938261E-01,4.911017E+03,8.171869E+03,2.863970E-01,8.541519E+03,7.351799E-02,0.000000E+00,0.000000E+00,7.351799E-02,8.187341E+02,4.050105E-01,4.920960E+03,7.396485E+03,1.778085E-01,5.218069E+03,4.361182E-02,0.000000E+00,0.000000E+00,4.361182E-02,4.856836E+02,2.892664E-01,3.470692E+03,4.979971E+03,2.697770E-01,8.224182E+03,7.351799E-02,0.000000E+00,0.000000E+00,7.351799E-02,8.187341E+02,3.505564E-01,4.308193E+03,6.758996E+03,1.775893E-01,5.213883E+03,4.361182E-02,0.000000E+00,0.000000E+00,4.361182E-02,4.856836E+02,2.325355E-01,2.832278E+03,4.310845E+03
11:20:00,1.478535E-01,6.877003E+03,9.698115E-02,0.000000E+00,0.000000E+00,9.698115E-02,1.062653E+03,3.927445E-01,4.916226E+03,8.176442E+03,2.863952E-01,8.541486E+03,7.351799E-02,0.000000E+00,0.000000E+00,7.351799E-02,8.055597E+02,4.113486E-01,5.005457E+03,7.483934E+03,1.778074E-01,5.218048E+03,4.361182E-02,0.000000E+00,0.000000E+00,4.361182E-02,4.778684E+02,2.817733E-01,3.394185E+03,4.898792E+03,2.697753E-01,8.224149E+03,7.351799E-02,0.000000E+00,0.000000E+00,7.351799E-02,8.055597E+02,3.502640E-01,4.318078E+03,6.768864E+03,1.775881E-01,5.213861E+03,4.361182E-02,0.000000E+00,0.000000E+00,4.361182E-02,4.778684E+02,2.326287E-01,2.841142E+03,4.319846E+03
11:30:00,1.478511E-01,6.876956E+03,9.698115E-02,0.000000E+00,0.000000E+00,9.698115E-02,1.045274E+03,3.917426E-01,4.922317E+03,8.181797E+03,2.863936E-01,8.541454E+03,7.351799E-02,0.000000E+00,0.000000E+00,7.351799E-02,7.923853E+02,4.176627E-01,5.089672E+03,7.572104E+03,1.778063E-01,5.218027E+03,4.361182E-02,0.000000E+00,0.000000E+00,4.361182E-02,4.700531E+02,2.759087E-01,3.335997E+03,4.836188E+03,2.697736E-01,8.224117E+03,7.351799E-02,0.000000E+00,0.000000E+00,7.351799E-02,7.923853E+02,3.500241E-01,4.328542E+03,6.779349E+03,1.775871E-01,5.213841E+03,4.361182E-02,0.000000E+00,0.000000E+00,4.361182E-02,4.700531E+02,2.327187E-01,2.849963E+03,4.328847E+03
11:40:00,1.478488E-01,6.876913E+03,9.698115E-02,0.000000E+00,0.000000E+00,9.698115E-02,1.027895E+03,3.907959E-01,4.929016E+03,8.188041E+03,2.863920E-01,8.541424E+03,7.351799E-02,0.000000E+00,0.000000E+00,7.351799E-02,7.792108E+02,4.238013E-01,5.171898E+03,7.656899E+03,1.778053E-01,5.218008E+03,4.361182E-02,0.000000E+00,0.000000E+00,4.361182E-02,4.622379E+02,2.715284E-01,3.294501E+03,4.792199E+03,2.697721E-01,8.224087E+03,7.351799E-02,0.000000E+00,0.000000E+00,7.351799E-02,7.792108E+02,3.498219E-01,4.339420E+03,6.790299E+03,1.775860E-01,5.213821E+03,4.361182E-02,0.000000E+00,0.000000E+00,4.361182E-02,4.622379E+02,2.327936E-01,2.858607E+03,4.337624E+03
11:50:00,1.478466E-01,6.876871E+03,9.698115E-02,0.000000E+00,0.000000E+00,9.698115E-02,1.010516E+03,3.899059E-01,4.936352E+03,8.194912E+03,2.863905E-01,8.541396E+03,7.351799E-02,0.000000E+00,0.000000E+00,7.351799E-02,7.660364E+02,4.296148E-01,5.250465E+03,7.738155E+03,1.778043E-01,5.217989E+03,4.361182E-02,0.000000E+00,0.000000E+00,4.361182E-02,4.544227E+02,2.683565E-01,3.266604E+03,4.762481E+03,2.697706E-01,8.224059E+03,7.351799E-02,0.000000E+00,0.000000E+00,7.351799E-02,7.660364E+02,3.496567E-01,4.350713E+03,6.801666E+03,1.775851E-01,5.213803E+03,4.361182E-02,0.000000E+00,0.000000E+00,4.361182E-02,4.544227E+02,2.328524E-01,2.867068E+03,4.346205E+03
12:00:00,1.478446E-01,6.876831E+03,9.698115E-02,0.000000E+00,0.000000E+00,9.698115E-02,9.931368E+02,3.890694E-01,4.944290E+03,8.202426E+03,2.863891E-01,8.541368E+03,7.351799E-02,0.000000E+00,0.000000E+00,7.351799E-02,7.528620E+02,4.349901E-01,5.324100E+03,7.814277E+03,1.778034E-01,5.217972E+03,4.361182E-02,0.000000E+00,0.000000E+00,4.361182E-02,4.466074E+02,2.660811E-01,3.248795E+03,4.743483E+03,2.697691E-01,8.224032E+03,7.351799E-02,0.000000E+00,0.000000E+00,7.351799E-02,7.528620E+02,3.495235E-01,4.362367E+03,6.813390E+03,1.775841E-01,5.213785E+03,4.361182E-02,0.000000E+00,0.000000E+00,4.361182E-02,4.466074E+02,2.328944E-01,2.875342E+03,4.354572E+03
12:10:00,1.478426E-01,6.876793E+03,9.698115E-02,0.000000E+00,0.000000E+00,9.698115E-02,9.792336E+02,3.882941E-01,4.949441E+03,8.207146E+03,2.863877E-01,8.541342E+03,7.351799E-02,0.000000E+00,0.000000E+00,7.351799E-02,7.423225E+02,4.398514E-01,5.389317E+03,7.881746E+03,1.778025E-01,5.217955E+03,4.361182E-02,0.000000E+00,0.000000E+00,4.361182E-02,4.403553E+02,2.644098E-01,3.236222E+03,4.730076E+03,2.697678E-01,8.224005E+03,7.351799E-02,0.000000E+00,0.000000E+00,7.351799E-02,7.423225E+02,3.494427E-01,4.371975E+03,6.823061E+03,1.775833E-01,5.213768E+03,4.361182E-02,0.000000E+00,0.000000E+00,4.361182E-02,4.403553E+02,2.329376E-01,2.882065E+03,4.361364E+03
12:20:00,1.478407E-01,6.876756E+03,9.698115E-02,0.000000E+00,0.000000E+00,9.698115E-02,9.653304E+02,3.875728E-01,4.955199E+03,8.212544E+03,2.863864E-01,8.541317E+03,7.351799E-02,0.000000E+00,0.000000E+00,7.351799E-02,7.317830E+02,4.441118E-01,5.447771E+03,7.942271E+03,1.778017E-01,5.217939E+03,4.361182E-02,0.000000E+00,0.000000E+00,4.361182E-02,4.341031E+02,2.631415E-01,3.228185E+03,4.721432E+03,2.697664E-01,8.223980E+03,7.351799E-02,0.000000E+00,0.000000E+00,7.351799E-02,7.317830E+02,3.494080E-01,4.382102E+03,6.833311E+03,1.775824E-01,5.213752E+03,4.361182E-02,0.000000E+00,0.000000E+00,4.361182E-02,4.341031E+02,2.329822E-01,2.888804E+03,4.368196E+03
12:30:00,1.478388E-01,6.876721E+03,9.698115E-02,0.000000E+00,0.000000E+00,9.698115E-02,9.514272E+02,3.868752E-01,4.961238E+03,8.218227E+03,2.863851E-01,8.541293E+03,7.351799E-02,0.000000E+00,0.000000E+00,7.351799E-02,7.212434E+02,4.476818E-01,5.498468E+03,7.994794E+03,1.778009E-01,5.217923E+03,4.361182E-02,0.000000E+00,0.000000E+00,4.361182E-02,4.278509E+02,2.622199E-01,3.224055E+03,4.716928E+03,2.697652E-01,8.223956E+03,7.351799E-02,0.000000E+00,0.000000E+00,7.351799E-02,7.212434E+02,3.493977E-01,4.392514E+03,6.843864E+03,1.775816E-01,5.213736E+03,4.361182E-02,0.000000E+00,0.000000E+00,4.361182E-02,4.278509E+02,2.330185E-01,2.895456E+03,4.374938E+03
12:40:00,1.478371E-01,6.876688E+03,9.698115E-02,0.000000E+00,0.000000E+00,9.698115E-02,9.375240E+02,3.862187E-01,4.967753E+03,8.224430E+03,2.863839E-01,8.541270E+03,7.351799E-02,0.000000E+00,0.000000E+00,7.351799E-02,7.107039E+02,4.505251E-01,5.541004E+03,8.038898E+03,1.778001E-01,5.217908E+03,4.361182E-02,0.000000E+00,0.000000E+00,4.361182E-02,4.215987E+02,2.615269E-01,3.222508E+03,4.715120E+03,2.697640E-01,8.223933E+03,7.351799E-02,0.000000E+00,0.000000E+00,7.351799E-02,7.107039E+02,3.494227E-01,4.403334E+03,6.854850E+03,1.775808E-01,5.213721E+03,4.361182E-02,0.000000E+00,0.000000E+00,4.361182E-02,4.215987E+02,2.330558E-01,2.902128E+03,4.381703E+03
12:50:00,1.478354E-01,6.876655E+03,9.698115E-02,0.000000E+00,0.000000E+00,9.698115E-02,9.236208E+02,3.856284E-01,4.975013E+03,8.231354E+03,2.863827E-01,8.541247E+03,7.351799E-02,0.000000E+00,0.000000E+00,7.351799E-02,7.001644E+02,4.526084E-01,5.574988E+03,8.074301E+03,1.777993E-01,5.217894E+03,4.361182E-02,0.000000E+00,0.000000E+00,4.361182E-02,4.153465E+02,2.610214E-01,3.223070E+03,4.715474E+03,2.697628E-01,8.223911E+03,7.351799E-02,0.000000E+00,0.000000E+00,7.351799E-02,7.001644E+02,3.494991E-01,4.414733E+03,6.866502E+03,1.775801E-01,5.213707E+03,4.361182E-02,0.000000E+00,0.000000E+00,4.361182E-02,4.153465E+02,2.331062E-01,2.908947E+03,4.388655E+03
13:00:00,1.478338E-01,6.876624E+03,9.698115E-02,0.000000E+00,0.000000E+00,9.698115E-02,9.097176E+02,3.850633E-01,4.982509E+03,8.238559E+03,2.863816E-01,8.541226E+03,7.351799E-02,0.000000E+00,0.000000E+00,7.351799E-02,6.896249E+02,4.538852E-01,5.599854E+03,8.099947E+03,1.777986E-01,5.217880E+03,4.361182E-02,0.000000E+00,0.000000E+00,4.361182E-02,4.090943E+02,2.606495E-01,3.225113E+03,4.717395E+03,2.697617E-01,8.223889E+03,7.351799E-02,0.000000E+00,0.000000E+00,7.351799E-02,6.896249E+02,3.496015E-01,4.426389E+03,6.878325E+03,1.775793E-01,5.213693E+03,4.361182E-02,0.000000E+00,0.000000E+00,4.361182E-02,4.090943E+02,2.331560E-01,2.915737E+03,4.395514E+03
13:10:00,1.478322E-01,6.876594E+03,9.698115E-02,0.000000E+00,0.000000E+00,9.698115E-02,9.010281E+02,3.845096E-01,4.984913E+03,8.240563E+03,2.863805E-01,8.541205E+03,7.351799E-02,0.000000E+00,0.000000E+00,7.351799E-02,6.830377E+02,4.543249E-01,5.611342E+03,8.111799E+03,1.777979E-01,5.217866E+03,4.361182E-02,0.000000E+00,0.000000E+00,4.361182E-02,4.051867E+02,2.603689E-01,3.225833E+03,4.717973E+03,2.697606E-01,8.223869E+03,7.351799E-02,0.000000E+00,0.000000E+00,7.351799E-02,6.830377E+02,3.497125E-01,4.434185E+03,6.886187E+03,1.775786E-01,5.213679E+03,4.361182E-02,0.000000E+00,0.000000E+00,4.361182E-02,4.051867E+02,2.331944E-01,2.920050E+03,4.399828E+03
13:20:00,1.478307E-01,6.876565E+03,9.698115E-02,0.000000E+00,0.000000E+00,9.698115E-02,8.923386E+02,3.839629E-01,4.987396E+03,8.242713E+03,2.863794E-01,8.541185E+03,7.351799E-02,0.000000E+00,0.000000E+00,7.351799E-02,6.764505E+02,4.539275E-01,5.613408E+03,8.113998E+03,1.777972E-01,5.217853E+03,4.361182E-02,0.000000E+00,0.000000E+00,4.361182E-02,4.012791E+02,2.601528E-01,3.227280E+03,4.719365E+03,2.697595E-01,8.223849E+03,7.351799E-02,0.000000E+00,0.000000E+00,7.351799E-02,6.764505E+02,3.498284E-01,4.442034E+03,6.894179E+03,1.775779E-01,5.213666E+03,4.361182E-02,0.000000E+00,0.000000E+00,4.361182E-02,4.012791E+02,2.332083E-01,2.924086E+03,4.403894E+03
13:30:00,1.478292E-01,6.876537E+03,9.698115E-02,0.000000E+00,0.000000E+00,9.698115E-02,8.836491E+02,3.834206E-01,4.989927E+03,8.244953E+03,2.863784E-01,8.541165E+03,7.351799E-02,0.000000E+00,0.000000E+00,7.351799E-02,6.698633E+02,4.527108E-01,5.606256E+03,8.106695E+03,1.777966E-01,5.217841E+03,4.361182E-02,0.000000E+00,0.000000E+00,4.361182E-02,3.973715E+02,2.599804E-01,3.229217E+03,4.721293E+03,2.697585E-01,8.223829E+03,7.351799E-02,0.000000E+00,0.000000E+00,7.351799E-02,6.698633E+02,3.499461E-01,4.449904E+03,6.902231E+03,1.775773E-01,5.213654E+03,4.361182E-02,0.000000E+00,0.000000E+00,4.361182E-02,3.973715E+02,2.331869E-01,2.927726E+03,4.407581E+03
13:40:00,1.478278E-01,6.876510E+03,9.698115E-02,0.000000E+00,0.000000E+00,9.698115E-02,8.749596E+02,3.828821E-01,4.992502E+03,8.247255E+03,2.863774E-01,8.541146E+03,7.351799E-02,0.000000E+00,0.000000E+00,7.351799E-02,6.632761E+02,4.507057E-01,5.590233E+03,8.090193E+03,1.777959E-01,5.217828E+03,4.361182E-02,0.000000E+00,0.000000E+00,4.361182E-02,3.934639E+02,2.598345E-01,3.231454E+03,4.723538E+03,2.697575E-01,8.223810E+03,7.351799E-02,0.000000E+00,0.000000E+00,7.351799E-02,6.632761E+02,3.500643E-01,4.457780E+03,6.910298E+03,1.775766E-01,5.213642E+03,4.361182E-02,0.000000E+00,0.000000E+00,4.361182E-02,3.934639E+02,2.333752E-01,2.933725E+03,4.414057E+03
13:50:00,1.478264E-01,6.876484E+03,9.698115E-02,0.000000E+00,0.000000E+00,9.698115E-02,8.662701E+02,3.823138E-01,4.994742E+03,8.249148E+03,2.863765E-01,8.541128E+03,7.351799E-02,0.000000E+00,0.000000E+00,7.351799E-02,6.566888E+02,4.479591E-01,5.565867E+03,8.064993E+03,1.777953E-01,5.217817E+03,4.361182E-02,0.000000E+00,0.000000E+00,4.361182E-02,3.895563E+02,2.596882E-01,3.233685E+03,4.725758E+03,2.697566E-01,8.223792E+03,7.351799E-02,0.000000E+00,0.000000E+00,7.351799E-02,6.566888E+02,3.501605E-01,4.465408E+03,6.918071E+03,1.775760E-01,5.213630E+03,4.361182E-02,0.000000E+00,0.000000E+00,4.361182E-02,3.895563E+02,2.340923E-01,2.945673E+03,4.426709E+03
14:00:00,1.478251E-01,6.876458E+03,9.698115E-02,0.000000E+00,0.000000E+00,9.698115E-02,8.575806E+02,3.817535E-01,4.997121E+03,8.251178E+03,2.863755E-01,8.541110E+03,7.351799E-02,0.000000E+00,0.000000E+00,7.351799E-02,6.501016E+02,4.445659E-01,5.534269E+03,8.032230E+03,1.777947E-01,5.217805E+03,4.361182E-02,0.000000E+00,0.000000E+00,4.361182E-02,3.856487E+02,2.595409E-01,3.235929E+03,4.727975E+03,2.697557E-01,8.223775E+03,7.351799E-02,0.000000E+00,0.000000E+00,7.351799E-02,6.501016E+02,3.502578E-01,4.473084E+03,6.925872E+03,1.775754E-01,5.213618E+03,4.361182E-02,0.000000E+00,0.000000E+00,4.361182E-02,3.856487E+02,2.357520E-01,2.968251E+03,4.450204E+03
14:10:00,1.478238E-01,6.876434E+03,9.698115E-02,0.000000E+00,0.000000E+00,9.698115E-02,8.575806E+02,3.812020E-01,4.990914E+03,8.244417E+03,2.863746E-01,8.541093E+03,7.351799E-02,0.000000E+00,0.000000E+00,7.351799E-02,6.501016E+02,4.406059E-01,5.489713E+03,7.986032E+03,1.777941E-01,5.217794E+03,4.361182E-02,0.000000E+00,0.000000E+00,4.361182E-02,3.856487E+02,2.593742E-01,3.234052E+03,4.725954E+03,2.697548E-01,8.223757E+03,7.351799E-02,0.000000E+00,0.000000E+00,7.351799E-02,6.501016E+02,3.503490E-01,4.474109E+03,6.926837E+03,1.775748E-01,5.213607E+03,4.361182E-02,0.000000E+00,0.000000E+00,4.361182E-02,3.856487E+02,2.387722E-01,3.002230E+03,4.485277E+03
14:20:00,1.478225E-01,6.876410E+03,9.698115E-02,0.000000E+00,0.000000E+00,9.698115E-02,8.575806E+02,3.806671E-01,4.984896E+03,8.237925E+03,2.863737E-01,8.541076E+03,7.351799E-02,0.000000E+00,0.000000E+00,7.351799E-02,6.501016E+02,4.362033E-01,5.440177E+03,7.934729E+03,1.777936E-01,5.217783E+03,4.361182E-02,0.000000E+00,0.000000E+00,4.361182E-02,3.856487E+02,2.591777E-01,3.231841E+03,4.723656E+03,2.697539E-01,8.223741E+03,7.351799E-02,0.000000E+00,0.000000E+00,7.351799E-02,6.501016E+02,3.504400E-01,4.475133E+03,6.927888E+03,1.775743E-01,5.213597E+03,4.361182E-02,0.000000E+00,0.000000E+00,4.361182E-02,3.856487E+02,2.435531E-01,3.056020E+03,4.540671E+03
14:30:00,1.478213E-01,6.876386E+03,9.698115E-02,0.000000E+00,0.000000E+00,9.698115E-02,8.575806E+02,3.801574E-01,4.979161E+03,8.231773E+03,2.863729E-01,8.541060E+03,7.351799E-02,0.000000E+00,0.000000E+00,7.351799E-02,6.501016E+02,4.314996E-01,5.387253E+03,7.879879E+03,1.777930E-01,5.217773E+03,4.361182E-02,0.000000E+00,0.000000E+00,4.361182E-02,3.856487E+02,2.589440E-01,3.229212E+03,4.720955E+03,2.697531E-01,8.223725E+03,7.351799E-02,0.000000E+00,0.000000E+00,7.351799E-02,6.501016E+02,3.505407E-01,4.476266E+03,6.929095E+03,1.775737E-01,5.213586E+03,4.361182E-02,0.000000E+00,0.000000E+00,4.361182E-02,3.856487E+02,2.504199E-01,3.133278E+03,4.620261E+03
14:40:00,1.478201E-01,6.876364E+03,9.698115E-02,0.000000E+00,0.000000E+00,9.698115E-02,8.575806E+02,3.796805E-01,4.973794E+03,8.226029E+03,2.863721E-01,8.541044E+03,7.351799E-02,0.000000E+00,0.000000E+00,7.351799E-02,6.501016E+02,4.266482E-01,5.332666E+03,7.823217E+03,1.777925E-01,5.217763E+03,4.361182E-02,0.000000E+00,0.000000E+00,4.361182E-02,3.856487E+02,2.586670E-01,3.226095E+03,4.717751E+03,2.697522E-01,8.223709E+03,7.351799E-02,0.000000E+00,0.000000E+00,7.351799E-02,6.501016E+02,3.506615E-01,4.477625E+03,6.930543E+03,1.775732E-01,5.213576E+03,4.361182E-02,0.000000E+00,0.000000E+00,4.361182E-02,3.856487E+02,2.593446E-01,3.233690E+03,4.723635E+03
14:50:00,1.478190E-01,6.876342E+03,9.698115E-02,0.000000E+00,0.000000E+00,9.698115E-02,8.575806E+02,3.792422E-01,4.968863E+03,8.220754E+03,2.863713E-01,8.541029E+03,7.351799E-02,0.000000E+00,0.000000E+00,7.351799E-02,6.501016E+02,4.218124E-01,5.278255E+03,7.766631E+03,1.777920E-01,5.217753E+03,4.361182E-02,0.000000E+00,0.000000E+00,4.361182E-02,3.856487E+02,2.583417E-01,3.222435E+03,4.713969E+03,2.697514E-01,8.223694E+03,7.351799E-02,0.000000E+00,0.000000E+00,7.351799E-02,6.501016E+02,3.508117E-01,4.479315E+03,6.932318E+03,1.775727E-01,5.213566E+03,4.361182E-02,0.000000E+00,0.000000E+00,4.361182E-02,3.856487E+02,2.700883E-01,3.354567E+03,4.847946E+03
15:00:00,1.478179E-01,6.876320E+03,9.698115E-02,0.000000E+00,0.000000E+00,9.698115E-02,8.575806E+02,3.788468E-01,4.964414E+03,8.215986E+03,2.863705E-01,8.541014E+03,7.351799E-02,0.000000E+00,0.000000E+00,7.351799E-02,6.501016E+02,4.171745E-01,5.226070E+03,7.712260E+03,1.777915E-01,5.217743E+03,4.361182E-02,0.000000E+00,0.000000E+00,4.361182E-02,3.856487E+02,2.579242E-01,3.217737E+03,4.709039E+03,2.697507E-01,8.223679E+03,7.351799E-02,0.000000E+00,0.000000E+00,7.351799E-02,6.501016E+02,3.509414E-01,4.480775E+03,6.933747E+03,1.775722E-01,5.213557E+03,4.361182E-02,0.000000E+00,0.000000E+00,4.361182E-02,3.856487E+02,2.824080E-01,3.493178E+03,4.990577E+03
15:10:00,1.478168E-01,6.876300E+03,9.698115E-02,0.000000E+00,0.000000E+00,9.698115E-02,8.680080E+02,3.784920E-01,4.949994E+03,8.201029E+03,2.863697E-01,8.540999E+03,7.351799E-02,0.000000E+00,0.000000E+00,7.351799E-02,6.580063E+02,4.128445E-01,5.169442E+03,7.653227E+03,1.777910E-01,5.217734E+03,4.361182E-02,0.000000E+00,0.000000E+00,4.361182E-02,3.903378E+02,2.574280E-01,3.207466E+03,4.698467E+03,2.697499E-01,8.223664E+03,7.351799E-02,0.000000E+00,0.000000E+00,7.351799E-02,6.580063E+02,3.510762E-01,4.474387E+03,6.927239E+03,1.775717E-01,5.213547E+03,4.361182E-02,0.000000E+00,0.000000E+00,4.361182E-02,3.903378E+02,2.957091E-01,3.638143E+03,5.139316E+03
15:20:00,1.478157E-01,6.876279E+03,9.698115E-02,0.000000E+00,0.000000E+00,9.698115E-02,8.784354E+02,3.781314E-01,4.935535E+03,8.186235E+03,2.863690E-01,8.540985E+03,7.351799E-02,0.000000E+00,0.000000E+00,7.351799E-02,6.659109E+02,4.088986E-01,5.117158E+03,7.599895E+03,1.777905E-01,5.217725E+03,4.361182E-02,0.000000E+00,0.000000E+00,4.361182E-02,3.950269E+02,2.568447E-01,3.196227E+03,4.687189E+03,2.697492E-01,8.223650E+03,7.351799E-02,0.000000E+00,0.000000E+00,7.351799E-02,6.659109E+02,3.511998E-01,4.467892E+03,6.920681E+03,1.775712E-01,5.213538E+03,4.361182E-02,0.000000E+00,0.000000E+00,4.361182E-02,3.950269E+02,3.094374E-01,3.787935E+03,5.289313E+03
15:30:00,1.478147E-01,6.876260E+03,9.698115E-02,0.000000E+00,0.000000E+00,9.698115E-02,8.888628E+02,3.778125E-01,4.921574E+03,8.171856E+03,2.863683E-01,8.540971E+03,7.351799E-02,0.000000E+00,0.000000E+00,7.351799E-02,6.738156E+02,4.054384E-01,5.070361E+03,7.550721E+03,1.777900E-01,5.217716E+03,4.361182E-02,0.000000E+00,0.000000E+00,4.361182E-02,3.997161E+02,2.561931E-01,3.184234E+03,4.674851E+03,2.697485E-01,8.223637E+03,7.351799E-02,0.000000E+00,0.000000E+00,7.351799E-02,6.738156E+02,3.513375E-01,4.461577E+03,6.914397E+03,1.775708E-01,5.213529E+03,4.361182E-02,0.000000E+00,0.000000E+00,4.361182E-02,3.997161E+02,3.228168E-01,3.933828E+03,5.441030E+03
15:40:00,1.478137E-01,6.876241E+03,9.698115E-02,0.000000E+00,0.000000E+00,9.698115E-02,8.992902E+02,3.775222E-01,4.907934E+03,8.157878E+03,2.863676E-01,8.540958E+03,7.351799E-02,0.000000E+00,0.000000E+00,7.351799E-02,6.817202E+02,4.024820E-01,5.029233E+03,7.507918E+03,1.777896E-01,5.217708E+03,4.361182E-02,0.000000E+00,0.000000E+00,4.361182E-02,4.044052E+02,2.554741E-01,3.171484E+03,4.661766E+03,2.697478E-01,8.223624E+03,7.351799E-02,0.000000E+00,0.000000E+00,7.351799E-02,6.817202E+02,3.514706E-01,4.455212E+03,6.908006E+03,1.775703E-01,5.213521E+03,4.361182E-02,0.000000E+00,0.000000E+00,4.361182E-02,4.044052E+02,3.353440E-01,4.070141E+03,5.581917E+03
15:50:00,1.478127E-01,6.876222E+03,9.698115E-02,0.000000E+00,0.000000E+00,9.698115E-02,9.097176E+02,3.772498E-01,4.894496E+03,8.144088E+03,2.863669E-01,8.540945E+03,7.351799E-02,0.000000E+00,0.000000E+00,7.351799E-02,6.896249E+02,3.999801E-01,4.993218E+03,7.470436E+03,1.777892E-01,5.217699E+03,4.361182E-02,0.000000E+00,0.000000E+00,4.361182E-02,4.090943E+02,2.546882E-01,3.157981E+03,4.647847E+03,2.697471E-01,8.223611E+03,7.351799E-02,0.000000E+00,0.000000E+00,7.351799E-02,6.896249E+02,3.515758E-01,4.448533E+03,6.901227E+03,1.775699E-01,5.213512E+03,4.361182E-02,0.000000E+00,0.000000E+00,4.361182E-02,4.090943E+02,3.467503E-01,4.193848E+03,5.710239E+03
16:00:00,1.478117E-01,6.876204E+03,9.698115E-02,0.000000E+00,0.000000E+00,9.698115E-02,9.201450E+02,3.769852E-01,4.881146E+03,8.130359E+03,2.863662E-01,8.540932E+03,7.351799E-02,0.000000E+00,0.000000E+00,7.351799E-02,6.975295E+02,3.977962E-01,4.960781E+03,7.436661E+03,1.777887E-01,5.217691E+03,4.361182E-02,0.000000E+00,0.000000E+00,4.361182E-02,4.137835E+02,2.538768E-01,3.144191E+03,4.633620E+03,2.697464E-01,8.223598E+03,7.351799E-02,0.000000E+00,0.000000E+00,7.351799E-02,6.975295E+02,3.516863E-01,4.441913E+03,6.894519E+03,1.775695E-01,5.213504E+03,4.361182E-02,0.000000E+00,0.000000E+00,4.361182E-02,4.137835E+02,3.567437E-01,4.301661E+03,5.822141E+03
16:10:00,1.478108E-01,6.876186E+03,9.698115E-02,0.000000E+00,0.000000E+00,9.698115E-02,9.340482E+02,3.767371E-01,4.864506E+03,8.113275E+03,2.863656E-01,8.540920E+03,7.351799E-02,0.000000E+00,0.000000E+00,7.351799E-02,7.080690E+02,3.959129E-01,4.929092E+03,7.403847E+03,1.777883E-01,5.217683E+03,4.361182E-02,0.000000E+00,0.000000E+00,4.361182E-02,4.200357E+02,2.530430E-01,3.128585E+03,4.617541E+03,2.697458E-01,8.223586E+03,7.351799E-02,0.000000E+00,0.000000E+00,7.351799E-02,7.080690E+02,3.517823E-01,4.432497E+03,6.884974E+03,1.775690E-01,5.213496E+03,4.361182E-02,0.000000E+00,0.000000E+00,4.361182E-02,4.200357E+02,3.654023E-01,4.392895E+03,5.916794E+03
16:20:00,1.478099E-01,6.876169E+03,9.698115E-02,0.000000E+00,0.000000E+00,9.698115E-02,9.479514E+02,3.765434E-01,4.848452E+03,8.096909E+03,2.863649E-01,8.540908E+03,7.351799E-02,0.000000E+00,0.000000E+00,7.351799E-02,7.186086E+02,3.943070E-01,4.900504E+03,7.374420E+03,1.777879E-01,5.217676E+03,4.361182E-02,0.000000E+00,0.000000E+00,4.361182E-02,4.262878E+02,2.521975E-01,3.112836E+03,4.601350E+03,2.697452E-01,8.223574E+03,7.351799E-02,0.000000E+00,0.000000E+00,7.351799E-02,7.186086E+02,3.518602E-01,4.422856E+03,6.875260E+03,1.775686E-01,5.213489E+03,4.361182E-02,0.000000E+00,0.000000E+00,4.361182E-02,4.262878E+02,3.727983E-01,4.469901E+03,5.996510E+03
16:30:00,1.478090E-01,6.876152E+03,9.698115E-02,0.000000E+00,0.000000E+00,9.698115E-02,9.618546E+02,3.763242E-01,4.832101E+03,8.080271E+03,2.863643E-01,8.540896E+03,7.351799E-02,0.000000E+00,0.000000E+00,7.351799E-02,7.291481E+02,3.928759E-01,4.873878E+03,7.347252E+03,1.777875E-01,5.217668E+03,4.361182E-02,0.000000E+00,0.000000E+00,4.361182E-02,4.325400E+02,2.513121E-01,3.096632E+03,4.584832E+03,2.697446E-01,8.223562E+03,7.351799E-02,0.000000E+00,0.000000E+00,7.351799E-02,7.291481E+02,3.518530E-01,4.412251E+03,6.864558E+03,1.775682E-01,5.213481E+03,4.361182E-02,0.000000E+00,0.000000E+00,4.361182E-02,4.325400E+02,3.792864E-01,4.536680E+03,6.065019E+03
16:40:00,1.478082E-01,6.876135E+03,9.698115E-02,0.000000E+00,0.000000E+00,9.698115E-02,9.757578E+02,3.761106E-01,4.815822E+03,8.063653E+03,2.863637E-01,8.540885E+03,7.351799E-02,0.000000E+00,0.000000E+00,7.351799E-02,7.396876E+02,3.915055E-01,4.847941E+03,7.320455E+03,1.777871E-01,5.217661E+03,4.361182E-02,0.000000E+00,0.000000E+00,4.361182E-02,4.387922E+02,2.503396E-01,3.079452E+03,4.567138E+03,2.697440E-01,8.223551E+03,7.351799E-02,0.000000E+00,0.000000E+00,7.351799E-02,7.396876E+02,3.516881E-01,4.399878E+03,6.851975E+03,1.775679E-01,5.213474E+03,4.361182E-02,0.000000E+00,0.000000E+00,4.361182E-02,4.387922E+02,3.851871E-01,4.596853E+03,6.127420E+03
16:50:00,1.478073E-01,6.876119E+03,9.698115E-02,0.000000E+00,0.000000E+00,9.698115E-02,9.896610E+02,3.758973E-01,4.799545E+03,8.047033E+03,2.863632E-01,8.540874E+03,7.351799E-02,0.000000E+00,0.000000E+00,7.351799E-02,7.502271E+02,3.902406E-01,4.823192E+03,7.294964E+03,1.777868E-01,5.217654E+03,4.361182E-02,0.000000E+00,0.000000E+00,4.361182E-02,4.450444E+02,2.493114E-01,3.061647E+03,4.548869E+03,2.697434E-01,8.223540E+03,7.351799E-02,0.000000E+00,0.000000E+00,7.351799E-02,7.502271E+02,3.514075E-01,4.386203E+03,6.838093E+03,1.775675E-01,5.213467E+03,4.361182E-02,0.000000E+00,0.000000E+00,4.361182E-02,4.450444E+02,3.905103E-01,4.650529E+03,6.182891E+03
17:00:00,1.478065E-01,6.876104E+03,9.698115E-02,0.000000E+00,0.000000E+00,9.698115E-02,1.003564E+03,3.756829E-01,4.783257E+03,8.030380E+03,2.863626E-01,8.540863E+03,7.351799E-02,0.000000E+00,0.000000E+00,7.351799E-02,7.607667E+02,3.891182E-01,4.800046E+03,7.271114E+03,1.777864E-01,5.217647E+03,4.361182E-02,0.000000E+00,0.000000E+00,4.361182E-02,4.512966E+02,2.482383E-01,3.043334E+03,4.530042E+03,2.697428E-01,8.223529E+03,7.351799E-02,0.000000E+00,0.000000E+00,7.351799E-02,7.607667E+02,3.510230E-01,4.371359E+03,6.822950E+03,1.775671E-01,5.213460E+03,4.361182E-02,0.000000E+00,0.000000E+00,4.361182E-02,4.512966E+02,3.952358E-01,4.697479E+03,6.231505E+03
17:10:00,1.478057E-01,6.876089E+03,9.698115E-02,0.000000E+00,0.000000E+00,9.698115E-02,1.020943E+03,3.754670E-01,4.763475E+03,8.010152E+03,2.863620E-01,8.540853E+03,7.351799E-02,0.000000E+00,0.000000E+00,7.351799E-02,7.739411E+02,3.881222E-01,4.775687E+03,7.246042E+03,1.777861E-01,5.217640E+03,4.361182E-02,0.000000E+00,0.000000E+00,4.361182E-02,4.591118E+02,2.471209E-01,3.022961E+03,4.509061E+03,2.697423E-01,8.223519E+03,7.351799E-02,0.000000E+00,0.000000E+00,7.351799E-02,7.739411E+02,3.505404E-01,4.352776E+03,6.803905E+03,1.775668E-01,5.213453E+03,4.361182E-02,0.000000E+00,0.000000E+00,4.361182E-02,4.591118E+02,3.993043E-01,4.735474E+03,6.271096E+03
17:20:00,1.478049E-01,6.876074E+03,9.698115E-02,0.000000E+00,0.000000E+00,9.698115E-02,1.038322E+03,3.752597E-01,4.743790E+03,7.990044E+03,2.863615E-01,8.540842E+03,7.351799E-02,0.000000E+00,0.000000E+00,7.351799E-02,7.871155E+02,3.871926E-01,4.752076E+03,7.221754E+03,1.777857E-01,5.217634E+03,4.361182E-02,0.000000E+00,0.000000E+00,4.361182E-02,4.669270E+02,2.459587E-01,3.002083E+03,4.487532E+03,2.697417E-01,8.223509E+03,7.351799E-02,0.000000E+00,0.000000E+00,7.351799E-02,7.871155E+02,3.499707E-01,4.333214E+03,6.783801E+03,1.775664E-01,5.213447E+03,4.361182E-02,0.000000E+00,0.000000E+00,4.361182E-02,4.669270E+02,4.025099E-01,4.763758E+03,6.300951E+03
17:30:00,1.478042E-01,6.876059E+03,9.698115E-02,0.000000E+00,0.000000E+00,9.698115E-02,1.055701E+03,3.751228E-01,4.724881E+03,7.970825E+03,2.863610E-01,8.540832E+03,7.351799E-02,0.000000E+00,0.000000E+00,7.351799E-02,8.002899E+02,3.862821E-01,4.728665E+03,7.197695E+03,1.777854E-01,5.217627E+03,4.361182E-02,0.000000E+00,0.000000E+00,4.361182E-02,4.747423E+02,2.447603E-01,2.980788E+03,4.465558E+03,2.697412E-01,8.223499E+03,7.351799E-02,0.000000E+00,0.000000E+00,7.351799E-02,8.002899E+02,3.493271E-01,4.312805E+03,6.762786E+03,1.775661E-01,5.213440E+03,4.361182E-02,0.000000E+00,0.000000E+00,4.361182E-02,4.747423E+02,4.046806E-01,4.780381E+03,6.319186E+03
17:40:00,1.478035E-01,6.876045E+03,9.698115E-02,0.000000E+00,0.000000E+00,9.698115E-02,1.073080E+03,3.750814E-01,4.707035E+03,7.952733E+03,2.863605E-01,8.540823E+03,7.351799E-02,0.000000E+00,0.000000E+00,7.351799E-02,8.134643E+02,3.854033E-01,4.705600E+03,7.174098E+03,1.777851E-01,5.217621E+03,4.361182E-02,0.000000E+00,0.000000E+00,4.361182E-02,4.825575E+02,2.435708E-01,2.959588E+03,4.443721E+03,2.697407E-01,8.223489E+03,7.351799E-02,0.000000E+00,0.000000E+00,7.351799E-02,8.134643E+02,3.487001E-01,4.292575E+03,6.742029E+03,1.775658E-01,5.213434E+03,4.361182E-02,0.000000E+00,0.000000E+00,4.361182E-02,4.825575E+02,4.056275E-01,4.783223E+03,6.323449E+03
17:50:00,1.478027E-01,6.876032E+03,9.698115E-02,0.000000E+00,0.000000E+00,9.698115E-02,1.090459E+03,3.751826E-01,4.690795E+03,7.936330E+03,2.863600E-01,8.540813E+03,7.351799E-02,0.000000E+00,0.000000E+00,7.351799E-02,8.266387E+02,3.844422E-01,4.681610E+03,7.149560E+03,1.777847E-01,5.217615E+03,4.361182E-02,0.000000E+00,0.000000E+00,4.361182E-02,4.903727E+02,2.423580E-01,2.938124E+03,4.421611E+03,2.697402E-01,8.223480E+03,7.351799E-02,0.000000E+00,0.000000E+00,7.351799E-02,8.266387E+02,3.481248E-01,4.272927E+03,6.721893E+03,1.775655E-01,5.213428E+03,4.361182E-02,0.000000E+00,0.000000E+00,4.361182E-02,4.903727E+02,4.053590E-01,4.772388E+03,6.313662E+03
18:00:00,1.478020E-01,6.876018E+03,9.698115E-02,0.000000E+00,0.000000E+00,9.698115E-02,1.107838E+03,3.754503E-01,4.676428E+03,7.921908E+03,2.863595E-01,8.540804E+03,7.351799E-02,0.000000E+00,0.000000E+00,7.351799E-02,8.398131E+02,3.833338E-01,4.655963E+03,7.123287E+03,1.777844E-01,5.217609E+03,4.361182E-02,0.000000E+00,0.000000E+00,4.361182E-02,4.981880E+02,2.411119E-01,2.916287E+03,4.399096E+03,2.697397E-01,8.223470E+03,7.351799E-02,0.000000E+00,0.000000E+00,7.351799E-02,8.398131E+02,3.475035E-01,4.252761E+03,6.701104E+03,1.775651E-01,5.213422E+03,4.361182E-02,0.000000E+00,0.000000E+00,4.361182E-02,4.981880E+02,4.038447E-01,4.747534E+03,6.289370E+03
18:10:00,1.679914E-01,7.261526E+03,9.698115E-02,0.000000E+00,0.000000E+00,9.698115E-02,1.133907E+03,3.758727E-01,4.655112E+03,7.900502E+03,2.976411E-01,8.756214E+03,7.351799E-02,0.000000E+00,0.000000E+00,7.351799E-02,8.595747E+02,3.819980E-01,4.621170E+03,7.087627E+03,1.853055E-01,5.361216E+03,4.361182E-02,0.000000E+00,0.000000E+00,4.361182E-02,5.099108E+02,2.398157E-01,2.889978E+03,4.372004E+03,2.810214E-01,8.438880E+03,7.351799E-02,0.000000E+00,0.000000E+00,7.351799E-02,8.595747E+02,3.467466E-01,4.224481E+03,6.672028E+03,1.850862E-01,5.357029E+03,4.361182E-02,0.000000E+00,0.000000E+00,4.361182E-02,5.099108E+02,4.010280E-01,4.704115E+03,6.245960E+03
18:20:00,1.881805E-01,7.647055E+03,9.698115E-02,0.000000E+00,0.000000E+00,9.698115E-02,1.159975E+03,3.764039E-01,4.635033E+03,7.880477E+03,3.089225E-01,8.971630E+03,7.351799E-02,0.000000E+00,0.000000E+00,7.351799E-02,8.793363E+02,3.803957E-01,4.583388E+03,7.049064E+03,1.928262E-01,5.504825E+03,4.361182E-02,0.000000E+00,0.000000E+00,4.361182E-02,5.216336E+02,2.384664E-01,2.863078E+03,4.344447E+03,2.923026E-01,8.654295E+03,7.351799E-02,0.000000E+00,0.000000E+00,7.351799E-02,8.793363E+02,3.458517E-01,4.194659E+03,6.641592E+03,1.926069E-01,5.500638E+03,4.361182E-02,0.000000E+00,0.000000E+00,4.361182E-02,5.216336E+02,3.969663E-01,4.646699E+03,6.188569E+03
18:30:00,2.083714E-01,8.032651E+03,9.698115E-02,0.000000E+00,0.000000E+00,9.698115E-02,1.186044E+03,3.769825E-01,4.615490E+03,7.861180E+03,3.202013E-01,9.187052E+03,7.351799E-02,0.000000E+00,0.000000E+00,7.351799E-02,8.990980E+02,3.785294E-01,4.542640E+03,7.007265E+03,2.003448E-01,5.648433E+03,4.361182E-02,0.000000E+00,0.000000E+00,4.361182E-02,5.333565E+02,2.370762E-01,2.835721E+03,4.316293E+03,3.035816E-01,8.869715E+03,7.351799E-02,0.000000E+00,0.000000E+00,7.351799E-02,8.990980E+02,3.449263E-01,4.164497E+03,6.610798E+03,2.001255E-01,5.644246E+03,4.361182E-02,0.000000E+00,0.000000E+00,4.361182E-02,5.333565E+02,3.917090E-01,4.575832E+03,6.117221E+03
18:40:00,2.285650E-01,8.418334E+03,9.698115E-02,0.000000E+00,0.000000E+00,9.698115E-02,1.212112E+03,3.775021E-01,4.595285E+03,7.841203E+03,3.314801E-01,9.402522E+03,7.351799E-02,0.000000E+00,0.000000E+00,7.351799E-02,9.188596E+02,3.763932E-01,4.498854E+03,6.962270E+03,2.078632E-01,5.792070E+03,4.361182E-02,0.000000E+00,0.000000E+00,4.361182E-02,5.450793E+02,2.356472E-01,2.807927E+03,4.287680E+03,3.148607E-01,9.085183E+03,7.351799E-02,0.000000E+00,0.000000E+00,7.351799E-02,9.188596E+02,3.440254E-01,4.134610E+03,6.580213E+03,2.076439E-01,5.787883E+03,4.361182E-02,0.000000E+00,0.000000E+00,4.361182E-02,5.450793E+02,3.851369E-01,4.490169E+03,6.030815E+03
18:50:00,2.487616E-01,8.804113E+03,9.698115E-02,0.000000E+00,0.000000E+00,9.698115E-02,1.238181E+03,3.778648E-01,4.573314E+03,7.819322E+03,3.427606E-01,9.618061E+03,7.351799E-02,0.000000E+00,0.000000E+00,7.351799E-02,9.386212E+02,3.739814E-01,4.451966E+03,6.913965E+03,2.153827E-01,5.935754E+03,4.361182E-02,0.000000E+00,0.000000E+00,4.361182E-02,5.568022E+02,2.341785E-01,2.779685E+03,4.258574E+03,3.261415E-01,9.300718E+03,7.351799E-02,0.000000E+00,0.000000E+00,7.351799E-02,9.386212E+02,3.431302E-01,4.104787E+03,6.549447E+03,2.151634E-01,5.931567E+03,4.361182E-02,0.000000E+00,0.000000E+00,4.361182E-02,5.568022E+02,3.771236E-01,4.388287E+03,5.927819E+03
19:00:00,2.689613E-01,9.189991E+03,9.698115E-02,0.000000E+00,0.000000E+00,9.698115E-02,1.264249E+03,3.779934E-01,4.548709E+03,7.794568E+03,3.540435E-01,9.833675E+03,7.351799E-02,0.000000E+00,0.000000E+00,7.351799E-02,9.583828E+02,3.712836E-01,4.401860E+03,6.862223E+03,2.229037E-01,6.079488E+03,4.361182E-02,0.000000E+00,0.000000E+00,4.361182E-02,5.685250E+02,2.326643E-01,2.750932E+03,4.228904E+03,3.374247E-01,9.516325E+03,7.351799E-02,0.000000E+00,0.000000E+00,7.351799E-02,9.583828E+02,3.423056E-01,4.075759E+03,6.519385E+03,2.226844E-01,6.075301E+03,4.361182E-02,0.000000E+00,0.000000E+00,4.361182E-02,5.685250E+02,3.675888E-01,4.269282E+03,5.807242E+03
19:10:00,2.689739E-01,9.190373E+03,9.698115E-02,0.000000E+00,0.000000E+00,9.698115E-02,1.283366E+03,3.778770E-01,4.528298E+03,7.773917E+03,3.540467E-01,9.833913E+03,7.351799E-02,0.000000E+00,0.000000E+00,7.351799E-02,9.728746E+02,3.683295E-01,4.354139E+03,6.812832E+03,2.229051E-01,6.079637E+03,4.361182E-02,0.000000E+00,0.000000E+00,4.361182E-02,5.771218E+02,2.311205E-01,2.724971E+03,4.202078E+03,3.374281E-01,9.516557E+03,7.351799E-02,0.000000E+00,0.000000E+00,7.351799E-02,9.728746E+02,3.414640E-01,4.051809E+03,6.494589E+03,2.226858E-01,6.075450E+03,4.361182E-02,0.000000E+00,0.000000E+00,4.361182E-02,5.771218E+02,3.563349E-01,4.134058E+03,5.669962E+03
19:20:00,2.689896E-01,9.190773E+03,9.698115E-02,0.000000E+00,0.000000E+00,9.698115E-02,1.302483E+03,3.775001E-01,4.504944E+03,7.750043E+03,3.540526E-01,9.834195E+03,7.351799E-02,0.000000E+00,0.000000E+00,7.351799E-02,9.873665E+02,3.651428E-01,4.303789E+03,6.760703E+03,2.229083E-01,6.079817E+03,4.361182E-02,0.000000E+00,0.000000E+00,4.361182E-02,5.857185E+02,2.295453E-01,2.698651E+03,4.174887E+03,3.374343E-01,9.516832E+03,7.351799E-02,0.000000E+00,0.000000E+00,7.351799E-02,9.873665E+02,3.404704E-01,4.026140E+03,6.468293E+03,2.226891E-01,6.075630E+03,4.361182E-02,0.000000E+00,0.000000E+00,4.361182E-02,5.857185E+02,3.434134E-01,3.980056E+03,5.513370E+03
19:30:00,2.690061E-01,9.191159E+03,9.698115E-02,0.000000E+00,0.000000E+00,9.698115E-02,1.321600E+03,3.768320E-01,4.478309E+03,7.722565E+03,3.540633E-01,9.834512E+03,7.351799E-02,0.000000E+00,0.000000E+00,7.351799E-02,1.001858E+03,3.617054E-01,4.250616E+03,6.705572E+03,2.229153E-01,6.080025E+03,4.361182E-02,0.000000E+00,0.000000E+00,4.361182E-02,5.943153E+02,2.278993E-01,2.671531E+03,4.146852E+03,3.374451E-01,9.517143E+03,7.351799E-02,0.000000E+00,0.000000E+00,7.351799E-02,1.001858E+03,3.389307E-01,3.994322E+03,6.435724E+03,2.226960E-01,6.075838E+03,4.361182E-02,0.000000E+00,0.000000E+00,4.361182E-02,5.943153E+02,3.288832E-01,3.807948E+03,5.337788E+03
19:40:00,2.690223E-01,9.191521E+03,9.698115E-02,0.000000E+00,0.000000E+00,9.698115E-02,1.340717E+03,3.758658E-01,4.448320E+03,7.691432E+03,3.540759E-01,9.834823E+03,7.351799E-02,0.000000E+00,0.000000E+00,7.351799E-02,1.016350E+03,3.580441E-01,4.194923E+03,6.647737E+03,2.229237E-01,6.080232E+03,4.361182E-02,0.000000E+00,0.000000E+00,4.361182E-02,6.029120E+02,2.261619E-01,2.643383E+03,4.117747E+03,3.374576E-01,9.517449E+03,7.351799E-02,0.000000E+00,0.000000E+00,7.351799E-02,1.016350E+03,3.364675E-01,3.952111E+03,6.392393E+03,2.227044E-01,6.076044E+03,4.361182E-02,0.000000E+00,0.000000E+00,4.361182E-02,6.029120E+02,3.131624E-01,3.622442E+03,5.147694E+03
19:50:00,2.690376E-01,9.191851E+03,9.698115E-02,0.000000E+00,0.000000E+00,9.698115E-02,1.359834E+03,3.746295E-01,4.415281E+03,7.656853E+03,3.540886E-01,9.835108E+03,7.351799E-02,0.000000E+00,0.000000E+00,7.351799E-02,1.030842E+03,3.542745E-01,4.138002E+03,6.588183E+03,2.229322E-01,6.080422E+03,4.361182E-02,0.000000E+00,0.000000E+00,4.361182E-02,6.115088E+02,2.243619E-01,2.614524E+03,4.087729E+03,3.374702E-01,9.517731E+03,7.351799E-02,0.000000E+00,0.000000E+00,7.351799E-02,1.030842E+03,3.331121E-01,3.899854E+03,6.338194E+03,2.227130E-01,6.076235E+03,4.361182E-02,0.000000E+00,0.000000E+00,4.361182E-02,6.115088E+02,2.973539E-01,3.435942E+03,4.954078E+03
20:00:00,2.690518E-01,9.192149E+03,9.698115E-02,0.000000E+00,0.000000E+00,9.698115E-02,1.378951E+03,3.731709E-01,4.379736E+03,7.619742E+03,3.541006E-01,9.835362E+03,7.351799E-02,0.000000E+00,0.000000E+00,7.351799E-02,1.045334E+03,3.505327E-01,4.081390E+03,6.529228E+03,2.229403E-01,6.080591E+03,4.361182E-02,0.000000E+00,0.000000E+00,4.361182E-02,6.201055E+02,2.225391E-01,2.585407E+03,4.057594E+03,3.374821E-01,9.517984E+03,7.351799E-02,0.000000E+00,0.000000E+00,7.351799E-02,1.045334E+03,3.291717E-01,3.841008E+03,6.277167E+03,2.227210E-01,6.076404E+03,4.361182E-02,0.000000E+00,0.000000E+00,4.361182E-02,6.201055E+02,2.825044E-01,3.260229E+03,4.771033E+03
20:10:00,2.690646E-01,9.192414E+03,9.698115E-02,0.000000E+00,0.000000E+00,9.698115E-02,1.394592E+03,3.715795E-01,4.346172E+03,7.584522E+03,3.541114E-01,9.835585E+03,7.351799E-02,0.000000E+00,0.000000E+00,7.351799E-02,1.057191E+03,3.469787E-01,4.029526E+03,6.474985E+03,2.229475E-01,6.080740E+03,4.361182E-02,0.000000E+00,0.000000E+00,4.361182E-02,6.271392E+02,2.207525E-01,2.558259E+03,4.029372E+03,3.374928E-01,9.518206E+03,7.351799E-02,0.000000E+00,0.000000E+00,7.351799E-02,1.057191E+03,3.250234E-01,3.782458E+03,6.215691E+03,2.227283E-01,6.076552E+03,4.361182E-02,0.000000E+00,0.000000E+00,4.361182E-02,6.271392E+02,2.694267E-01,3.106018E+03,4.608303E+03
20:20:00,2.690762E-01,9.192649E+03,9.698115E-02,0.000000E+00,0.000000E+00,9.698115E-02,1.410233E+03,3.699550E-01,4.312235E+03,7.548813E+03,3.541210E-01,9.835778E+03,7.351799E-02,0.000000E+00,0.000000E+00,7.351799E-02,1.069048E+03,3.436966E-01,3.980722E+03,6.423831E+03,2.229540E-01,6.080869E+03,4.361182E-02,0.000000E+00,0.000000E+00,4.361182E-02,6.341729E+02,2.190368E-01,2.531911E+03,4.001890E+03,3.375025E-01,9.518401E+03,7.351799E-02,0.000000E+00,0.000000E+00,7.351799E-02,1.069048E+03,3.208956E-01,3.724138E+03,6.153809E+03,2.227347E-01,6.076681E+03,4.361182E-02,0.000000E+00,0.000000E+00,4.361182E-02,6.341729E+02,2.585221E-01,2.976261E+03,4.470296E+03
20:30:00,2.690865E-01,9.192857E+03,9.698115E-02,0.000000E+00,0.000000E+00,9.698115E-02,1.425874E+03,3.684108E-01,4.279190E+03,7.513678E+03,3.541295E-01,9.835946E+03,7.351799E-02,0.000000E+00,0.000000E+00,7.351799E-02,1.080905E+03,3.407827E-01,3.936052E+03,6.376550E+03,2.229596E-01,6.080980E+03,4.361182E-02,0.000000E+00,0.000000E+00,4.361182E-02,6.412066E+02,2.174535E-01,2.507044E+03,3.975669E+03,3.375110E-01,9.518570E+03,7.351799E-02,0.000000E+00,0.000000E+00,7.351799E-02,1.080905E+03,3.171685E-01,3.670320E+03,6.095962E+03,2.227404E-01,6.076793E+03,4.361182E-02,0.000000E+00,0.000000E+00,4.361182E-02,6.412066E+02,2.501173E-01,2.874629E+03,4.361175E+03
20:40:00,2.690958E-01,9.193040E+03,9.698115E-02,0.000000E+00,0.000000E+00,9.698115E-02,1.441515E+03,3.670100E-01,4.247745E+03,7.480693E+03,3.541370E-01,9.836092E+03,7.351799E-02,0.000000E+00,0.000000E+00,7.351799E-02,1.092762E+03,3.382622E-01,3.895798E+03,6.334644E+03,2.229646E-01,6.081077E+03,4.361182E-02,0.000000E+00,0.000000E+00,4.361182E-02,6.482403E+02,2.160313E-01,2.483985E+03,3.951713E+03,3.375185E-01,9.518717E+03,7.351799E-02,0.000000E+00,0.000000E+00,7.351799E-02,1.092762E+03,3.141814E-01,3.624818E+03,6.048035E+03,2.227454E-01,6.076890E+03,4.361182E-02,0.000000E+00,0.000000E+00,4.361182E-02,6.482403E+02,2.441660E-01,2.800597E+03,4.283258E+03
20:50:00,2.691040E-01,9.193203E+03,9.698115E-02,0.000000E+00,0.000000E+00,9.698115E-02,1.457156E+03,3.658053E-01,4.218515E+03,7.450079E+03,3.541435E-01,9.836220E+03,7.351799E-02,0.000000E+00,0.000000E+00,7.351799E-02,1.104619E+03,3.360852E-01,3.859417E+03,6.296770E+03,2.229690E-01,6.081162E+03,4.361182E-02,0.000000E+00,0.000000E+00,4.361182E-02,6.552740E+02,2.147587E-01,2.462613E+03,3.929494E+03,3.375251E-01,9.518845E+03,7.351799E-02,0.000000E+00,0.000000E+00,7.351799E-02,1.104619E+03,3.118899E-01,3.587150E+03,6.008641E+03,2.227497E-01,6.076974E+03,4.361182E-02,0.000000E+00,0.000000E+00,4.361182E-02,6.552740E+02,2.399283E-01,2.745856E+03,4.225938E+03
21:00:00,2.691113E-01,9.193347E+03,9.698115E-02,0.000000E+00,0.000000E+00,9.698115E-02,1.472797E+03,3.648198E-01,4.191758E+03,7.422267E+03,3.541493E-01,9.836332E+03,7.351799E-02,0.000000E+00,0.000000E+00,7.351799E-02,1.116476E+03,3.341839E-01,3.826143E+03,6.262244E+03,2.229728E-01,6.081236E+03,4.361182E-02,0.000000E+00,0.000000E+00,4.361182E-02,6.623078E+02,2.136126E-01,2.442668E+03,3.908812E+03,3.375309E-01,9.518958E+03,7.351799E-02,0.000000E+00,0.000000E+00,7.351799E-02,1.116476E+03,3.100442E-01,3.554504E+03,5.974737E+03,2.227535E-01,6.077048E+03,4.361182E-02,0.000000E+00,0.000000E+00,4.361182E-02,6.623078E+02,2.366815E-01,2.702268E+03,4.180508E+03
21:10:00,2.691179E-01,9.193475E+03,9.698115E-02,0.000000E+00,0.000000E+00,9.698115E-02,1.488438E+03,3.640074E-01,4.166948E+03,7.396633E+03,3.541544E-01,9.836430E+03,7.351799E-02,0.000000E+00,0.000000E+00,7.351799E-02,1.128333E+03,3.324765E-01,3.795051E+03,6.230035E+03,2.229762E-01,6.081300E+03,4.361182E-02,0.000000E+00,0.000000E+00,4.361182E-02,6.693415E+02,2.125562E-01,2.423733E+03,3.889204E+03,3.375361E-01,9.519057E+03,7.351799E-02,0.000000E+00,0.000000E+00,7.351799E-02,1.128333E+03,3.084875E-01,3.525109E+03,5.944312E+03,2.227569E-01,6.077113E+03,4.361182E-02,0.000000E+00,0.000000E+00,4.361182E-02,6.693415E+02,2.340915E-01,2.666072E+03,4.142878E+03
21:20:00,2.691237E-01,9.193589E+03,9.698115E-02,0.000000E+00,0.000000E+00,9.698115E-02,1.504079E+03,3.633272E-01,4.143627E+03,7.372643E+03,3.541589E-01,9.836517E+03,7.351799E-02,0.000000E+00,0.000000E+00,7.351799E-02,1.140190E+03,3.309140E-01,3.765591E+03,6.199549E+03,2.229792E-01,6.081358E+03,4.361182E-02,0.000000E+00,0.000000E+00,4.361182E-02,6.763752E+02,2.115678E-01,2.405564E+03,3.870406E+03,3.375406E-01,9.519145E+03,7.351799E-02,0.000000E+00,0.000000E+00,7.351799E-02,1.140190E+03,3.071440E-01,3.498115E+03,5.916433E+03,2.227599E-01,6.077170E+03,4.361182E-02,0.000000E+00,0.000000E+00,4.361182E-02,6.763752E+02,2.319813E-01,2.635277E+03,4.110930E+03
21:30:00,2.691290E-01,9.193691E+03,9.698115E-02,0.000000E+00,0.000000E+00,9.698115E-02,1.519721E+03,3.627244E-01,4.121189E+03,7.349580E+03,3.541630E-01,9.836595E+03,7.351799E-02,0.000000E+00,0.000000E+00,7.351799E-02,1.152047E+03,3.294456E-01,3.737198E+03,6.170162E+03,2.229819E-01,6.081409E+03,4.361182E-02,0.000000E+00,0.000000E+00,4.361182E-02,6.834089E+02,2.106220E-01,2.387880E+03,3.852105E+03,3.375447E-01,9.519223E+03,7.351799E-02,0.000000E+00,0.000000E+00,7.351799E-02,1.152047E+03,3.059470E-01,3.472776E+03,5.890271E+03,2.227626E-01,6.077222E+03,4.361182E-02,0.000000E+00,0.000000E+00,4.361182E-02,6.834089E+02,2.302197E-01,2.608410E+03,4.083093E+03
21:40:00,2.691338E-01,9.193784E+03,9.698115E-02,0.000000E+00,0.000000E+00,9.698115E-02,1.535362E+03,3.621993E-01,4.099638E+03,7.327477E+03,3.541666E-01,9.836664E+03,7.351799E-02,0.000000E+00,0.000000E+00,7.351799E-02,1.163904E+03,3.280596E-01,3.709744E+03,6.141753E+03,2.229843E-01,6.081455E+03,4.361182E-02,0.000000E+00,0.000000E+00,4.361182E-02,6.904426E+02,2.097157E-01,2.370647E+03,3.834275E+03,3.375484E-01,9.519294E+03,7.351799E-02,0.000000E+00,0.000000E+00,7.351799E-02,1.163904E+03,3.048732E-01,3.448835E+03,5.865572E+03,2.227650E-01,6.077268E+03,4.361182E-02,0.000000E+00,0.000000E+00,4.361182E-02,6.904426E+02,2.287254E-01,2.584560E+03,4.058416E+03
21:50:00,2.691382E-01,9.193868E+03,9.698115E-02,0.000000E+00,0.000000E+00,9.698115E-02,1.551003E+03,3.617651E-01,4.079111E+03,7.306383E+03,3.541699E-01,9.836727E+03,7.351799E-02,0.000000E+00,0.000000E+00,7.351799E-02,1.175761E+03,3.267562E-01,3.683220E+03,6.114044E+03,2.229864E-01,6.081497E+03,4.361182E-02,0.000000E+00,0.000000E+00,4.361182E-02,6.974763E+02,2.088518E-01,2.353891E+03,3.816762E+03,3.375517E-01,9.519357E+03,7.351799E-02,0.000000E+00,0.000000E+00,7.351799E-02,1.175761E+03,3.039140E-01,3.426184E+03,5.842023E+03,2.227672E-01,6.077309E+03,4.361182E-02,0.000000E+00,0.000000E+00,4.361182E-02,6.974763E+02,2.274433E-01,2.563098E+03,4.036010E+03
22:00:00,2.691421E-01,9.193944E+03,9.698115E-02,0.000000E+00,0.000000E+00,9.698115E-02,1.566644E+03,3.613705E-01,4.058983E+03,7.285754E+03,3.541729E-01,9.836785E+03,7.351799E-02,0.000000E+00,0.000000E+00,7.351799E-02,1.187618E+03,3.254976E-01,3.657166E+03,6.087064E+03,2.229884E-01,6.081534E+03,4.361182E-02,0.000000E+00,0.000000E+00,4.361182E-02,7.045100E+02,2.080099E-01,2.337363E+03,3.799649E+03,3.375547E-01,9.519415E+03,7.351799E-02,0.000000E+00,0.000000E+00,7.351799E-02,1.187618E+03,3.030239E-01,3.404279E+03,5.819422E+03,2.227691E-01,6.077347E+03,4.361182E-02,0.000000E+00,0.000000E+00,4.361182E-02,7.045100E+02,2.263095E-01,2.543283E+03,4.015551E+03
22:10:00,2.691458E-01,9.194014E+03,9.698115E-02,0.000000E+00,0.000000E+00,9.698115E-02,1.578809E+03,3.009759E-01,3.396202E+03,6.585805E+03,3.541757E-01,9.836837E+03,7.351799E-02,0.000000E+00,0.000000E+00,7.351799E-02,1.196840E+03,2.707226E-01,3.063962E+03,5.473547E+03,2.229902E-01,6.081568E+03,4.361182E-02,0.000000E+00,0.000000E+00,4.361182E-02,7.099806E+02,1.729900E-01,1.960342E+03,3.419700E+03,3.375575E-01,9.519467E+03,7.351799E-02,0.000000E+00,0.000000E+00,7.351799E-02,1.196840E+03,2.521483E-01,2.849982E+03,5.237137E+03,2.227709E-01,6.077381E+03,4.361182E-02,0.000000E+00,0.000000E+00,4.361182E-02,7.099806E+02,1.881205E-01,2.135343E+03,3.611825E+03
22:20:00,2.691492E-01,9.194079E+03,9.698115E-02,0.000000E+00,0.000000E+00,9.698115E-02,1.590974E+03,2.406600E-01,2.740768E+03,5.900929E+03,3.541782E-01,9.836885E+03,7.351799E-02,0.000000E+00,0.000000E+00,7.351799E-02,1.206062E+03,2.161695E-01,2.480570E+03,4.880680E+03,2.229919E-01,6.081600E+03,4.361182E-02,0.000000E+00,0.000000E+00,4.361182E-02,7.154513E+02,1.386497E-01,1.596232E+03,3.063531E+03,3.375600E-01,9.519516E+03,7.351799E-02,0.000000E+00,0.000000E+00,7.351799E-02,1.206062E+03,2.014377E-01,2.303452E+03,4.670891E+03,2.227726E-01,6.077412E+03,4.361182E-02,0.000000E+00,0.000000E+00,4.361182E-02,7.154513E+02,1.521296E-01,1.759069E+03,3.257063E+03
22:30:00,2.691523E-01,9.194139E+03,9.698115E-02,0.000000E+00,0.000000E+00,9.698115E-02,1.603140E+03,1.836180E-01,2.097504E+03,5.110088E+03,3.541805E-01,9.836930E+03,7.351799E-02,0.000000E+00,0.000000E+00,7.351799E-02,1.215284E+03,1.671334E-01,1.937156E+03,4.256219E+03,2.229934E-01,6.081629E+03,4.361182E-02,0.000000E+00,0.000000E+00,4.361182E-02,7.209220E+02,1.075339E-01,1.253092E+03,2.673941E+03,3.375623E-01,9.519560E+03,7.351799E-02,0.000000E+00,0.000000E+00,7.351799E-02,1.215284E+03,1.538448E-01,1.770536E+03,4.044416E+03,2.227741E-01,6.077441E+03,4.361182E-02,0.000000E+00,0.000000E+00,4.361182E-02,7.209220E+02,1.193956E-01,1.401018E+03,2.858193E+03
22:40:00,2.691552E-01,9.194195E+03,9.698115E-02,0.000000E+00,0.000000E+00,9.698115E-02,1.615305E+03,1.294680E-01,1.443793E+03,4.173986E+03,3.541827E-01,9.836971E+03,7.351799E-02,0.000000E+00,0.000000E+00,7.351799E-02,1.224506E+03,1.194736E-01,1.366801E+03,3.503753E+03,2.229948E-01,6.081656E+03,4.361182E-02,0.000000E+00,0.000000E+00,4.361182E-02,7.263926E+02,7.731461E-02,8.931700E+02,2.200746E+03,3.375645E-01,9.519602E+03,7.351799E-02,0.000000E+00,0.000000E+00,7.351799E-02,1.224506E+03,1.082314E-01,1.222556E+03,3.310426E+03,2.227755E-01,6.077469E+03,4.361182E-02,0.000000E+00,0.000000E+00,4.361182E-02,7.263926E+02,8.756329E-02,1.024813E+03,2.374520E+03
22:50:00,2.691580E-01,9.194248E+03,9.698115E-02,0.000000E+00,0.000000E+00,9.698115E-02,1.627470E+03,9.698115E-02,1.023233E+03,3.507509E+03,3.541847E-01,9.837010E+03,7.351799E-02,0.000000E+00,0.000000E+00,7.351799E-02,1.233728E+03,7.351799E-02,7.756771E+02,2.658919E+03,2.229961E-01,6.081681E+03,4.361182E-02,0.000000E+00,0.000000E+00,4.361182E-02,7.318633E+02,4.778239E-02,5.149360E+02,1.656882E+03,3.375665E-01,9.519641E+03,7.351799E-02,0.000000E+00,0.000000E+00,7.351799E-02,1.233728E+03,7.351799E-02,7.756771E+02,2.658919E+03,2.227768E-01,6.077494E+03,4.361182E-02,0.000000E+00,0.000000E+00,4.361182E-02,7.318633E+02,5.640614E-02,6.287105E+02,1.817910E+03
23:00:00,2.691606E-01,9.194297E+03,9.698115E-02,0.000000E+00,0.000000E+00,9.698115E-02,1.639636E+03,9.698115E-02,1.011068E+03,3.459612E+03,3.541866E-01,9.837046E+03,7.351799E-02,0.000000E+00,0.000000E+00,7.351799E-02,1.242950E+03,7.351799E-02,7.664551E+02,2.622610E+03,2.229974E-01,6.081705E+03,4.361182E-02,0.000000E+00,0.000000E+00,4.361182E-02,7.373339E+02,4.361182E-02,4.546710E+02,1.555766E+03,3.375684E-01,9.519677E+03,7.351799E-02,0.000000E+00,0.000000E+00,7.351799E-02,1.242950E+03,7.351799E-02,7.664551E+02,2.622610E+03,2.227781E-01,6.077517E+03,4.361182E-02,0.000000E+00,0.000000E+00,4.361182E-02,7.373339E+02,4.361182E-02,4.546710E+02,1.555766E+03
23:10:00,2.691630E-01,9.194344E+03,9.698115E-02,0.000000E+00,0.000000E+00,9.698115E-02,1.651801E+03,9.698115E-02,9.989028E+02,3.411968E+03,3.541884E-01,9.837080E+03,7.351799E-02,0.000000E+00,0.000000E+00,7.351799E-02,1.252172E+03,7.351799E-02,7.572330E+02,2.586493E+03,2.229985E-01,6.081727E+03,4.361182E-02,0.000000E+00,0.000000E+00,4.361182E-02,7.428046E+02,4.361182E-02,4.492003E+02,1.534341E+03,3.375702E-01,9.519711E+03,7.351799E-02,0.000000E+00,0.000000E+00,7.351799E-02,1.252172E+03,7.351799E-02,7.572330E+02,2.586493E+03,2.227792E-01,6.077540E+03,4.361182E-02,0.000000E+00,0.000000E+00,4.361182E-02,7.428046E+02,4.361182E-02,4.492003E+02,1.534341E+03
23:20:00,2.691653E-01,9.194388E+03,9.698115E-02,0.000000E+00,0.000000E+00,9.698115E-02,1.663966E+03,9.698115E-02,9.867375E+02,3.364577E+03,3.541901E-01,9.837113E+03,7.351799E-02,0.000000E+00,0.000000E+00,7.351799E-02,1.261394E+03,7.351799E-02,7.480109E+02,2.550567E+03,2.229996E-01,6.081748E+03,4.361182E-02,0.000000E+00,0.000000E+00,4.361182E-02,7.482753E+02,4.361182E-02,4.437297E+02,1.513029E+03,3.375719E-01,9.519743E+03,7.351799E-02,0.000000E+00,0.000000E+00,7.351799E-02,1.261394E+03,7.351799E-02,7.480109E+02,2.550567E+03,2.227804E-01,6.077561E+03,4.361182E-02,0.000000E+00,0.000000E+00,4.361182E-02,7.482753E+02,4.361182E-02,4.437297E+02,1.513029E+03
23:30:00,2.691675E-01,9.194430E+03,9.698115E-02,0.000000E+00,0.000000E+00,9.698115E-02,1.676132E+03,9.698115E-02,9.745722E+02,3.317437E+03,3.541917E-01,9.837143E+03,7.351799E-02,0.000000E+00,0.000000E+00,7.351799E-02,1.270616E+03,7.351799E-02,7.387888E+02,2.514832E+03,2.230007E-01,6.081768E+03,4.361182E-02,0.000000E+00,0.000000E+00,4.361182E-02,7.537459E+02,4.361182E-02,4.382590E+02,1.491831E+03,3.375735E-01,9.519774E+03,7.351799E-02,0.000000E+00,0.000000E+00,7.351799E-02,1.270616E+03,7.351799E-02,7.387888E+02,2.514832E+03,2.227814E-01,6.077581E+03,4.361182E-02,0.000000E+00,0.000000E+00,4.361182E-02,7.537459E+02,4.361182E-02,4.382590E+02,1.491831E+03
23:40:00,2.691696E-01,9.194469E+03,9.698115E-02,0.000000E+00,0.000000E+00,9.698115E-02,1.688297E+03,9.698115E-02,9.624069E+02,3.270545E+03,3.541932E-01,9.837173E+03,7.351799E-02,0.000000E+00,0.000000E+00,7.351799E-02,1.279838E+03,7.351799E-02,7.295667E+02,2.479285E+03,2.230017E-01,6.081787E+03,4.361182E-02,0.000000E+00,0.000000E+00,4.361182E-02,7.592166E+02,4.361182E-02,4.327884E+02,1.470744E+03,3.375750E-01,9.519803E+03,7.351799E-02,0.000000E+00,0.000000E+00,7.351799E-02,1.279838E+03,7.351799E-02,7.295667E+02,2.479285E+03,2.227824E-01,6.077600E+03,4.361182E-02,0.000000E+00,0.000000E+00,4.361182E-02,7.592166E+02,4.376103E-02,4.348719E+02,1.473929E+03
23:50:00,2.691716E-01,9.194508E+03,9.698115E-02,0.000000E+00,0.000000E+00,9.698115E-02,1.700462E+03,9.698115E-02,9.502416E+02,3.223902E+03,3.541947E-01,9.837201E+03,7.351799E-02,0.000000E+00,0.000000E+00,7.351799E-02,1.289060E+03,7.351799E-02,7.203446E+02,2.443926E+03,2.230026E-01,6.081805E+03,4.361182E-02,0.000000E+00,0.000000E+00,4.361182E-02,7.646872E+02,4.361182E-02,4.273177E+02,1.449768E+03,3.375765E-01,9.519831E+03,7.351799E-02,0.000000E+00,0.000000E+00,7.351799E-02,1.289060E+03,7.351799E-02,7.203446E+02,2.443926E+03,2.227833E-01,6.077618E+03,4.361182E-02,0.000000E+00,0.000000E+00,4.361182E-02,7.646872E+02,4.581661E-02,4.581052E+02,1.497055E+03
24:00:00,2.691735E-01,9.194544E+03,9.698115E-02,0.000000E+00,0.000000E+00,9.698115E-02,1.712627E+03,9.698115E-02,9.380763E+02,3.177504E+03,3.541961E-01,9.837227E+03,7.351799E-02,0.000000E+00,0.000000E+00,7.351799E-02,1.298283E+03,7.351799E-02,7.111225E+02,2.408753E+03,2.230035E-01,6.081823E+03,4.361182E-02,0.000000E+00,0.000000E+00,4.361182E-02,7.701579E+02,4.361182E-02,4.218470E+02,1.428904E+03,3.375779E-01,9.519857E+03,7.351799E-02,0.000000E+00,0.000000E+00,7.351799E-02,1.298283E+03,7.351799E-02,7.111225E+02,2.408753E+03,2.227842E-01,6.077635E+03,4.361182E-02,0.000000E+00,0.000000E+00,4.361182E-02,7.701579E+02,4.762400E-02,4.778717E+02,1.515153E+03
Coinc Peak   ,2.692145E-01,5.270732E-01,9.195327E+03,5.729568E+03,3.542256E-01,4.543249E-01,9.837791E+03,5.611342E+03,2.230225E-01,4.105487E-01,6.082185E+03,4.548627E+03,3.376072E-01,4.333253E-01,9.520418E+03,4.727258E+03,2.228033E-01,4.056275E-01,6.077998E+03,4.783223E+03
NonCoinc Peak,2.692145E-01,5.270732E-01,9.195327E+03,5.729568E+03,3.542256E-01,4.543249E-01,9.837791E+03,5.611342E+03,2.230225E-01,4.104971E-01,6.082185E+03,4.548627E+03,3.376072E-01,4.333253E-01,9.520418E+03,4.727258E+03,2.228033E-01,4.056275E-01,6.077998E+03,4.783223E+03
