,evaluations,count,mean,min,max
0,25.0,10.0,3097.5420000000004,3073.59,3160.52
1,50.0,10.0,3083.5340000000006,3069.02,3109.59
2,100.0,12.0,3088.186666666667,3062.39,3124.55
3,200.0,12.0,3069.859166666667,3052.51,3089.58
4,400.0,10.0,3053.846,3052.21,3056.57
