Time,CORE_ZN:CHICAGO ANN HTG 99.6% CONDNS DB:Des Heat Load [W],CORE_ZN:CHICAGO ANN CLG .4% CONDNS WB=>MDB:Des Sens Cool Load [W],CORE_ZN:CHICAGO ANN HTG 99.6% CONDNS DB:Des Heat Mass Flow [kg/s],CORE_ZN:CHICAGO ANN CLG .4% CONDNS WB=>MDB:Des Cool Mass Flow [kg/s],PERIMETER_ZN_1:CHICAGO ANN HTG 99.6% CONDNS DB:Des Heat Load [W],PERIMETER_ZN_1:CHICAGO ANN CLG .4% CONDNS WB=>MDB:Des Sens Cool Load [W],PERIMETER_ZN_1:CHICAGO ANN HTG 99.6% CONDNS DB:Des Heat Mass Flow [kg/s],PERIMETER_ZN_1:CHICAGO ANN CLG .4% CONDNS WB=>MDB:Des Cool Mass Flow [kg/s],PERIMETER_ZN_2:CHICAGO ANN HTG 99.6% CONDNS DB:Des Heat Load [W],PERIMETER_ZN_2:CHICAGO ANN CLG .4% CONDNS WB=>MDB:Des Sens Cool Load [W],PERIMETER_ZN_2:CHICAGO ANN HTG 99.6% CONDNS DB:Des Heat Mass Flow [kg/s],PERIMETER_ZN_2:CHICAGO ANN CLG .4% CONDNS WB=>MDB:Des Cool Mass Flow [kg/s],PERIMETER_ZN_3:CHICAGO ANN HTG 99.6% CONDNS DB:Des Heat Load [W],PERIMETER_ZN_3:CHICAGO ANN CLG .4% CONDNS WB=>MDB:Des Sens Cool Load [W],PERIMETER_ZN_3:CHICAGO ANN HTG 99.6% CONDNS DB:Des Heat Mass Flow [kg/s],PERIMETER_ZN_3:CHICAGO ANN CLG .4% CONDNS WB=>MDB:Des Cool Mass Flow [kg/s],PERIMETER_ZN_4:CHICAGO ANN HTG 99.6% CONDNS DB:Des Heat Load [W],PERIMETER_ZN_4:CHICAGO ANN CLG .4% CONDNS WB=>MDB:Des Sens Cool Load [W],PERIMETER_ZN_4:CHICAGO ANN HTG 99.6% CONDNS DB:Des Heat Mass Flow [kg/s],PERIMETER_ZN_4:CHICAGO ANN CLG .4% CONDNS WB=>MDB:Des Cool Mass Flow [kg/s]
00:10:00,4.347780E+03,6.398241E+02,2.243128E-01,4.937484E-02,5.720377E+03,6.165740E+02,2.951646E-01,4.757966E-02,3.601663E+03,4.133800E+02,1.858370E-01,3.190071E-02,5.451994E+03,5.194401E+02,2.813161E-01,4.008282E-02,3.598122E+03,5.294556E+02,1.856543E-01,4.085948E-02
00:20:00,4.347808E+03,6.581531E+02,2.243143E-01,5.079023E-02,5.720399E+03,6.301128E+02,2.951658E-01,4.862506E-02,3.601678E+03,4.239510E+02,1.858378E-01,3.271687E-02,5.452016E+03,5.341665E+02,2.813172E-01,4.121986E-02,3.598137E+03,5.419411E+02,1.856551E-01,4.182354E-02
00:30:00,4.347836E+03,6.729483E+02,2.243157E-01,5.193285E-02,5.720421E+03,6.415198E+02,2.951669E-01,4.950581E-02,3.601692E+03,4.327409E+02,1.858385E-01,3.339549E-02,5.452038E+03,5.460249E+02,2.813184E-01,4.213556E-02,3.598151E+03,5.520836E+02,1.856558E-01,4.260666E-02
00:40:00,4.347862E+03,6.850783E+02,2.243171E-01,5.286979E-02,5.720442E+03,6.514446E+02,2.951680E-01,5.027202E-02,3.601705E+03,4.399778E+02,1.858392E-01,3.395420E-02,5.452058E+03,5.555905E+02,2.813194E-01,4.287421E-02,3.598164E+03,5.602300E+02,1.856565E-01,4.323561E-02
00:50:00,4.347888E+03,6.951126E+02,2.243184E-01,5.364477E-02,5.720462E+03,6.595627E+02,2.951690E-01,5.089869E-02,3.601718E+03,4.458413E+02,1.858399E-01,3.440687E-02,5.452078E+03,5.632931E+02,2.813205E-01,4.346899E-02,3.598178E+03,5.666596E+02,1.856572E-01,4.373196E-02
01:00:00,4.347913E+03,7.035203E+02,2.243197E-01,5.429406E-02,5.720482E+03,6.660740E+02,2.951700E-01,5.140132E-02,3.601731E+03,4.504992E+02,1.858405E-01,3.476644E-02,5.452098E+03,5.695165E+02,2.813215E-01,4.394951E-02,3.598190E+03,5.716118E+02,1.856578E-01,4.411420E-02
01:10:00,4.347937E+03,7.136235E+02,2.243209E-01,5.507404E-02,5.720499E+03,6.733989E+02,2.951709E-01,5.196667E-02,3.601742E+03,4.554438E+02,1.858411E-01,3.514807E-02,5.452115E+03,5.768348E+02,2.813224E-01,4.451442E-02,3.598201E+03,5.766402E+02,1.856584E-01,4.450224E-02
01:20:00,4.347961E+03,7.231618E+02,2.243221E-01,5.581036E-02,5.720516E+03,6.796833E+02,2.951718E-01,5.245172E-02,3.601753E+03,4.596095E+02,1.858416E-01,3.546957E-02,5.452132E+03,5.836124E+02,2.813232E-01,4.503755E-02,3.598212E+03,5.807136E+02,1.856590E-01,4.481655E-02
01:30:00,4.347983E+03,7.327237E+02,2.243233E-01,5.654837E-02,5.720532E+03,6.850665E+02,2.951726E-01,5.286718E-02,3.601763E+03,4.631075E+02,1.858422E-01,3.573951E-02,5.452148E+03,5.899120E+02,2.813240E-01,4.552369E-02,3.598223E+03,5.839722E+02,1.856595E-01,4.506794E-02
01:40:00,4.348005E+03,7.419237E+02,2.243244E-01,5.725830E-02,5.720547E+03,6.896842E+02,2.951734E-01,5.322352E-02,3.601773E+03,4.660408E+02,1.858427E-01,3.596585E-02,5.452163E+03,5.956200E+02,2.813248E-01,4.596416E-02,3.598233E+03,5.865429E+02,1.856600E-01,4.526620E-02
01:50:00,4.348027E+03,7.507326E+02,2.243255E-01,5.793808E-02,5.720563E+03,6.936554E+02,2.951742E-01,5.352995E-02,3.601783E+03,4.684988E+02,1.858432E-01,3.615548E-02,5.452178E+03,6.008001E+02,2.813256E-01,4.636389E-02,3.598242E+03,5.885339E+02,1.856605E-01,4.541971E-02
02:00:00,4.348047E+03,7.591805E+02,2.243266E-01,5.859000E-02,5.720577E+03,6.970849E+02,2.951750E-01,5.379454E-02,3.601792E+03,4.705585E+02,1.858437E-01,3.631435E-02,5.452193E+03,6.055163E+02,2.813264E-01,4.672782E-02,3.598252E+03,5.900381E+02,1.856610E-01,4.553562E-02
02:10:00,4.348068E+03,7.671412E+02,2.243276E-01,5.920431E-02,5.720592E+03,6.999148E+02,2.951757E-01,5.401284E-02,3.601801E+03,4.721937E+02,1.858442E-01,3.644045E-02,5.452207E+03,6.096935E+02,2.813271E-01,4.705012E-02,3.598261E+03,5.910416E+02,1.856615E-01,4.561290E-02
02:20:00,4.348087E+03,7.746532E+02,2.243286E-01,5.978398E-02,5.720605E+03,7.022207E+02,2.951764E-01,5.419069E-02,3.601810E+03,4.734593E+02,1.858446E-01,3.653802E-02,5.452221E+03,6.133873E+02,2.813278E-01,4.733512E-02,3.598270E+03,5.916100E+02,1.856619E-01,4.565659E-02
02:30:00,4.348106E+03,7.817541E+02,2.243296E-01,6.033190E-02,5.720619E+03,7.040682E+02,2.951771E-01,5.433315E-02,3.601819E+03,4.744026E+02,1.858451E-01,3.661071E-02,5.452234E+03,6.166483E+02,2.813285E-01,4.758669E-02,3.598279E+03,5.917999E+02,1.856624E-01,4.567106E-02
02:40:00,4.348125E+03,7.884796E+02,2.243306E-01,6.085085E-02,5.720632E+03,7.055138E+02,2.951778E-01,5.444458E-02,3.601827E+03,4.750643E+02,1.858455E-01,3.666166E-02,5.452247E+03,6.195218E+02,2.813292E-01,4.780836E-02,3.598287E+03,5.916597E+02,1.856628E-01,4.566006E-02
02:50:00,4.348143E+03,7.948632E+02,2.243315E-01,6.134339E-02,5.720645E+03,7.066068E+02,2.951784E-01,5.452880E-02,3.601836E+03,4.754797E+02,1.858459E-01,3.669360E-02,5.452260E+03,6.220490E+02,2.813298E-01,4.800329E-02,3.598295E+03,5.912313E+02,1.856632E-01,4.562683E-02
03:00:00,4.348161E+03,8.009355E+02,2.243324E-01,6.181189E-02,5.720657E+03,7.073907E+02,2.951791E-01,5.458915E-02,3.601844E+03,4.756794E+02,1.858463E-01,3.670890E-02,5.452272E+03,6.242667E+02,2.813305E-01,4.817433E-02,3.598303E+03,5.905513E+02,1.856637E-01,4.557418E-02
03:10:00,4.348178E+03,8.065610E+02,2.243333E-01,6.224591E-02,5.720669E+03,7.077518E+02,2.951797E-01,5.461688E-02,3.601851E+03,4.755963E+02,1.858467E-01,3.670237E-02,5.452284E+03,6.260679E+02,2.813311E-01,4.831323E-02,3.598311E+03,5.895574E+02,1.856641E-01,4.549731E-02
03:20:00,4.348195E+03,8.117646E+02,2.243342E-01,6.264735E-02,5.720681E+03,7.077206E+02,2.951803E-01,5.461433E-02,3.601859E+03,4.752519E+02,1.858471E-01,3.667568E-02,5.452295E+03,6.274799E+02,2.813317E-01,4.842209E-02,3.598318E+03,5.882755E+02,1.856644E-01,4.539822E-02
03:30:00,4.348211E+03,8.165681E+02,2.243350E-01,6.301792E-02,5.720692E+03,7.073238E+02,2.951809E-01,5.458357E-02,3.601866E+03,4.746652E+02,1.858475E-01,3.663028E-02,5.452307E+03,6.285271E+02,2.813322E-01,4.850278E-02,3.598326E+03,5.867283E+02,1.856648E-01,4.527866E-02
03:40:00,4.348227E+03,8.209917E+02,2.243358E-01,6.335915E-02,5.720703E+03,7.065848E+02,2.951814E-01,5.452639E-02,3.601873E+03,4.738526E+02,1.858479E-01,3.656746E-02,5.452318E+03,6.292309E+02,2.813328E-01,4.855698E-02,3.598333E+03,5.849358E+02,1.856652E-01,4.514018E-02
03:50:00,4.348242E+03,8.250535E+02,2.243366E-01,6.367245E-02,5.720714E+03,7.055246E+02,2.951820E-01,5.444443E-02,3.601880E+03,4.728290E+02,1.858482E-01,3.648835E-02,5.452328E+03,6.296111E+02,2.813334E-01,4.858619E-02,3.598340E+03,5.829159E+02,1.856655E-01,4.498415E-02
04:00:00,4.348257E+03,8.287702E+02,2.243374E-01,6.395912E-02,5.720724E+03,7.041624E+02,2.951825E-01,5.433916E-02,3.601887E+03,4.716077E+02,1.858486E-01,3.639399E-02,5.452339E+03,6.296854E+02,2.813339E-01,4.859180E-02,3.598346E+03,5.806848E+02,1.856659E-01,4.481182E-02
04:10:00,4.348272E+03,8.323212E+02,2.243382E-01,6.423300E-02,5.720735E+03,7.026730E+02,2.951831E-01,5.422407E-02,3.601893E+03,4.702989E+02,1.858489E-01,3.629287E-02,5.452349E+03,6.296162E+02,2.813344E-01,4.858634E-02,3.598353E+03,5.783555E+02,1.856662E-01,4.463193E-02
04:20:00,4.348286E+03,8.357213E+02,2.243389E-01,6.449522E-02,5.720744E+03,7.010614E+02,2.951836E-01,5.409957E-02,3.601900E+03,4.689071E+02,1.858492E-01,3.618536E-02,5.452359E+03,6.294092E+02,2.813349E-01,4.857024E-02,3.598359E+03,5.759349E+02,1.856665E-01,4.444499E-02
04:30:00,4.348300E+03,8.389846E+02,2.243396E-01,6.474690E-02,5.720754E+03,6.993502E+02,2.951841E-01,5.396737E-02,3.601906E+03,4.674468E+02,1.858496E-01,3.607256E-02,5.452368E+03,6.290848E+02,2.813354E-01,4.854508E-02,3.598365E+03,5.734393E+02,1.856669E-01,4.425227E-02
04:40:00,4.348314E+03,8.421244E+02,2.243404E-01,6.498904E-02,5.720764E+03,6.975579E+02,2.951846E-01,5.382893E-02,3.601912E+03,4.659302E+02,1.858499E-01,3.595543E-02,5.452378E+03,6.286599E+02,2.813359E-01,4.851218E-02,3.598371E+03,5.708827E+02,1.856672E-01,4.405485E-02
04:50:00,4.348327E+03,8.451629E+02,2.243410E-01,6.522337E-02,5.720773E+03,6.957439E+02,2.951850E-01,5.368881E-02,3.601918E+03,4.647876E+02,1.858502E-01,3.586716E-02,5.452387E+03,6.283652E+02,2.813364E-01,4.848932E-02,3.598377E+03,5.683028E+02,1.856675E-01,4.385564E-02
05:00:00,4.348340E+03,8.482331E+02,2.243417E-01,6.546014E-02,5.720782E+03,6.943867E+02,2.951855E-01,5.358395E-02,3.601924E+03,4.683842E+02,1.858505E-01,3.614461E-02,5.452396E+03,6.301722E+02,2.813368E-01,4.862865E-02,3.598383E+03,5.659782E+02,1.856678E-01,4.367614E-02
05:10:00,4.348353E+03,8.522526E+02,2.243424E-01,6.577019E-02,5.720790E+03,6.948801E+02,2.951859E-01,5.362192E-02,3.601929E+03,4.831513E+02,1.858508E-01,3.728420E-02,5.452404E+03,6.364026E+02,2.813373E-01,4.910938E-02,3.598389E+03,5.647274E+02,1.856681E-01,4.357951E-02
05:20:00,4.348365E+03,8.578060E+02,2.243430E-01,6.619865E-02,5.720799E+03,6.980542E+02,2.951864E-01,5.386678E-02,3.601935E+03,5.119040E+02,1.858510E-01,3.950333E-02,5.452413E+03,6.469416E+02,2.813377E-01,4.992266E-02,3.598394E+03,5.650214E+02,1.856683E-01,4.360212E-02
05:30:00,4.348378E+03,8.653994E+02,2.243436E-01,6.678457E-02,5.720807E+03,7.049013E+02,2.951868E-01,5.439513E-02,3.601940E+03,5.593070E+02,1.858513E-01,4.316208E-02,5.452421E+03,6.618837E+02,2.813381E-01,5.107579E-02,3.598399E+03,5.673871E+02,1.856686E-01,4.378464E-02
05:40:00,4.348389E+03,8.753621E+02,2.243442E-01,6.755339E-02,5.720815E+03,7.157997E+02,2.951872E-01,5.523617E-02,3.601945E+03,6.266142E+02,1.858516E-01,4.835738E-02,5.452429E+03,6.800177E+02,2.813386E-01,5.247531E-02,3.598404E+03,5.719211E+02,1.856689E-01,4.413453E-02
05:50:00,4.348401E+03,8.874625E+02,2.243448E-01,6.848651E-02,5.720823E+03,7.306800E+02,2.951876E-01,5.638409E-02,3.601950E+03,7.136348E+02,1.858518E-01,5.507374E-02,5.452437E+03,7.002629E+02,2.813390E-01,5.403730E-02,3.598409E+03,5.783592E+02,1.856691E-01,4.463103E-02
06:00:00,4.348412E+03,9.021968E+02,2.243454E-01,6.962217E-02,5.720830E+03,7.494810E+02,2.951880E-01,5.783407E-02,3.601955E+03,8.160212E+02,1.858521E-01,6.297493E-02,5.452444E+03,7.211458E+02,2.813393E-01,5.564799E-02,3.598414E+03,5.864821E+02,1.856694E-01,4.525715E-02
06:10:00,4.022420E+03,1.752685E+03,2.075267E-01,1.454582E-01,5.538673E+03,1.434166E+03,2.857889E-01,1.192265E-01,3.480517E+03,1.367547E+03,1.795862E-01,1.133499E-01,5.270287E+03,1.400753E+03,2.719403E-01,1.164696E-01,3.476976E+03,1.012060E+03,1.794035E-01,8.391059E-02
06:20:00,3.696302E+03,2.405661E+03,1.907050E-01,2.122306E-01,5.356501E+03,1.982945E+03,2.763909E-01,1.752582E-01,3.359071E+03,1.862906E+03,1.733212E-01,1.638517E-01,5.088115E+03,1.948026E+03,2.625423E-01,1.722752E-01,3.355531E+03,1.359513E+03,1.731385E-01,1.197813E-01
06:30:00,3.370100E+03,2.996262E+03,1.738796E-01,2.732079E-01,5.174292E+03,2.478953E+03,2.669930E-01,2.264167E-01,3.237604E+03,2.317254E+03,1.670565E-01,2.109572E-01,4.905906E+03,2.440835E+03,2.531442E-01,2.230576E-01,3.234064E+03,1.670422E+03,1.668738E-01,1.522622E-01
06:40:00,3.043834E+03,3.553473E+03,1.570511E-01,3.309731E-01,4.992033E+03,2.946969E+03,2.575940E-01,2.749139E-01,3.116105E+03,2.748191E+03,1.607911E-01,2.561899E-01,4.723649E+03,2.904980E+03,2.437449E-01,2.710988E-01,3.112565E+03,1.961196E+03,1.606084E-01,1.828103E-01
06:50:00,2.717510E+03,4.083935E+03,1.402199E-01,3.861678E-01,4.809721E+03,3.393174E+03,2.481933E-01,3.213482E-01,2.994572E+03,3.158712E+03,1.545246E-01,2.998345E-01,4.541340E+03,3.346937E+03,2.343439E-01,3.170093E-01,2.991031E+03,2.236444E+03,1.543419E-01,2.118666E-01
07:00:00,2.391136E+03,4.591950E+03,1.233863E-01,4.392277E-01,4.627357E+03,3.821699E+03,2.387906E-01,3.661334E-01,2.873005E+03,3.550747E+03,1.482569E-01,3.420809E-01,4.358981E+03,3.769816E+03,2.249410E-01,3.611044E-01,2.869464E+03,2.499346E+03,1.480742E-01,2.397439E-01
07:10:00,2.390717E+03,4.247188E+03,1.233697E-01,4.159502E-01,4.627111E+03,3.572934E+03,2.387854E-01,3.498918E-01,2.872849E+03,3.485405E+03,1.482540E-01,3.412743E-01,4.358741E+03,3.517963E+03,2.249356E-01,3.445116E-01,2.869309E+03,2.335976E+03,1.480713E-01,2.287441E-01
07:20:00,2.390381E+03,4.084850E+03,1.233540E-01,4.003010E-01,4.626837E+03,3.450274E+03,2.387773E-01,3.381004E-01,2.872672E+03,3.465406E+03,1.482488E-01,3.395663E-01,4.358473E+03,3.385451E+03,2.249273E-01,3.317500E-01,2.869132E+03,2.243279E+03,1.480661E-01,2.198204E-01
07:30:00,2.390088E+03,3.971192E+03,1.233402E-01,3.891563E-01,4.626562E+03,3.371255E+03,2.387673E-01,3.303565E-01,2.872492E+03,3.469433E+03,1.482423E-01,3.399715E-01,4.358204E+03,3.296180E+03,2.249173E-01,3.230004E-01,2.868951E+03,2.180471E+03,1.480596E-01,2.136676E-01
07:40:00,2.389825E+03,3.878864E+03,1.233277E-01,3.801002E-01,4.626303E+03,3.311995E+03,2.387569E-01,3.245441E-01,2.872321E+03,3.477421E+03,1.482354E-01,3.407516E-01,4.357950E+03,3.227275E+03,2.249070E-01,3.162426E-01,2.868781E+03,2.132180E+03,1.480527E-01,2.089329E-01
07:50:00,2.389585E+03,3.803049E+03,1.233162E-01,3.726659E-01,4.626068E+03,3.267338E+03,2.387467E-01,3.201651E-01,2.872165E+03,3.485639E+03,1.482286E-01,3.415550E-01,4.357719E+03,3.174180E+03,2.248970E-01,3.110366E-01,2.868625E+03,2.094784E+03,1.480459E-01,2.052668E-01
08:00:00,2.389367E+03,3.740148E+03,1.233057E-01,3.664989E-01,4.625858E+03,3.234187E+03,2.387373E-01,3.169144E-01,2.872026E+03,3.490715E+03,1.482223E-01,3.420510E-01,4.357511E+03,3.134895E+03,2.248876E-01,3.071849E-01,2.868485E+03,2.066231E+03,1.480396E-01,2.024678E-01
08:10:00,2.389168E+03,3.687426E+03,1.232961E-01,3.613303E-01,4.625673E+03,3.208734E+03,2.387287E-01,3.144188E-01,2.871903E+03,3.491470E+03,1.482165E-01,3.421239E-01,4.357327E+03,3.104975E+03,2.248791E-01,3.042515E-01,2.868362E+03,2.044054E+03,1.480338E-01,2.002939E-01
08:20:00,2.388988E+03,3.643174E+03,1.232874E-01,3.569922E-01,4.625510E+03,3.188864E+03,2.387210E-01,3.124704E-01,2.871795E+03,3.487271E+03,1.482114E-01,3.417114E-01,4.357164E+03,3.081919E+03,2.248714E-01,3.019911E-01,2.868254E+03,2.026762E+03,1.480286E-01,1.985988E-01
08:30:00,2.388824E+03,3.606128E+03,1.232794E-01,3.533619E-01,4.625367E+03,3.173207E+03,2.387141E-01,3.109361E-01,2.871700E+03,3.478988E+03,1.482067E-01,3.408997E-01,4.357021E+03,3.064272E+03,2.248645E-01,3.002618E-01,2.868160E+03,2.013356E+03,1.480240E-01,1.972852E-01
08:40:00,2.388675E+03,3.574833E+03,1.232721E-01,3.502956E-01,4.625242E+03,3.160852E+03,2.387079E-01,3.097257E-01,2.871617E+03,3.467217E+03,1.482026E-01,3.397465E-01,4.356895E+03,3.050649E+03,2.248583E-01,2.989271E-01,2.868077E+03,2.002966E+03,1.480199E-01,1.962673E-01
08:50:00,2.388540E+03,3.548100E+03,1.232655E-01,3.476764E-01,4.625133E+03,3.151073E+03,2.387025E-01,3.087678E-01,2.871544E+03,3.451792E+03,1.481990E-01,3.382353E-01,4.356785E+03,3.040260E+03,2.248529E-01,2.979094E-01,2.868004E+03,1.995074E+03,1.480163E-01,1.954943E-01
09:00:00,2.388418E+03,3.524955E+03,1.232595E-01,3.454088E-01,4.625036E+03,3.142876E+03,2.386977E-01,3.079648E-01,2.871480E+03,3.433290E+03,1.481958E-01,3.364224E-01,4.356687E+03,3.031727E+03,2.248480E-01,2.970735E-01,2.867940E+03,1.988700E+03,1.480131E-01,1.948698E-01
09:10:00,2.388306E+03,3.504488E+03,1.232540E-01,3.434035E-01,4.624950E+03,3.136658E+03,2.386933E-01,3.073556E-01,2.871423E+03,3.410216E+03,1.481929E-01,3.341615E-01,4.356600E+03,3.024694E+03,2.248436E-01,2.963844E-01,2.867883E+03,1.983667E+03,1.480102E-01,1.943768E-01
09:20:00,2.388204E+03,3.486135E+03,1.232489E-01,3.416053E-01,4.624874E+03,3.133108E+03,2.386895E-01,3.070079E-01,2.871373E+03,3.380607E+03,1.481904E-01,3.312602E-01,4.356523E+03,3.018860E+03,2.248397E-01,2.958129E-01,2.867833E+03,1.979761E+03,1.480077E-01,1.939940E-01
09:30:00,2.388111E+03,3.469469E+03,1.232443E-01,3.399723E-01,4.624806E+03,3.133159E+03,2.386860E-01,3.070130E-01,2.871328E+03,3.340889E+03,1.481881E-01,3.273681E-01,4.356454E+03,3.013816E+03,2.248362E-01,2.953187E-01,2.867788E+03,1.976736E+03,1.480054E-01,1.936977E-01
09:40:00,2.388026E+03,3.454151E+03,1.232401E-01,3.384714E-01,4.624745E+03,3.137779E+03,2.386829E-01,3.074657E-01,2.871288E+03,3.289218E+03,1.481860E-01,3.223049E-01,4.356392E+03,3.009360E+03,2.248331E-01,2.948821E-01,2.867748E+03,1.974512E+03,1.480033E-01,1.934798E-01
09:50:00,2.387948E+03,3.439910E+03,1.232362E-01,3.370759E-01,4.624689E+03,3.147646E+03,2.386801E-01,3.084327E-01,2.871252E+03,3.223127E+03,1.481842E-01,3.158286E-01,4.356336E+03,3.005623E+03,2.248302E-01,2.945160E-01,2.867711E+03,1.973220E+03,1.480015E-01,1.933532E-01
10:00:00,2.387876E+03,3.426634E+03,1.232326E-01,3.357763E-01,4.624639E+03,3.163708E+03,2.386775E-01,3.100076E-01,2.871219E+03,3.143089E+03,1.481825E-01,3.079864E-01,4.356285E+03,3.002334E+03,2.248276E-01,2.941946E-01,2.867678E+03,1.972683E+03,1.479998E-01,1.933013E-01
10:10:00,2.387809E+03,3.414025E+03,1.232292E-01,3.345426E-01,4.624593E+03,3.186565E+03,2.386751E-01,3.122490E-01,2.871189E+03,3.049951E+03,1.481809E-01,2.988609E-01,4.356239E+03,2.999098E+03,2.248252E-01,2.938789E-01,2.867648E+03,1.972621E+03,1.479982E-01,1.932961E-01
10:20:00,2.387747E+03,3.401993E+03,1.232261E-01,3.333655E-01,4.624551E+03,3.216209E+03,2.386729E-01,3.151553E-01,2.871161E+03,2.946579E+03,1.481795E-01,2.887327E-01,4.356196E+03,2.995903E+03,2.248230E-01,2.935673E-01,2.867621E+03,1.972975E+03,1.479968E-01,1.933318E-01
10:30:00,2.387690E+03,3.390474E+03,1.232232E-01,3.322386E-01,4.624512E+03,3.252257E+03,2.386709E-01,3.186893E-01,2.871136E+03,2.838625E+03,1.481782E-01,2.781555E-01,4.356157E+03,2.992849E+03,2.248210E-01,2.932693E-01,2.867595E+03,1.973721E+03,1.479955E-01,1.934058E-01
10:40:00,2.387636E+03,3.379440E+03,1.232205E-01,3.311592E-01,4.624475E+03,3.293898E+03,2.386691E-01,3.227713E-01,2.871112E+03,2.730959E+03,1.481770E-01,2.676064E-01,4.356120E+03,2.989926E+03,2.248191E-01,2.929843E-01,2.867572E+03,1.974728E+03,1.479943E-01,1.935054E-01
10:50:00,2.387586E+03,3.368897E+03,1.232180E-01,3.301279E-01,4.624442E+03,3.340692E+03,2.386673E-01,3.273583E-01,2.871090E+03,2.629676E+03,1.481758E-01,2.576830E-01,4.356086E+03,2.986886E+03,2.248174E-01,2.926878E-01,2.867550E+03,1.975689E+03,1.479931E-01,1.936004E-01
11:00:00,2.387539E+03,3.358764E+03,1.232156E-01,3.291356E-01,4.624410E+03,3.391349E+03,2.386657E-01,3.323228E-01,2.871069E+03,2.538293E+03,1.481748E-01,2.487289E-01,4.356054E+03,2.983945E+03,2.248157E-01,2.924001E-01,2.867529E+03,1.976633E+03,1.479921E-01,1.936933E-01
11:10:00,2.387495E+03,3.349097E+03,1.232134E-01,3.281884E-01,4.624380E+03,3.444271E+03,2.386641E-01,3.375087E-01,2.871050E+03,2.459983E+03,1.481738E-01,2.410553E-01,4.356024E+03,2.981192E+03,2.248142E-01,2.921303E-01,2.867510E+03,1.977513E+03,1.479911E-01,1.937796E-01
11:20:00,2.387453E+03,3.339899E+03,1.232113E-01,3.272871E-01,4.624352E+03,3.498172E+03,2.386627E-01,3.427905E-01,2.871032E+03,2.396258E+03,1.481728E-01,2.348111E-01,4.355996E+03,2.978705E+03,2.248127E-01,2.918867E-01,2.867491E+03,1.978306E+03,1.479901E-01,1.938572E-01
11:30:00,2.387414E+03,3.331365E+03,1.232093E-01,3.264522E-01,4.624325E+03,3.551855E+03,2.386613E-01,3.480523E-01,2.871014E+03,2.346376E+03,1.481719E-01,2.299240E-01,4.355969E+03,2.976654E+03,2.248114E-01,2.916867E-01,2.867474E+03,1.979064E+03,1.479892E-01,1.939322E-01
11:40:00,2.387376E+03,3.323283E+03,1.232073E-01,3.256632E-01,4.624300E+03,3.604031E+03,2.386600E-01,3.531678E-01,2.870998E+03,2.309106E+03,1.481711E-01,2.262737E-01,4.355944E+03,2.974912E+03,2.248100E-01,2.915183E-01,2.867457E+03,1.979686E+03,1.479884E-01,1.939947E-01
11:50:00,2.387341E+03,3.315683E+03,1.232055E-01,3.249216E-01,4.624275E+03,3.653442E+03,2.386587E-01,3.580124E-01,2.870982E+03,2.282112E+03,1.481703E-01,2.236304E-01,4.355920E+03,2.973483E+03,2.248088E-01,2.913806E-01,2.867442E+03,1.980170E+03,1.479876E-01,1.940436E-01
12:00:00,2.387307E+03,3.308537E+03,1.232038E-01,3.242245E-01,4.624252E+03,3.699127E+03,2.386575E-01,3.624918E-01,2.870967E+03,2.262743E+03,1.481695E-01,2.217342E-01,4.355897E+03,2.972327E+03,2.248076E-01,2.912696E-01,2.867427E+03,1.980513E+03,1.479868E-01,1.940787E-01
12:10:00,2.387274E+03,3.301913E+03,1.232021E-01,3.235785E-01,4.624230E+03,3.740441E+03,2.386564E-01,3.665429E-01,2.870953E+03,2.248511E+03,1.481688E-01,2.203415E-01,4.355874E+03,2.971616E+03,2.248065E-01,2.912023E-01,2.867413E+03,1.980865E+03,1.479860E-01,1.941147E-01
12:20:00,2.387243E+03,3.295747E+03,1.232005E-01,3.229774E-01,4.624209E+03,3.776644E+03,2.386553E-01,3.700932E-01,2.870939E+03,2.237707E+03,1.481681E-01,2.192846E-01,4.355853E+03,2.971297E+03,2.248054E-01,2.911733E-01,2.867399E+03,1.981228E+03,1.479853E-01,1.941519E-01
12:30:00,2.387214E+03,3.289798E+03,1.231990E-01,3.223960E-01,4.624188E+03,3.806989E+03,2.386543E-01,3.730681E-01,2.870926E+03,2.229859E+03,1.481674E-01,2.185165E-01,4.355833E+03,2.971197E+03,2.248043E-01,2.911648E-01,2.867386E+03,1.981528E+03,1.479847E-01,1.941821E-01
12:40:00,2.387185E+03,3.284214E+03,1.231976E-01,3.218489E-01,4.624169E+03,3.831171E+03,2.386532E-01,3.754376E-01,2.870913E+03,2.223964E+03,1.481667E-01,2.179391E-01,4.355813E+03,2.971409E+03,2.248033E-01,2.911856E-01,2.867373E+03,1.981845E+03,1.479840E-01,1.942132E-01
12:50:00,2.387158E+03,3.279194E+03,1.231962E-01,3.213570E-01,4.624150E+03,3.848888E+03,2.386523E-01,3.771737E-01,2.870901E+03,2.219664E+03,1.481661E-01,2.175178E-01,4.355795E+03,2.972059E+03,2.248023E-01,2.912493E-01,2.867361E+03,1.982273E+03,1.479834E-01,1.942552E-01
13:00:00,2.387131E+03,3.274334E+03,1.231948E-01,3.208861E-01,4.624131E+03,3.859705E+03,2.386513E-01,3.782377E-01,2.870890E+03,2.216476E+03,1.481655E-01,2.172079E-01,4.355776E+03,2.972891E+03,2.248014E-01,2.913346E-01,2.867349E+03,1.982673E+03,1.479828E-01,1.942967E-01
13:10:00,2.387106E+03,3.269563E+03,1.231935E-01,3.204246E-01,4.624114E+03,3.863396E+03,2.386504E-01,3.786041E-01,2.870878E+03,2.214060E+03,1.481649E-01,2.169740E-01,4.355759E+03,2.973792E+03,2.248005E-01,2.914271E-01,2.867338E+03,1.982972E+03,1.479822E-01,1.943287E-01
13:20:00,2.387081E+03,3.264851E+03,1.231922E-01,3.199691E-01,4.624097E+03,3.859967E+03,2.386495E-01,3.782729E-01,2.870867E+03,2.212192E+03,1.481643E-01,2.167940E-01,4.355742E+03,2.974732E+03,2.247996E-01,2.915236E-01,2.867327E+03,1.983061E+03,1.479816E-01,1.943402E-01
13:30:00,2.387057E+03,3.260177E+03,1.231910E-01,3.195171E-01,4.624080E+03,3.849572E+03,2.386487E-01,3.772590E-01,2.870857E+03,2.210695E+03,1.481638E-01,2.166503E-01,4.355725E+03,2.975689E+03,2.247988E-01,2.916218E-01,2.867316E+03,1.982851E+03,1.479811E-01,1.943224E-01
13:40:00,2.387034E+03,3.255535E+03,1.231898E-01,3.190684E-01,4.624064E+03,3.832473E+03,2.386478E-01,3.755881E-01,2.870846E+03,2.209424E+03,1.481633E-01,2.165288E-01,4.355710E+03,2.976649E+03,2.247980E-01,2.917203E-01,2.867306E+03,1.984423E+03,1.479805E-01,1.944793E-01
13:50:00,2.387012E+03,3.250640E+03,1.231887E-01,3.185948E-01,4.624049E+03,3.809068E+03,2.386470E-01,3.732992E-01,2.870836E+03,2.208150E+03,1.481627E-01,2.164069E-01,4.355694E+03,2.977422E+03,2.247972E-01,2.918005E-01,2.867296E+03,1.990492E+03,1.479800E-01,1.950769E-01
14:00:00,2.386991E+03,3.245867E+03,1.231876E-01,3.181279E-01,4.624034E+03,3.780209E+03,2.386463E-01,3.704716E-01,2.870827E+03,2.206891E+03,1.481623E-01,2.162841E-01,4.355679E+03,2.978243E+03,2.247964E-01,2.918815E-01,2.867286E+03,2.004600E+03,1.479795E-01,1.964600E-01
14:10:00,2.386970E+03,3.241177E+03,1.231865E-01,3.176683E-01,4.624019E+03,3.746538E+03,2.386455E-01,3.671716E-01,2.870817E+03,2.205473E+03,1.481618E-01,2.161451E-01,4.355665E+03,2.979018E+03,2.247956E-01,2.919575E-01,2.867277E+03,2.030277E+03,1.479790E-01,1.989768E-01
14:20:00,2.386949E+03,3.236628E+03,1.231854E-01,3.172226E-01,4.624005E+03,3.709104E+03,2.386448E-01,3.635028E-01,2.870808E+03,2.203801E+03,1.481613E-01,2.159814E-01,4.355651E+03,2.979791E+03,2.247949E-01,2.920333E-01,2.867268E+03,2.070926E+03,1.479786E-01,2.029609E-01
14:30:00,2.386930E+03,3.232295E+03,1.231844E-01,3.167979E-01,4.623991E+03,3.669108E+03,2.386441E-01,3.595830E-01,2.870799E+03,2.201814E+03,1.481608E-01,2.157867E-01,4.355637E+03,2.980648E+03,2.247942E-01,2.921173E-01,2.867259E+03,2.129309E+03,1.479781E-01,2.086833E-01
14:40:00,2.386911E+03,3.228239E+03,1.231834E-01,3.164004E-01,4.623978E+03,3.627857E+03,2.386434E-01,3.555401E-01,2.870791E+03,2.199459E+03,1.481604E-01,2.155558E-01,4.355624E+03,2.981675E+03,2.247935E-01,2.922180E-01,2.867250E+03,2.205190E+03,1.479777E-01,2.161205E-01
14:50:00,2.386892E+03,3.224512E+03,1.231825E-01,3.160352E-01,4.623965E+03,3.586738E+03,2.386427E-01,3.515103E-01,2.870782E+03,2.196693E+03,1.481600E-01,2.152847E-01,4.355611E+03,2.982952E+03,2.247929E-01,2.923431E-01,2.867242E+03,2.296537E+03,1.479772E-01,2.250736E-01
15:00:00,2.386874E+03,3.221149E+03,1.231815E-01,3.157056E-01,4.623952E+03,3.547300E+03,2.386421E-01,3.476455E-01,2.870774E+03,2.193143E+03,1.481596E-01,2.149368E-01,4.355598E+03,2.984055E+03,2.247922E-01,2.924512E-01,2.867234E+03,2.401286E+03,1.479768E-01,2.353400E-01
15:10:00,2.386856E+03,3.218132E+03,1.231806E-01,3.154100E-01,4.623940E+03,3.510480E+03,2.386414E-01,3.440371E-01,2.870766E+03,2.188924E+03,1.481591E-01,2.145234E-01,4.355586E+03,2.985201E+03,2.247916E-01,2.925635E-01,2.867226E+03,2.514380E+03,1.479764E-01,2.464242E-01
15:20:00,2.386839E+03,3.215095E+03,1.231798E-01,3.151095E-01,4.623928E+03,3.476946E+03,2.386408E-01,3.407489E-01,2.870759E+03,2.183978E+03,1.481588E-01,2.140373E-01,4.355574E+03,2.986272E+03,2.247910E-01,2.926665E-01,2.867218E+03,2.631129E+03,1.479760E-01,2.578645E-01
15:30:00,2.386822E+03,3.212445E+03,1.231789E-01,3.148438E-01,4.623916E+03,3.447565E+03,2.386402E-01,3.378654E-01,2.870751E+03,2.178466E+03,1.481584E-01,2.134942E-01,4.355563E+03,2.987487E+03,2.247904E-01,2.927812E-01,2.867211E+03,2.744939E+03,1.479756E-01,2.690140E-01
15:40:00,2.386806E+03,3.210038E+03,1.231781E-01,3.146019E-01,4.623905E+03,3.422469E+03,2.386396E-01,3.354017E-01,2.870744E+03,2.172382E+03,1.481580E-01,2.128950E-01,4.355552E+03,2.988663E+03,2.247898E-01,2.928922E-01,2.867203E+03,2.851508E+03,1.479753E-01,2.794533E-01
15:50:00,2.386790E+03,3.207784E+03,1.231772E-01,3.143748E-01,4.623894E+03,3.401238E+03,2.386391E-01,3.333168E-01,2.870737E+03,2.165729E+03,1.481576E-01,2.122402E-01,4.355541E+03,2.989603E+03,2.247892E-01,2.929798E-01,2.867196E+03,2.948550E+03,1.479749E-01,2.889586E-01
16:00:00,2.386775E+03,3.205597E+03,1.231765E-01,3.141544E-01,4.623883E+03,3.382711E+03,2.386385E-01,3.314968E-01,2.870730E+03,2.158859E+03,1.481573E-01,2.115640E-01,4.355530E+03,2.990587E+03,2.247887E-01,2.930719E-01,2.867190E+03,3.033579E+03,1.479745E-01,2.972864E-01
16:10:00,2.386760E+03,3.203549E+03,1.231757E-01,3.139476E-01,4.623873E+03,3.366740E+03,2.386380E-01,3.299274E-01,2.870724E+03,2.151798E+03,1.481569E-01,2.108691E-01,4.355520E+03,2.991449E+03,2.247882E-01,2.931520E-01,2.867183E+03,3.107260E+03,1.479742E-01,3.045020E-01
16:20:00,2.386745E+03,3.201935E+03,1.231749E-01,3.137861E-01,4.623863E+03,3.353107E+03,2.386375E-01,3.285892E-01,2.870717E+03,2.144625E+03,1.481566E-01,2.101646E-01,4.355510E+03,2.992136E+03,2.247876E-01,2.932168E-01,2.867176E+03,3.170186E+03,1.479739E-01,3.106652E-01
16:30:00,2.386731E+03,3.200093E+03,1.231742E-01,3.136035E-01,4.623853E+03,3.340954E+03,2.386369E-01,3.273966E-01,2.870711E+03,2.137108E+03,1.481563E-01,2.094268E-01,4.355500E+03,2.992091E+03,2.247871E-01,2.932108E-01,2.867170E+03,3.225381E+03,1.479735E-01,3.160720E-01
16:40:00,2.386717E+03,3.198307E+03,1.231735E-01,3.134255E-01,4.623843E+03,3.329325E+03,2.386364E-01,3.262546E-01,2.870705E+03,2.128853E+03,1.481560E-01,2.086163E-01,4.355490E+03,2.990712E+03,2.247866E-01,2.930734E-01,2.867164E+03,3.275586E+03,1.479732E-01,3.209892E-01
16:50:00,2.386704E+03,3.196524E+03,1.231728E-01,3.132477E-01,4.623834E+03,3.318593E+03,2.386360E-01,3.252005E-01,2.870699E+03,2.120127E+03,1.481556E-01,2.077595E-01,4.355481E+03,2.988350E+03,2.247862E-01,2.928396E-01,2.867158E+03,3.320881E+03,1.479729E-01,3.254252E-01
17:00:00,2.386691E+03,3.194732E+03,1.231721E-01,3.130691E-01,4.623825E+03,3.309073E+03,2.386355E-01,3.242652E-01,2.870693E+03,2.111017E+03,1.481553E-01,2.068652E-01,4.355472E+03,2.985104E+03,2.247857E-01,2.925192E-01,2.867152E+03,3.361092E+03,1.479726E-01,3.293632E-01
17:10:00,2.386678E+03,3.192926E+03,1.231714E-01,3.128892E-01,4.623816E+03,3.300628E+03,2.386350E-01,3.234352E-01,2.870687E+03,2.101531E+03,1.481550E-01,2.059340E-01,4.355463E+03,2.981024E+03,2.247852E-01,2.921170E-01,2.867146E+03,3.395716E+03,1.479723E-01,3.327536E-01
17:20:00,2.386665E+03,3.191194E+03,1.231708E-01,3.127164E-01,4.623807E+03,3.292748E+03,2.386346E-01,3.226605E-01,2.870682E+03,2.091664E+03,1.481548E-01,2.049655E-01,4.355454E+03,2.976203E+03,2.247848E-01,2.916423E-01,2.867141E+03,3.423002E+03,1.479720E-01,3.354249E-01
17:30:00,2.386653E+03,3.190041E+03,1.231702E-01,3.126024E-01,4.623799E+03,3.285014E+03,2.386342E-01,3.219018E-01,2.870676E+03,2.081479E+03,1.481545E-01,2.039669E-01,4.355446E+03,2.970739E+03,2.247844E-01,2.911059E-01,2.867135E+03,3.441473E+03,1.479717E-01,3.372338E-01
17:40:00,2.386641E+03,3.189689E+03,1.231695E-01,3.125678E-01,4.623791E+03,3.277540E+03,2.386337E-01,3.211694E-01,2.870671E+03,2.071363E+03,1.481542E-01,2.029757E-01,4.355438E+03,2.965406E+03,2.247839E-01,2.905834E-01,2.867130E+03,3.449527E+03,1.479715E-01,3.380229E-01
17:50:00,2.386629E+03,3.190549E+03,1.231689E-01,3.126522E-01,4.623783E+03,3.269366E+03,2.386333E-01,3.203685E-01,2.870666E+03,2.061049E+03,1.481539E-01,2.019650E-01,4.355430E+03,2.960514E+03,2.247835E-01,2.901040E-01,2.867125E+03,3.447245E+03,1.479712E-01,3.377991E-01
18:00:00,2.386618E+03,3.192825E+03,1.231684E-01,3.128752E-01,4.623775E+03,3.259940E+03,2.386329E-01,3.194448E-01,2.870661E+03,2.050452E+03,1.481537E-01,2.009266E-01,4.355422E+03,2.955230E+03,2.247831E-01,2.895862E-01,2.867120E+03,3.434369E+03,1.479710E-01,3.365372E-01
18:10:00,2.712624E+03,3.196417E+03,1.399928E-01,3.132273E-01,4.805936E+03,3.248580E+03,2.480343E-01,3.183316E-01,2.992102E+03,2.039429E+03,1.544212E-01,1.998464E-01,4.537584E+03,2.948793E+03,2.341845E-01,2.889555E-01,2.988561E+03,3.410416E+03,1.542385E-01,3.341900E-01
18:20:00,3.038687E+03,3.200947E+03,1.568171E-01,3.136699E-01,4.988109E+03,3.234965E+03,2.574354E-01,3.169964E-01,3.113549E+03,2.027961E+03,1.606885E-01,1.987220E-01,4.719755E+03,2.941193E+03,2.435855E-01,2.882097E-01,3.110008E+03,3.375886E+03,1.605058E-01,3.308052E-01
18:30:00,3.364824E+03,3.205885E+03,1.736429E-01,3.141521E-01,5.170304E+03,3.219110E+03,2.668344E-01,3.154412E-01,3.235007E+03,2.016149E+03,1.669540E-01,1.975635E-01,4.901949E+03,2.933337E+03,2.529847E-01,2.874386E-01,3.231466E+03,3.331192E+03,1.667712E-01,3.264242E-01
18:40:00,3.691034E+03,3.210322E+03,1.904708E-01,3.145851E-01,5.352548E+03,3.200958E+03,2.762334E-01,3.136610E-01,3.356496E+03,2.004005E+03,1.732193E-01,1.963727E-01,5.084190E+03,2.925690E+03,2.623839E-01,2.866878E-01,3.352955E+03,3.275317E+03,1.730366E-01,3.209474E-01
18:50:00,4.017315E+03,3.213425E+03,2.073013E-01,3.148873E-01,5.534850E+03,3.180462E+03,2.856338E-01,3.116512E-01,3.478022E+03,1.991524E+03,1.794856E-01,1.951487E-01,5.266488E+03,2.918090E+03,2.717846E-01,2.859418E-01,3.474481E+03,3.207185E+03,1.793028E-01,3.142696E-01
19:00:00,4.343661E+03,3.214537E+03,2.241344E-01,3.149945E-01,5.717208E+03,3.157534E+03,2.950362E-01,3.094030E-01,3.599586E+03,1.978656E+03,1.857531E-01,1.938869E-01,5.448841E+03,2.911091E+03,2.811872E-01,2.852546E-01,3.596045E+03,3.126113E+03,1.855704E-01,3.063240E-01
19:10:00,4.344051E+03,3.213565E+03,2.241449E-01,3.148975E-01,5.717449E+03,3.132427E+03,2.950389E-01,3.069413E-01,3.599737E+03,1.965537E+03,1.857542E-01,1.926004E-01,5.449075E+03,2.903948E+03,2.811901E-01,2.845533E-01,3.596196E+03,3.030421E+03,1.855715E-01,2.969457E-01
19:20:00,4.344437E+03,3.210365E+03,2.241580E-01,3.145834E-01,5.717724E+03,3.105330E+03,2.950438E-01,3.042856E-01,3.599914E+03,1.952143E+03,1.857569E-01,1.912878E-01,5.449346E+03,2.895502E+03,2.811953E-01,2.837254E-01,3.596373E+03,2.920536E+03,1.855742E-01,2.861778E-01
19:30:00,4.344798E+03,3.204684E+03,2.241718E-01,3.140267E-01,5.718017E+03,3.076097E+03,2.950527E-01,3.014212E-01,3.600105E+03,1.938145E+03,1.857627E-01,1.899161E-01,5.449633E+03,2.882408E+03,2.812042E-01,2.824423E-01,3.596564E+03,2.796967E+03,1.855800E-01,2.740693E-01
19:40:00,4.345129E+03,3.196467E+03,2.241852E-01,3.132215E-01,5.718296E+03,3.044960E+03,2.950633E-01,2.983701E-01,3.600289E+03,1.923370E+03,1.857697E-01,1.884683E-01,5.449908E+03,2.861461E+03,2.812147E-01,2.803896E-01,3.596748E+03,2.663272E+03,1.855870E-01,2.609686E-01
19:50:00,4.345426E+03,3.185943E+03,2.241980E-01,3.121913E-01,5.718547E+03,3.012893E+03,2.950739E-01,2.952287E-01,3.600456E+03,1.908056E+03,1.857769E-01,1.869682E-01,5.450156E+03,2.832918E+03,2.812252E-01,2.775935E-01,3.596915E+03,2.528826E+03,1.855941E-01,2.477949E-01
20:00:00,4.345690E+03,3.173521E+03,2.242098E-01,3.109757E-01,5.718767E+03,2.981058E+03,2.950838E-01,2.921106E-01,3.600602E+03,1.892545E+03,1.857835E-01,1.854492E-01,5.450376E+03,2.799395E+03,2.812350E-01,2.743097E-01,3.597061E+03,2.402531E+03,1.856008E-01,2.354203E-01
20:10:00,4.345924E+03,3.159971E+03,2.242205E-01,3.096496E-01,5.718959E+03,2.950820E+03,2.950928E-01,2.891489E-01,3.600730E+03,1.877342E+03,1.857896E-01,1.839604E-01,5.450568E+03,2.764105E+03,2.812440E-01,2.708529E-01,3.597189E+03,2.291303E+03,1.856069E-01,2.245223E-01
20:20:00,4.346130E+03,3.146138E+03,2.242302E-01,3.082959E-01,5.719125E+03,2.922894E+03,2.951008E-01,2.864138E-01,3.600840E+03,1.862743E+03,1.857950E-01,1.825307E-01,5.450735E+03,2.728988E+03,2.812521E-01,2.674130E-01,3.597299E+03,2.198555E+03,1.856123E-01,2.154351E-01
20:30:00,4.346310E+03,3.132975E+03,2.242388E-01,3.070090E-01,5.719268E+03,2.898089E+03,2.951079E-01,2.839856E-01,3.600935E+03,1.849262E+03,1.857997E-01,1.812112E-01,5.450879E+03,2.697269E+03,2.812592E-01,2.643071E-01,3.597394E+03,2.127060E+03,1.856170E-01,2.084311E-01
20:40:00,4.346469E+03,3.121016E+03,2.242465E-01,3.058417E-01,5.719393E+03,2.876618E+03,2.951141E-01,2.818851E-01,3.601017E+03,1.837144E+03,1.858039E-01,1.800261E-01,5.451004E+03,2.671833E+03,2.812654E-01,2.618179E-01,3.597476E+03,2.076421E+03,1.856211E-01,2.034716E-01
20:50:00,4.346609E+03,3.110734E+03,2.242533E-01,3.048377E-01,5.719501E+03,2.858076E+03,2.951196E-01,2.800710E-01,3.601089E+03,1.826304E+03,1.858075E-01,1.789655E-01,5.451114E+03,2.652318E+03,2.812709E-01,2.599082E-01,3.597548E+03,2.040360E+03,1.856248E-01,1.999403E-01
21:00:00,4.346732E+03,3.102323E+03,2.242594E-01,3.040165E-01,5.719596E+03,2.841884E+03,2.951244E-01,2.784866E-01,3.601152E+03,1.816542E+03,1.858107E-01,1.780105E-01,5.451209E+03,2.636600E+03,2.812758E-01,2.583702E-01,3.597610E+03,2.012730E+03,1.856280E-01,1.972346E-01
21:10:00,4.346842E+03,3.095383E+03,2.242649E-01,3.033395E-01,5.719679E+03,2.827340E+03,2.951287E-01,2.770637E-01,3.601207E+03,1.807543E+03,1.858135E-01,1.771301E-01,5.451293E+03,2.623339E+03,2.812800E-01,2.570729E-01,3.597665E+03,1.990687E+03,1.856308E-01,1.950762E-01
21:20:00,4.346939E+03,3.089568E+03,2.242698E-01,3.027727E-01,5.719753E+03,2.814029E+03,2.951324E-01,2.757617E-01,3.601255E+03,1.799124E+03,1.858160E-01,1.763065E-01,5.451368E+03,2.611892E+03,2.812839E-01,2.559534E-01,3.597714E+03,1.972725E+03,1.856333E-01,1.933178E-01
21:30:00,4.347027E+03,3.084426E+03,2.242742E-01,3.022704E-01,5.719819E+03,2.801529E+03,2.951358E-01,2.745380E-01,3.601299E+03,1.791073E+03,1.858182E-01,1.755184E-01,5.451434E+03,2.601700E+03,2.812873E-01,2.549558E-01,3.597757E+03,1.957733E+03,1.856355E-01,1.918497E-01
21:40:00,4.347106E+03,3.079959E+03,2.242782E-01,3.018328E-01,5.719878E+03,2.789741E+03,2.951389E-01,2.733830E-01,3.601338E+03,1.783364E+03,1.858202E-01,1.747631E-01,5.451494E+03,2.592567E+03,2.812903E-01,2.540610E-01,3.597796E+03,1.945024E+03,1.856375E-01,1.906045E-01
21:50:00,4.347177E+03,3.076266E+03,2.242818E-01,3.014709E-01,5.719931E+03,2.778657E+03,2.951416E-01,2.722968E-01,3.601373E+03,1.776017E+03,1.858220E-01,1.740431E-01,5.451547E+03,2.584409E+03,2.812931E-01,2.532617E-01,3.597831E+03,1.934120E+03,1.856393E-01,1.895361E-01
22:00:00,4.347242E+03,3.072857E+03,2.242851E-01,3.011421E-01,5.719979E+03,2.767917E+03,2.951441E-01,2.712480E-01,3.601404E+03,1.768836E+03,1.858237E-01,1.733416E-01,5.451596E+03,2.576804E+03,2.812956E-01,2.525199E-01,3.597863E+03,1.924454E+03,1.856409E-01,1.885913E-01
22:10:00,4.347301E+03,2.559292E+03,2.242882E-01,2.508133E-01,5.720024E+03,2.302124E+03,2.951464E-01,2.256022E-01,3.601433E+03,1.471036E+03,1.858252E-01,1.441584E-01,5.451641E+03,2.144171E+03,2.812979E-01,2.101236E-01,3.597892E+03,1.599705E+03,1.856424E-01,1.567671E-01
22:20:00,4.347356E+03,2.046397E+03,2.242910E-01,2.005500E-01,5.720064E+03,1.838217E+03,2.951485E-01,1.801412E-01,3.601460E+03,1.180188E+03,1.858265E-01,1.155414E-01,5.451682E+03,1.712940E+03,2.813000E-01,1.678648E-01,3.597919E+03,1.298118E+03,1.856438E-01,1.267747E-01
22:30:00,4.347407E+03,1.568153E+03,2.242936E-01,1.530150E-01,5.720102E+03,1.433411E+03,2.951504E-01,1.392778E-01,3.601485E+03,9.238928E+02,1.858278E-01,8.961156E-02,5.451719E+03,1.314676E+03,2.813019E-01,1.282040E-01,3.597943E+03,1.031348E+03,1.856451E-01,9.949634E-02
22:40:00,4.347455E+03,1.121531E+03,2.242960E-01,1.078900E-01,5.720137E+03,1.042992E+03,2.951522E-01,9.956137E-02,3.601508E+03,6.769586E+02,1.858290E-01,6.442884E-02,5.451754E+03,9.378165E+02,2.813037E-01,9.019283E-02,3.597966E+03,7.739133E+02,1.856463E-01,7.296941E-02
22:50:00,4.347499E+03,6.861348E+02,2.242983E-01,6.363569E-02,5.720170E+03,6.634575E+02,2.951539E-01,6.071724E-02,3.601529E+03,4.371555E+02,1.858301E-01,3.981866E-02,5.451787E+03,5.706816E+02,2.813054E-01,5.295217E-02,3.597988E+03,5.234286E+02,1.856474E-01,4.700512E-02
23:00:00,4.347541E+03,2.602554E+02,2.243005E-01,2.012277E-02,5.720200E+03,2.924910E+02,2.951555E-01,2.256728E-02,3.601549E+03,2.028562E+02,1.858311E-01,1.565573E-02,5.451818E+03,2.121384E+02,2.813070E-01,1.639540E-02,3.598008E+03,2.788972E+02,1.856484E-01,2.152523E-02
23:10:00,4.347580E+03,3.517570E+02,2.243025E-01,2.718321E-02,5.720229E+03,3.837685E+02,2.951570E-01,2.961041E-02,3.601568E+03,2.633944E+02,1.858321E-01,2.032712E-02,5.451847E+03,2.858406E+02,2.813085E-01,2.208219E-02,3.598026E+03,3.563708E+02,1.856494E-01,2.750364E-02
23:20:00,4.347617E+03,4.484375E+02,2.243044E-01,3.464351E-02,5.720257E+03,4.794280E+02,2.951584E-01,3.699186E-02,3.601585E+03,3.209772E+02,1.858330E-01,2.476663E-02,5.451874E+03,3.642168E+02,2.813099E-01,2.812981E-02,3.598044E+03,4.165965E+02,1.856503E-01,3.214559E-02
23:30:00,4.347653E+03,5.160385E+02,2.243062E-01,3.981849E-02,5.720283E+03,5.214486E+02,2.951598E-01,4.023525E-02,3.601602E+03,3.480394E+02,1.858339E-01,2.685570E-02,5.451900E+03,4.150996E+02,2.813113E-01,3.202879E-02,3.598061E+03,4.470807E+02,1.856512E-01,3.449916E-02
23:40:00,4.347687E+03,5.569565E+02,2.243080E-01,4.297660E-02,5.720307E+03,5.535915E+02,2.951610E-01,4.271664E-02,3.601618E+03,3.693356E+02,1.858347E-01,2.849987E-02,5.451924E+03,4.494021E+02,2.813125E-01,3.467603E-02,3.598077E+03,4.725743E+02,1.856520E-01,3.646752E-02
23:50:00,4.347719E+03,5.906125E+02,2.243096E-01,4.557495E-02,5.720331E+03,5.792264E+02,2.951622E-01,4.469587E-02,3.601634E+03,3.866178E+02,1.858355E-01,2.983427E-02,5.451948E+03,4.779582E+02,2.813137E-01,3.688032E-02,3.598092E+03,4.947598E+02,1.856528E-01,3.818050E-02
24:00:00,4.347750E+03,6.184546E+02,2.243112E-01,4.772466E-02,5.720353E+03,6.004549E+02,2.951634E-01,4.633497E-02,3.601648E+03,4.013145E+02,1.858363E-01,3.096907E-02,5.451970E+03,5.015383E+02,2.813149E-01,3.870066E-02,3.598107E+03,5.142667E+02,1.856535E-01,3.968666E-02
Peak,4.348412E+03,4.591950E+03,2.243454E-01,4.392277E-01,5.720830E+03,3.863396E+03,2.951880E-01,3.786041E-01,3.601955E+03,3.550747E+03,1.858521E-01,3.420809E-01,5.452444E+03,3.769816E+03,2.813393E-01,3.611044E-01,3.598414E+03,3.449527E+03,1.856694E-01,3.380229E-01

Peak Vol Flow (m3/s),,,1.863298E-01,3.648000E-01,,,2.451681E-01,3.144492E-01,,,1.543592E-01,2.841149E-01,,,2.336661E-01,2.999149E-01,,,1.542075E-01,2.807445E-01
