Time,VAV_1:DesPer 1:Des Heat Mass Flow [kg/s],VAV_1:DesPer 1:Des Heat Cap [W],VAV_1:DesPer 1:Des Cool Mass Flow [kg/s],VAV_1:DesPer 1:Des Sens Cool Cap [W],VAV_1:DesPer 1:Des Tot Cool Cap [W],VAV_1:DesPer 2:Des Heat Mass Flow [kg/s],VAV_1:DesPer 2:Des Heat Cap [W],VAV_1:DesPer 2:Des Cool Mass Flow [kg/s],VAV_1:DesPer 2:Des Sens Cool Cap [W],VAV_1:DesPer 2:Des Tot Cool Cap [W],VAV_2:DesPer 1:Des Heat Mass Flow [kg/s],VAV_2:DesPer 1:Des Heat Cap [W],VAV_2:DesPer 1:Des Cool Mass Flow [kg/s],VAV_2:DesPer 1:Des Sens Cool Cap [W],VAV_2:DesPer 1:Des Tot Cool Cap [W],VAV_2:DesPer 2:Des Heat Mass Flow [kg/s],VAV_2:DesPer 2:Des Heat Cap [W],VAV_2:DesPer 2:Des Cool Mass Flow [kg/s],VAV_2:DesPer 2:Des Sens Cool Cap [W],VAV_2:DesPer 2:Des Tot Cool Cap [W],VAV_3:DesPer 1:Des Heat Mass Flow [kg/s],VAV_3:DesPer 1:Des Heat Cap [W],VAV_3:DesPer 1:Des Cool Mass Flow [kg/s],VAV_3:DesPer 1:Des Sens Cool Cap [W],VAV_3:DesPer 1:Des Tot Cool Cap [W],VAV_3:DesPer 2:Des Heat Mass Flow [kg/s],VAV_3:DesPer 2:Des Heat Cap [W],VAV_3:DesPer 2:Des Cool Mass Flow [kg/s],VAV_3:DesPer 2:Des Sens Cool Cap [W],VAV_3:DesPer 2:Des Tot Cool Cap [W],VAV_5:DesPer 1:Des Heat Mass Flow [kg/s],VAV_5:DesPer 1:Des Heat Cap [W],VAV_5:DesPer 1:Des Cool Mass Flow [kg/s],VAV_5:DesPer 1:Des Sens Cool Cap [W],VAV_5:DesPer 1:Des Tot Cool Cap [W],VAV_5:DesPer 2:Des Heat Mass Flow [kg/s],VAV_5:DesPer 2:Des Heat Cap [W],VAV_5:DesPer 2:Des Cool Mass Flow [kg/s],VAV_5:DesPer 2:Des Sens Cool Cap [W],VAV_5:DesPer 2:Des Tot Cool Cap [W]
00:10:00,4.443689E+00,1.014556E+05,2.886210E+00,0.000000E+00,0.000000E+00,2.886210E+00,0.000000E+00,3.538663E+00,3.671946E+04,1.038972E+05,4.740841E+01,1.001732E+06,2.886210E+01,0.000000E+00,0.000000E+00,2.886210E+01,0.000000E+00,3.768770E+01,3.993315E+05,1.075047E+06,6.542595E+00,9.239520E+04,2.886210E+00,0.000000E+00,0.000000E+00,2.886210E+00,0.000000E+00,4.075524E+00,4.421732E+04,1.122466E+05,1.443105E+00,5.408934E+04,1.443105E+00,0.000000E+00,0.000000E+00,1.443105E+00,0.000000E+00,1.443105E+00,1.380366E+04,4.669319E+04
00:20:00,4.443429E+00,1.014567E+05,2.886210E+00,0.000000E+00,0.000000E+00,2.886210E+00,0.000000E+00,3.574250E+00,3.690616E+04,1.032544E+05,4.740550E+01,1.001745E+06,2.886210E+01,0.000000E+00,0.000000E+00,2.886210E+01,0.000000E+00,3.824786E+01,4.040515E+05,1.071657E+06,6.549013E+00,9.236749E+04,2.886210E+00,0.000000E+00,0.000000E+00,2.886210E+00,0.000000E+00,4.116093E+00,4.447361E+04,1.116451E+05,1.443105E+00,5.408934E+04,1.443105E+00,0.000000E+00,0.000000E+00,1.443105E+00,0.000000E+00,1.443105E+00,1.364850E+04,4.610696E+04
00:30:00,4.443171E+00,1.014579E+05,2.886210E+00,0.000000E+00,0.000000E+00,2.886210E+00,0.000000E+00,3.604819E+00,3.702278E+04,1.025347E+05,4.740260E+01,1.001758E+06,2.886210E+01,0.000000E+00,0.000000E+00,2.886210E+01,0.000000E+00,3.875654E+01,4.080527E+05,1.067473E+06,6.555207E+00,9.234074E+04,2.886210E+00,0.000000E+00,0.000000E+00,2.886210E+00,0.000000E+00,4.150177E+00,4.463935E+04,1.109476E+05,1.443105E+00,5.408934E+04,1.443105E+00,0.000000E+00,0.000000E+00,1.443105E+00,0.000000E+00,1.443105E+00,1.349333E+04,4.552336E+04
00:40:00,4.442913E+00,1.014590E+05,2.886210E+00,0.000000E+00,0.000000E+00,2.886210E+00,0.000000E+00,3.631430E+00,3.708413E+04,1.017563E+05,4.739971E+01,1.001770E+06,2.886210E+01,0.000000E+00,0.000000E+00,2.886210E+01,0.000000E+00,3.921613E+01,4.113685E+05,1.062542E+06,6.561188E+00,9.231491E+04,2.886210E+00,0.000000E+00,0.000000E+00,2.886210E+00,0.000000E+00,4.178898E+00,4.473019E+04,1.101730E+05,1.443105E+00,5.408934E+04,1.443105E+00,0.000000E+00,0.000000E+00,1.443105E+00,0.000000E+00,1.443105E+00,1.333817E+04,4.494238E+04
00:50:00,4.442657E+00,1.014601E+05,2.886210E+00,0.000000E+00,0.000000E+00,2.886210E+00,0.000000E+00,3.654898E+00,3.710158E+04,1.009330E+05,4.739683E+01,1.001782E+06,2.886210E+01,0.000000E+00,0.000000E+00,2.886210E+01,0.000000E+00,3.963481E+01,4.141131E+05,1.057005E+06,6.566967E+00,9.228996E+04,2.886210E+00,0.000000E+00,0.000000E+00,2.886210E+00,0.000000E+00,4.203140E+00,4.475849E+04,1.093358E+05,1.443105E+00,5.408934E+04,1.443105E+00,0.000000E+00,0.000000E+00,1.443105E+00,0.000000E+00,1.443105E+00,1.318301E+04,4.436402E+04
01:00:00,4.442401E+00,1.014612E+05,2.886210E+00,0.000000E+00,0.000000E+00,2.886210E+00,0.000000E+00,3.675851E+00,3.708394E+04,1.000753E+05,4.739396E+01,1.001795E+06,2.886210E+01,0.000000E+00,0.000000E+00,2.886210E+01,0.000000E+00,4.001903E+01,4.163765E+05,1.050973E+06,6.572553E+00,9.226584E+04,2.886210E+00,0.000000E+00,0.000000E+00,2.886210E+00,0.000000E+00,4.223606E+00,4.473407E+04,1.084477E+05,1.443105E+00,5.408934E+04,1.443105E+00,0.000000E+00,0.000000E+00,1.443105E+00,0.000000E+00,1.443105E+00,1.302785E+04,4.378825E+04
01:10:00,4.442522E+00,1.014607E+05,2.886210E+00,0.000000E+00,0.000000E+00,2.886210E+00,0.000000E+00,3.702653E+00,3.725141E+04,9.969662E+04,4.739534E+01,1.001789E+06,2.886210E+01,0.000000E+00,0.000000E+00,2.886210E+01,0.000000E+00,4.046260E+01,4.205031E+05,1.049742E+06,6.577956E+00,9.224251E+04,2.886210E+00,0.000000E+00,0.000000E+00,2.886210E+00,0.000000E+00,4.247346E+00,4.485882E+04,1.080004E+05,1.443105E+00,5.408934E+04,1.443105E+00,0.000000E+00,0.000000E+00,1.443105E+00,0.000000E+00,1.443105E+00,1.292440E+04,4.340584E+04
01:20:00,4.442641E+00,1.014601E+05,2.886210E+00,0.000000E+00,0.000000E+00,2.886210E+00,0.000000E+00,3.728143E+00,3.740057E+04,9.930029E+04,4.739671E+01,1.001783E+06,2.886210E+01,0.000000E+00,0.000000E+00,2.886210E+01,0.000000E+00,4.088522E+01,4.243374E+05,1.048214E+06,6.583184E+00,9.221993E+04,2.886210E+00,0.000000E+00,0.000000E+00,2.886210E+00,0.000000E+00,4.268765E+00,4.495115E+04,1.075227E+05,1.443105E+00,5.408934E+04,1.443105E+00,0.000000E+00,0.000000E+00,1.443105E+00,0.000000E+00,1.443105E+00,1.282096E+04,4.302457E+04
01:30:00,4.442760E+00,1.014596E+05,2.886210E+00,0.000000E+00,0.000000E+00,2.886210E+00,0.000000E+00,3.752511E+00,3.753405E+04,9.888940E+04,4.739807E+01,1.001777E+06,2.886210E+01,0.000000E+00,0.000000E+00,2.886210E+01,0.000000E+00,4.128894E+01,4.279076E+05,1.046423E+06,6.588244E+00,9.219808E+04,2.886210E+00,0.000000E+00,0.000000E+00,2.886210E+00,0.000000E+00,4.288120E+00,4.501465E+04,1.070186E+05,1.443105E+00,5.408934E+04,1.443105E+00,0.000000E+00,0.000000E+00,1.443105E+00,0.000000E+00,1.443105E+00,1.271752E+04,4.264445E+04
01:40:00,4.442878E+00,1.014591E+05,2.886210E+00,0.000000E+00,0.000000E+00,2.886210E+00,0.000000E+00,3.775974E+00,3.765490E+04,9.846744E+04,4.739942E+01,1.001771E+06,2.886210E+01,0.000000E+00,0.000000E+00,2.886210E+01,0.000000E+00,4.167625E+01,4.312486E+05,1.044411E+06,6.593143E+00,9.217693E+04,2.886210E+00,0.000000E+00,0.000000E+00,2.886210E+00,0.000000E+00,4.305713E+00,4.505354E+04,1.064924E+05,1.443105E+00,5.408934E+04,1.443105E+00,0.000000E+00,0.000000E+00,1.443105E+00,0.000000E+00,1.443105E+00,1.261408E+04,4.226545E+04
01:50:00,4.442995E+00,1.014586E+05,2.886210E+00,0.000000E+00,0.000000E+00,2.886210E+00,0.000000E+00,3.798709E+00,3.776557E+04,9.803721E+04,4.740075E+01,1.001766E+06,2.886210E+01,0.000000E+00,0.000000E+00,2.886210E+01,0.000000E+00,4.204923E+01,4.343895E+05,1.042210E+06,6.597889E+00,9.215643E+04,2.886210E+00,0.000000E+00,0.000000E+00,2.886210E+00,0.000000E+00,4.321797E+00,4.507135E+04,1.059480E+05,1.443105E+00,5.408934E+04,1.443105E+00,0.000000E+00,0.000000E+00,1.443105E+00,0.000000E+00,1.443105E+00,1.251064E+04,4.188758E+04
02:00:00,4.443111E+00,1.014581E+05,2.886210E+00,0.000000E+00,0.000000E+00,2.886210E+00,0.000000E+00,3.820856E+00,3.786804E+04,9.760089E+04,4.740208E+01,1.001760E+06,2.886210E+01,0.000000E+00,0.000000E+00,2.886210E+01,0.000000E+00,4.240960E+01,4.373543E+05,1.039848E+06,6.602487E+00,9.213658E+04,2.886210E+00,0.000000E+00,0.000000E+00,2.886210E+00,0.000000E+00,4.336588E+00,4.507109E+04,1.053884E+05,1.443105E+00,5.408934E+04,1.443105E+00,0.000000E+00,0.000000E+00,1.443105E+00,0.000000E+00,1.443105E+00,1.240720E+04,4.151084E+04
02:10:00,4.443226E+00,1.014576E+05,2.886210E+00,0.000000E+00,0.000000E+00,2.886210E+00,0.000000E+00,3.842401E+00,3.801382E+04,9.734569E+04,4.740340E+01,1.001754E+06,2.886210E+01,0.000000E+00,0.000000E+00,2.886210E+01,0.000000E+00,4.275696E+01,4.406544E+05,1.039193E+06,6.606944E+00,9.211733E+04,2.886210E+00,0.000000E+00,0.000000E+00,2.886210E+00,0.000000E+00,4.350080E+00,4.510442E+04,1.050007E+05,1.443105E+00,5.408934E+04,1.443105E+00,0.000000E+00,0.000000E+00,1.443105E+00,0.000000E+00,1.443105E+00,1.232961E+04,4.122902E+04
02:20:00,4.443341E+00,1.014571E+05,2.886210E+00,0.000000E+00,0.000000E+00,2.886210E+00,0.000000E+00,3.863426E+00,3.815233E+04,9.708456E+04,4.740470E+01,1.001748E+06,2.886210E+01,0.000000E+00,0.000000E+00,2.886210E+01,0.000000E+00,4.309233E+01,4.437872E+05,1.038378E+06,6.611264E+00,9.209868E+04,2.886210E+00,0.000000E+00,0.000000E+00,2.886210E+00,0.000000E+00,4.362406E+00,4.512145E+04,1.045986E+05,1.443105E+00,5.408934E+04,1.443105E+00,0.000000E+00,0.000000E+00,1.443105E+00,0.000000E+00,1.443105E+00,1.225203E+04,4.094783E+04
02:30:00,4.443452E+00,1.014566E+05,2.886210E+00,0.000000E+00,0.000000E+00,2.886210E+00,0.000000E+00,3.883997E+00,3.828450E+04,9.681844E+04,4.740597E+01,1.001743E+06,2.886210E+01,0.000000E+00,0.000000E+00,2.886210E+01,0.000000E+00,4.341666E+01,4.467658E+05,1.037418E+06,6.615380E+00,9.208090E+04,2.886210E+00,0.000000E+00,0.000000E+00,2.886210E+00,0.000000E+00,4.373680E+00,4.512379E+04,1.041836E+05,1.443105E+00,5.408934E+04,1.443105E+00,0.000000E+00,0.000000E+00,1.443105E+00,0.000000E+00,1.443105E+00,1.217445E+04,4.066727E+04
02:40:00,4.443561E+00,1.014562E+05,2.886210E+00,0.000000E+00,0.000000E+00,2.886210E+00,0.000000E+00,3.904166E+00,3.841105E+04,9.654809E+04,4.740720E+01,1.001738E+06,2.886210E+01,0.000000E+00,0.000000E+00,2.886210E+01,0.000000E+00,4.373078E+01,4.496016E+05,1.036324E+06,6.619316E+00,9.206391E+04,2.886210E+00,0.000000E+00,0.000000E+00,2.886210E+00,0.000000E+00,4.384005E+00,4.511286E+04,1.037571E+05,1.443105E+00,5.408934E+04,1.443105E+00,0.000000E+00,0.000000E+00,1.443105E+00,0.000000E+00,1.443105E+00,1.209687E+04,4.038733E+04
02:50:00,4.443667E+00,1.014557E+05,2.886210E+00,0.000000E+00,0.000000E+00,2.886210E+00,0.000000E+00,3.923977E+00,3.853260E+04,9.627408E+04,4.740841E+01,1.001732E+06,2.886210E+01,0.000000E+00,0.000000E+00,2.886210E+01,0.000000E+00,4.403538E+01,4.523046E+05,1.035106E+06,6.623102E+00,9.204756E+04,2.886210E+00,0.000000E+00,0.000000E+00,2.886210E+00,0.000000E+00,4.393468E+00,4.508991E+04,1.033202E+05,1.443105E+00,5.408934E+04,1.443105E+00,0.000000E+00,0.000000E+00,1.443105E+00,0.000000E+00,1.443105E+00,1.201929E+04,4.010801E+04
03:00:00,4.443771E+00,1.014553E+05,2.886210E+00,0.000000E+00,0.000000E+00,2.886210E+00,0.000000E+00,3.943417E+00,3.864898E+04,9.599620E+04,4.740960E+01,1.001727E+06,2.886210E+01,0.000000E+00,0.000000E+00,2.886210E+01,0.000000E+00,4.433045E+01,4.548744E+05,1.033764E+06,6.626751E+00,9.203180E+04,2.886210E+00,0.000000E+00,0.000000E+00,2.886210E+00,0.000000E+00,4.402203E+00,4.505677E+04,1.028748E+05,1.443105E+00,5.408934E+04,1.443105E+00,0.000000E+00,0.000000E+00,1.443105E+00,0.000000E+00,1.443105E+00,1.194171E+04,3.982932E+04
03:10:00,4.443875E+00,1.014548E+05,2.886210E+00,0.000000E+00,0.000000E+00,2.886210E+00,0.000000E+00,3.962410E+00,3.875910E+04,9.571303E+04,4.741078E+01,1.001722E+06,2.886210E+01,0.000000E+00,0.000000E+00,2.886210E+01,0.000000E+00,4.461493E+01,4.572964E+05,1.032279E+06,6.630272E+00,9.201659E+04,2.886210E+00,0.000000E+00,0.000000E+00,2.886210E+00,0.000000E+00,4.410081E+00,4.501166E+04,1.024185E+05,1.443105E+00,5.408934E+04,1.443105E+00,0.000000E+00,0.000000E+00,1.443105E+00,0.000000E+00,1.443563E+00,1.187053E+04,3.955791E+04
03:20:00,4.443977E+00,1.014544E+05,2.886210E+00,0.000000E+00,0.000000E+00,2.886210E+00,0.000000E+00,3.980985E+00,3.886339E+04,9.542502E+04,4.741194E+01,1.001717E+06,2.886210E+01,0.000000E+00,0.000000E+00,2.886210E+01,0.000000E+00,4.488939E+01,4.595782E+05,1.030657E+06,6.633674E+00,9.200190E+04,2.886210E+00,0.000000E+00,0.000000E+00,2.886210E+00,0.000000E+00,4.417126E+00,4.495493E+04,1.019517E+05,1.443105E+00,5.408934E+04,1.443105E+00,0.000000E+00,0.000000E+00,1.443105E+00,0.000000E+00,1.456292E+00,1.197073E+04,3.946514E+04
03:30:00,4.444081E+00,1.014539E+05,2.886210E+00,0.000000E+00,0.000000E+00,2.886210E+00,0.000000E+00,3.999162E+00,3.896213E+04,9.513239E+04,4.741312E+01,1.001712E+06,2.886210E+01,0.000000E+00,0.000000E+00,2.886210E+01,0.000000E+00,4.515423E+01,4.617258E+05,1.028906E+06,6.637036E+00,9.198739E+04,2.886210E+00,0.000000E+00,0.000000E+00,2.886210E+00,0.000000E+00,4.423377E+00,4.488710E+04,1.014747E+05,1.443105E+00,5.408934E+04,1.443105E+00,0.000000E+00,0.000000E+00,1.443105E+00,0.000000E+00,1.468709E+00,1.206659E+04,3.936807E+04
03:40:00,4.444186E+00,1.014535E+05,2.886210E+00,0.000000E+00,0.000000E+00,2.886210E+00,0.000000E+00,4.017098E+00,3.905748E+04,9.483766E+04,4.741431E+01,1.001707E+06,2.886210E+01,0.000000E+00,0.000000E+00,2.886210E+01,0.000000E+00,4.540983E+01,4.637443E+05,1.027030E+06,6.640344E+00,9.197310E+04,2.886210E+00,0.000000E+00,0.000000E+00,2.886210E+00,0.000000E+00,4.428868E+00,4.480865E+04,1.009880E+05,1.443105E+00,5.408934E+04,1.443105E+00,0.000000E+00,0.000000E+00,1.443105E+00,0.000000E+00,1.481089E+00,1.216193E+04,3.927069E+04
03:50:00,4.444291E+00,1.014530E+05,2.886210E+00,0.000000E+00,0.000000E+00,2.886210E+00,0.000000E+00,4.034824E+00,3.914991E+04,9.454133E+04,4.741550E+01,1.001702E+06,2.886210E+01,0.000000E+00,0.000000E+00,2.886210E+01,0.000000E+00,4.565652E+01,4.656386E+05,1.025034E+06,6.643579E+00,9.195913E+04,2.886210E+00,0.000000E+00,0.000000E+00,2.886210E+00,0.000000E+00,4.433633E+00,4.472007E+04,1.004922E+05,1.443105E+00,5.408934E+04,1.443105E+00,0.000000E+00,0.000000E+00,1.443105E+00,0.000000E+00,1.493331E+00,1.225533E+04,3.917157E+04
04:00:00,4.444397E+00,1.014526E+05,2.886210E+00,0.000000E+00,0.000000E+00,2.886210E+00,0.000000E+00,4.052202E+00,3.923747E+04,9.424097E+04,4.741669E+01,1.001697E+06,2.886210E+01,0.000000E+00,0.000000E+00,2.886210E+01,0.000000E+00,4.589528E+01,4.674219E+05,1.022931E+06,6.646734E+00,9.194551E+04,2.886210E+00,0.000000E+00,0.000000E+00,2.886210E+00,0.000000E+00,4.437655E+00,4.462109E+04,9.998669E+04,1.443105E+00,5.408934E+04,1.443105E+00,0.000000E+00,0.000000E+00,1.443105E+00,0.000000E+00,1.505449E+00,1.234700E+04,3.907098E+04
04:10:00,4.444502E+00,1.014521E+05,2.886210E+00,0.000000E+00,0.000000E+00,2.886210E+00,0.000000E+00,4.069411E+00,3.937440E+04,9.412227E+04,4.741788E+01,1.001692E+06,2.886210E+01,0.000000E+00,0.000000E+00,2.886210E+01,0.000000E+00,4.612831E+01,4.696423E+05,1.022587E+06,6.649811E+00,9.193222E+04,2.886210E+00,0.000000E+00,0.000000E+00,2.886210E+00,0.000000E+00,4.441202E+00,4.456722E+04,9.965876E+04,1.443105E+00,5.408934E+04,1.443105E+00,0.000000E+00,0.000000E+00,1.443105E+00,0.000000E+00,1.517410E+00,1.246235E+04,3.905985E+04
04:20:00,4.444607E+00,1.014517E+05,2.886210E+00,0.000000E+00,0.000000E+00,2.886210E+00,0.000000E+00,4.086429E+00,3.950867E+04,9.400172E+04,4.741906E+01,1.001687E+06,2.886210E+01,0.000000E+00,0.000000E+00,2.886210E+01,0.000000E+00,4.635538E+01,4.717796E+05,1.022166E+06,6.652808E+00,9.191928E+04,2.886210E+00,0.000000E+00,0.000000E+00,2.886210E+00,0.000000E+00,4.444272E+00,4.450667E+04,9.932503E+04,1.443105E+00,5.408934E+04,1.443105E+00,0.000000E+00,0.000000E+00,1.443105E+00,0.000000E+00,1.529200E+00,1.257531E+04,3.904627E+04
04:30:00,4.444711E+00,1.014512E+05,2.886210E+00,0.000000E+00,0.000000E+00,2.886210E+00,0.000000E+00,4.103279E+00,3.964057E+04,9.387962E+04,4.742023E+01,1.001681E+06,2.886210E+01,0.000000E+00,0.000000E+00,2.886210E+01,0.000000E+00,4.657692E+01,4.738395E+05,1.021674E+06,6.655728E+00,9.190667E+04,2.886210E+00,0.000000E+00,0.000000E+00,2.886210E+00,0.000000E+00,4.446995E+00,4.444128E+04,9.898761E+04,1.443105E+00,5.408934E+04,1.443105E+00,0.000000E+00,0.000000E+00,1.443105E+00,0.000000E+00,1.540811E+00,1.268575E+04,3.903016E+04
04:40:00,4.444815E+00,1.014508E+05,2.886210E+00,0.000000E+00,0.000000E+00,2.886210E+00,0.000000E+00,4.119974E+00,3.977033E+04,9.375614E+04,4.742140E+01,1.001676E+06,2.886210E+01,0.000000E+00,0.000000E+00,2.886210E+01,0.000000E+00,4.679329E+01,4.758273E+05,1.021116E+06,6.658571E+00,9.189439E+04,2.886210E+00,0.000000E+00,0.000000E+00,2.886210E+00,0.000000E+00,4.449341E+00,4.437063E+04,9.864575E+04,1.443105E+00,5.408934E+04,1.443105E+00,0.000000E+00,0.000000E+00,1.443105E+00,0.000000E+00,1.552234E+00,1.279359E+04,3.901142E+04
04:50:00,4.444918E+00,1.014503E+05,2.886210E+00,0.000000E+00,0.000000E+00,2.886210E+00,0.000000E+00,4.137084E+00,3.990587E+04,9.364051E+04,4.742256E+01,1.001671E+06,2.886210E+01,0.000000E+00,0.000000E+00,2.886210E+01,0.000000E+00,4.700987E+01,4.778180E+05,1.020580E+06,6.661340E+00,9.188244E+04,2.886210E+00,0.000000E+00,0.000000E+00,2.886210E+00,0.000000E+00,4.451931E+00,4.430337E+04,9.830959E+04,1.443105E+00,5.408934E+04,1.443105E+00,0.000000E+00,0.000000E+00,1.443105E+00,0.000000E+00,1.563464E+00,1.289872E+04,3.899001E+04
05:00:00,4.445020E+00,1.014499E+05,2.886210E+00,0.000000E+00,0.000000E+00,2.886210E+00,0.000000E+00,4.160351E+00,4.012740E+04,9.362585E+04,4.742372E+01,1.001666E+06,2.886210E+01,0.000000E+00,0.000000E+00,2.886210E+01,0.000000E+00,4.728406E+01,4.806133E+05,1.021000E+06,6.664035E+00,9.187080E+04,2.886210E+00,0.000000E+00,0.000000E+00,2.886210E+00,0.000000E+00,4.460153E+00,4.431478E+04,9.806687E+04,1.443105E+00,5.408934E+04,1.443105E+00,0.000000E+00,0.000000E+00,1.443105E+00,0.000000E+00,1.574509E+00,1.300128E+04,3.896607E+04
05:10:00,4.445123E+00,1.014494E+05,2.886210E+00,0.000000E+00,0.000000E+00,2.886210E+00,0.000000E+00,4.198317E+00,4.076108E+04,9.457121E+04,4.742487E+01,1.001661E+06,2.886210E+01,0.000000E+00,0.000000E+00,2.886210E+01,0.000000E+00,4.770171E+01,4.874808E+05,1.030962E+06,6.666659E+00,9.185947E+04,2.886210E+00,0.000000E+00,0.000000E+00,2.886210E+00,0.000000E+00,4.482457E+00,4.472973E+04,9.877521E+04,1.443105E+00,5.408934E+04,1.443105E+00,0.000000E+00,0.000000E+00,1.443105E+00,0.000000E+00,1.585358E+00,1.320453E+04,3.930245E+04
05:20:00,4.445224E+00,1.014490E+05,2.886210E+00,0.000000E+00,0.000000E+00,2.886210E+00,0.000000E+00,4.255388E+00,4.166157E+04,9.581400E+04,4.742601E+01,1.001657E+06,2.886210E+01,0.000000E+00,0.000000E+00,2.886210E+01,0.000000E+00,4.830727E+01,4.969723E+05,1.043831E+06,6.669213E+00,9.184844E+04,2.886210E+00,0.000000E+00,0.000000E+00,2.886210E+00,0.000000E+00,4.523305E+00,4.540364E+04,9.977251E+04,1.443105E+00,5.408934E+04,1.443105E+00,0.000000E+00,0.000000E+00,1.443105E+00,0.000000E+00,1.596004E+00,1.340495E+04,3.963608E+04
05:30:00,4.445325E+00,1.014486E+05,2.886210E+00,0.000000E+00,0.000000E+00,2.886210E+00,0.000000E+00,4.336824E+00,4.290233E+04,9.743276E+04,4.742714E+01,1.001652E+06,2.886210E+01,0.000000E+00,0.000000E+00,2.886210E+01,0.000000E+00,4.915256E+01,5.098117E+05,1.060370E+06,6.671700E+00,9.183770E+04,2.886210E+00,0.000000E+00,0.000000E+00,2.886210E+00,0.000000E+00,4.587715E+00,4.640660E+04,1.011334E+05,1.443105E+00,5.408934E+04,1.443105E+00,0.000000E+00,0.000000E+00,1.443105E+00,0.000000E+00,1.606447E+00,1.360253E+04,3.996696E+04
05:40:00,4.445425E+00,1.014481E+05,2.886210E+00,0.000000E+00,0.000000E+00,2.886210E+00,0.000000E+00,4.442732E+00,4.448481E+04,9.941804E+04,4.742827E+01,1.001647E+06,2.886210E+01,0.000000E+00,0.000000E+00,2.886210E+01,0.000000E+00,5.023989E+01,5.260310E+05,1.080498E+06,6.674120E+00,9.182725E+04,2.886210E+00,0.000000E+00,0.000000E+00,2.886210E+00,0.000000E+00,4.676220E+00,4.774602E+04,1.028557E+05,1.443105E+00,5.408934E+04,1.443105E+00,0.000000E+00,0.000000E+00,1.443105E+00,0.000000E+00,1.616689E+00,1.379731E+04,4.029515E+04
05:50:00,4.445525E+00,1.014477E+05,2.886210E+00,0.000000E+00,0.000000E+00,2.886210E+00,0.000000E+00,4.571757E+00,4.639009E+04,1.017434E+05,4.742938E+01,1.001642E+06,2.886210E+01,0.000000E+00,0.000000E+00,2.886210E+01,0.000000E+00,5.155713E+01,5.454605E+05,1.103979E+06,6.676476E+00,9.181707E+04,2.886210E+00,0.000000E+00,0.000000E+00,2.886210E+00,0.000000E+00,4.787761E+00,4.940713E+04,1.049175E+05,1.443105E+00,5.408934E+04,1.443105E+00,0.000000E+00,0.000000E+00,1.443105E+00,0.000000E+00,1.626738E+00,1.398940E+04,4.062078E+04
06:00:00,4.445624E+00,1.014473E+05,2.886210E+00,0.000000E+00,0.000000E+00,2.886210E+00,0.000000E+00,4.717424E+00,4.852774E+04,1.043042E+05,4.743050E+01,1.001637E+06,2.886210E+01,0.000000E+00,0.000000E+00,2.886210E+01,0.000000E+00,5.304066E+01,5.672119E+05,1.129800E+06,6.678770E+00,9.180717E+04,2.886210E+00,0.000000E+00,0.000000E+00,2.886210E+00,0.000000E+00,4.916456E+00,5.130773E+04,1.072232E+05,1.443105E+00,5.408934E+04,1.443105E+00,0.000000E+00,0.000000E+00,1.443105E+00,0.000000E+00,1.636589E+00,1.417870E+04,4.094377E+04
06:10:00,4.381402E+00,1.017238E+05,2.886210E+00,0.000000E+00,0.000000E+00,2.886210E+00,0.000000E+00,7.147312E+00,8.133378E+04,1.407895E+05,4.678617E+01,1.004410E+06,2.886210E+01,0.000000E+00,0.000000E+00,2.886210E+01,0.000000E+00,7.809678E+01,9.035415E+05,1.502036E+06,6.616200E+00,9.207578E+04,2.886210E+00,0.000000E+00,0.000000E+00,2.886210E+00,0.000000E+00,7.354428E+00,8.415448E+04,1.437584E+05,1.443105E+00,5.408934E+04,1.443105E+00,0.000000E+00,0.000000E+00,1.443105E+00,0.000000E+00,2.985515E+00,3.265759E+04,6.048980E+04
06:20:00,4.316591E+00,1.020030E+05,2.886210E+00,0.000000E+00,0.000000E+00,2.886210E+00,0.000000E+00,9.238475E+00,1.072968E+05,1.703363E+05,4.613592E+01,1.007209E+06,2.886210E+01,0.000000E+00,0.000000E+00,2.886210E+01,0.000000E+00,9.961528E+01,1.168172E+06,1.802690E+06,6.542550E+00,9.239221E+04,2.886210E+00,0.000000E+00,0.000000E+00,2.886210E+00,0.000000E+00,9.448511E+00,1.100625E+05,1.732969E+05,1.443105E+00,5.408934E+04,1.443105E+00,0.000000E+00,0.000000E+00,1.443105E+00,0.000000E+00,4.158267E+00,4.757817E+04,7.682200E+04
06:30:00,4.251293E+00,1.022843E+05,2.886210E+00,0.000000E+00,0.000000E+00,2.886210E+00,0.000000E+00,1.113592E+01,1.289047E+05,1.942718E+05,4.548079E+01,1.010031E+06,2.886210E+01,0.000000E+00,0.000000E+00,2.886210E+01,0.000000E+00,1.191368E+02,1.387940E+06,2.045558E+06,6.452786E+00,9.277834E+04,2.886210E+00,0.000000E+00,0.000000E+00,2.886210E+00,0.000000E+00,1.135288E+01,1.316633E+05,1.972248E+05,1.443105E+00,5.408934E+04,1.443105E+00,0.000000E+00,0.000000E+00,1.443105E+00,0.000000E+00,5.269297E+00,6.065331E+04,9.144303E+04
06:40:00,4.185725E+00,1.025670E+05,2.886210E+00,0.000000E+00,0.000000E+00,2.886210E+00,0.000000E+00,1.295967E+01,1.478926E+05,2.160044E+05,4.482295E+01,1.012866E+06,2.886210E+01,0.000000E+00,0.000000E+00,2.886210E+01,0.000000E+00,1.379090E+02,1.580861E+06,2.265861E+06,6.349939E+00,9.322121E+04,2.886210E+00,0.000000E+00,0.000000E+00,2.886210E+00,0.000000E+00,1.318744E+01,1.506856E+05,2.189747E+05,1.443105E+00,5.408934E+04,1.443105E+00,0.000000E+00,0.000000E+00,1.443105E+00,0.000000E+00,6.363177E+00,7.251305E+04,1.049306E+05
06:50:00,4.119975E+00,1.028505E+05,2.886210E+00,0.000000E+00,0.000000E+00,2.886210E+00,0.000000E+00,1.472603E+01,1.645535E+05,2.355044E+05,4.416328E+01,1.015708E+06,2.886210E+01,0.000000E+00,0.000000E+00,2.886210E+01,0.000000E+00,1.560761E+02,1.749659E+06,2.462810E+06,6.237085E+00,9.370723E+04,2.886210E+00,0.000000E+00,0.000000E+00,2.886210E+00,0.000000E+00,1.496448E+01,1.673695E+05,2.384702E+05,1.443105E+00,5.408934E+04,1.443105E+00,0.000000E+00,0.000000E+00,1.443105E+00,0.000000E+00,7.441987E+00,8.320516E+04,1.172633E+05
07:00:00,4.054086E+00,1.031346E+05,2.886210E+00,0.000000E+00,0.000000E+00,2.886210E+00,0.000000E+00,1.644601E+01,1.790900E+05,2.529024E+05,4.350222E+01,1.018557E+06,2.886210E+01,0.000000E+00,0.000000E+00,2.886210E+01,0.000000E+00,1.737318E+02,1.896216E+06,2.637626E+06,6.116111E+00,9.422830E+04,2.886210E+00,0.000000E+00,0.000000E+00,2.886210E+00,0.000000E+00,1.669198E+01,1.818833E+05,2.558189E+05,1.443105E+00,5.408934E+04,1.443105E+00,0.000000E+00,0.000000E+00,1.443105E+00,0.000000E+00,8.508166E+00,9.277777E+04,1.284635E+05
07:10:00,4.052411E+00,1.031418E+05,2.886210E+00,0.000000E+00,0.000000E+00,2.886210E+00,0.000000E+00,1.585003E+01,1.718767E+05,2.474888E+05,4.348550E+01,1.018629E+06,2.886210E+01,0.000000E+00,0.000000E+00,2.886210E+01,0.000000E+00,1.674431E+02,1.819400E+06,2.578799E+06,6.052916E+00,9.450100E+04,2.886210E+00,0.000000E+00,0.000000E+00,2.886210E+00,0.000000E+00,1.607462E+01,1.744038E+05,2.501208E+05,1.443105E+00,5.408934E+04,1.443105E+00,0.000000E+00,0.000000E+00,1.443105E+00,0.000000E+00,8.224076E+00,8.931267E+04,1.261398E+05
07:20:00,4.051237E+00,1.031469E+05,2.886210E+00,0.000000E+00,0.000000E+00,2.886210E+00,0.000000E+00,1.555958E+01,1.694848E+05,2.472903E+05,4.347379E+01,1.018679E+06,2.886210E+01,0.000000E+00,0.000000E+00,2.886210E+01,0.000000E+00,1.643045E+02,1.792845E+06,2.574163E+06,5.994496E+00,9.475310E+04,2.886210E+00,0.000000E+00,0.000000E+00,2.886210E+00,0.000000E+00,1.576378E+01,1.717825E+05,2.496837E+05,1.443105E+00,5.408934E+04,1.443105E+00,0.000000E+00,0.000000E+00,1.443105E+00,0.000000E+00,8.106182E+00,8.842437E+04,1.265046E+05
07:30:00,4.050477E+00,1.031501E+05,2.886210E+00,0.000000E+00,0.000000E+00,2.886210E+00,0.000000E+00,1.542592E+01,1.688604E+05,2.490639E+05,4.346620E+01,1.018710E+06,2.886210E+01,0.000000E+00,0.000000E+00,2.886210E+01,0.000000E+00,1.627436E+02,1.784076E+06,2.589323E+06,5.946519E+00,9.496004E+04,2.886210E+00,0.000000E+00,0.000000E+00,2.886210E+00,0.000000E+00,1.560221E+01,1.708441E+05,2.511323E+05,1.443105E+00,5.408934E+04,1.443105E+00,0.000000E+00,0.000000E+00,1.443105E+00,0.000000E+00,8.040966E+00,8.812936E+04,1.274870E+05
07:40:00,4.049924E+00,1.031523E+05,2.886210E+00,0.000000E+00,0.000000E+00,2.886210E+00,0.000000E+00,1.533163E+01,1.686789E+05,2.513571E+05,4.346066E+01,1.018732E+06,2.886210E+01,0.000000E+00,0.000000E+00,2.886210E+01,0.000000E+00,1.615403E+02,1.779330E+06,2.609229E+06,5.906472E+00,9.513260E+04,2.886210E+00,0.000000E+00,0.000000E+00,2.886210E+00,0.000000E+00,1.547257E+01,1.702648E+05,2.530117E+05,1.443105E+00,5.408934E+04,1.443105E+00,0.000000E+00,0.000000E+00,1.443105E+00,0.000000E+00,7.984596E+00,8.793415E+04,1.285675E+05
07:50:00,4.049499E+00,1.031540E+05,2.886210E+00,0.000000E+00,0.000000E+00,2.886210E+00,0.000000E+00,1.526123E+01,1.687660E+05,2.539779E+05,4.345633E+01,1.018748E+06,2.886210E+01,0.000000E+00,0.000000E+00,2.886210E+01,0.000000E+00,1.605619E+02,1.777113E+06,2.632233E+06,5.871719E+00,9.528242E+04,2.886210E+00,0.000000E+00,0.000000E+00,2.886210E+00,0.000000E+00,1.536366E+01,1.699187E+05,2.551813E+05,1.443105E+00,5.408934E+04,1.443105E+00,0.000000E+00,0.000000E+00,1.443105E+00,0.000000E+00,7.935622E+00,8.782231E+04,1.297380E+05
08:00:00,4.049161E+00,1.031553E+05,2.886210E+00,0.000000E+00,0.000000E+00,2.886210E+00,0.000000E+00,1.520647E+01,1.690289E+05,2.568297E+05,4.345285E+01,1.018762E+06,2.886210E+01,0.000000E+00,0.000000E+00,2.886210E+01,0.000000E+00,1.597449E+02,1.776711E+06,2.657604E+06,5.840749E+00,9.541601E+04,2.886210E+00,0.000000E+00,0.000000E+00,2.886210E+00,0.000000E+00,1.527061E+01,1.697508E+05,2.575845E+05,1.443105E+00,5.408934E+04,1.443105E+00,0.000000E+00,0.000000E+00,1.443105E+00,0.000000E+00,7.892082E+00,8.777172E+04,1.309810E+05
08:10:00,4.048884E+00,1.031564E+05,2.886210E+00,0.000000E+00,0.000000E+00,2.886210E+00,0.000000E+00,1.516154E+01,1.695058E+05,2.595667E+05,4.344995E+01,1.018774E+06,2.886210E+01,0.000000E+00,0.000000E+00,2.886210E+01,0.000000E+00,1.590439E+02,1.778648E+06,2.682033E+06,5.812795E+00,9.553665E+04,2.886210E+00,0.000000E+00,0.000000E+00,2.886210E+00,0.000000E+00,1.518977E+01,1.698237E+05,2.599014E+05,1.443105E+00,5.408934E+04,1.443105E+00,0.000000E+00,0.000000E+00,1.443105E+00,0.000000E+00,7.852757E+00,8.782037E+04,1.321509E+05
08:20:00,4.048651E+00,1.031574E+05,2.886210E+00,0.000000E+00,0.000000E+00,2.886210E+00,0.000000E+00,1.512341E+01,1.700593E+05,2.601713E+05,4.344747E+01,1.018784E+06,2.886210E+01,0.000000E+00,0.000000E+00,2.886210E+01,0.000000E+00,1.584349E+02,1.781620E+06,2.685418E+06,5.787366E+00,9.564643E+04,2.886210E+00,0.000000E+00,0.000000E+00,2.886210E+00,0.000000E+00,1.511934E+01,1.700137E+05,2.601281E+05,1.443105E+00,5.408934E+04,1.443105E+00,0.000000E+00,0.000000E+00,1.443105E+00,0.000000E+00,7.816789E+00,8.790683E+04,1.322507E+05
08:30:00,4.048450E+00,1.031582E+05,2.886210E+00,0.000000E+00,0.000000E+00,2.886210E+00,0.000000E+00,1.509016E+01,1.706676E+05,2.608087E+05,4.344529E+01,1.018792E+06,2.886210E+01,0.000000E+00,0.000000E+00,2.886210E+01,0.000000E+00,1.579005E+02,1.785432E+06,2.689427E+06,5.764085E+00,9.574696E+04,2.886210E+00,0.000000E+00,0.000000E+00,2.886210E+00,0.000000E+00,1.505793E+01,1.703051E+05,2.604362E+05,1.443105E+00,5.408934E+04,1.443105E+00,0.000000E+00,0.000000E+00,1.443105E+00,0.000000E+00,7.783539E+00,8.802393E+04,1.323778E+05
08:40:00,4.048272E+00,1.031589E+05,2.886210E+00,0.000000E+00,0.000000E+00,2.886210E+00,0.000000E+00,1.505907E+01,1.713002E+05,2.614625E+05,4.344333E+01,1.018801E+06,2.886210E+01,0.000000E+00,0.000000E+00,2.886210E+01,0.000000E+00,1.574133E+02,1.789774E+06,2.693894E+06,5.742660E+00,9.583949E+04,2.886210E+00,0.000000E+00,0.000000E+00,2.886210E+00,0.000000E+00,1.500311E+01,1.706708E+05,2.608120E+05,1.443105E+00,5.408934E+04,1.443105E+00,0.000000E+00,0.000000E+00,1.443105E+00,0.000000E+00,7.752521E+00,8.816616E+04,1.325277E+05
08:50:00,4.048113E+00,1.031596E+05,2.886210E+00,0.000000E+00,0.000000E+00,2.886210E+00,0.000000E+00,1.502995E+01,1.719551E+05,2.621352E+05,4.344155E+01,1.018808E+06,2.886210E+01,0.000000E+00,0.000000E+00,2.886210E+01,0.000000E+00,1.569718E+02,1.794632E+06,2.698858E+06,5.722935E+00,9.592469E+04,2.886210E+00,0.000000E+00,0.000000E+00,2.886210E+00,0.000000E+00,1.495492E+01,1.711111E+05,2.612613E+05,1.443105E+00,5.408934E+04,1.443105E+00,0.000000E+00,0.000000E+00,1.443105E+00,0.000000E+00,7.723323E+00,8.832888E+04,1.326964E+05
09:00:00,4.047968E+00,1.031602E+05,2.886210E+00,0.000000E+00,0.000000E+00,2.886210E+00,0.000000E+00,1.500100E+01,1.726120E+05,2.628066E+05,4.343991E+01,1.018815E+06,2.886210E+01,0.000000E+00,0.000000E+00,2.886210E+01,0.000000E+00,1.565549E+02,1.799766E+06,2.704075E+06,5.704681E+00,9.600354E+04,2.886210E+00,0.000000E+00,0.000000E+00,2.886210E+00,0.000000E+00,1.491152E+01,1.716053E+05,2.617629E+05,1.443105E+00,5.408934E+04,1.443105E+00,0.000000E+00,0.000000E+00,1.443105E+00,0.000000E+00,7.695640E+00,8.850867E+04,1.328811E+05
09:10:00,4.047834E+00,1.031607E+05,2.886210E+00,0.000000E+00,0.000000E+00,2.886210E+00,0.000000E+00,1.497101E+01,1.731537E+05,2.633574E+05,4.343838E+01,1.018821E+06,2.886210E+01,0.000000E+00,0.000000E+00,2.886210E+01,0.000000E+00,1.561471E+02,1.803969E+06,2.708323E+06,5.687705E+00,9.607687E+04,2.886210E+00,0.000000E+00,0.000000E+00,2.886210E+00,0.000000E+00,1.487135E+01,1.720324E+05,2.621943E+05,1.443105E+00,5.408934E+04,1.443105E+00,0.000000E+00,0.000000E+00,1.443105E+00,0.000000E+00,7.669251E+00,8.865131E+04,1.330270E+05
09:20:00,4.047708E+00,1.031613E+05,2.886210E+00,0.000000E+00,0.000000E+00,2.886210E+00,0.000000E+00,1.493997E+01,1.736835E+05,2.638949E+05,4.343693E+01,1.018827E+06,2.886210E+01,0.000000E+00,0.000000E+00,2.886210E+01,0.000000E+00,1.557438E+02,1.808222E+06,2.712615E+06,5.671860E+00,9.614532E+04,2.886210E+00,0.000000E+00,0.000000E+00,2.886210E+00,0.000000E+00,1.483404E+01,1.724918E+05,2.626582E+05,1.443105E+00,5.408934E+04,1.443105E+00,0.000000E+00,0.000000E+00,1.443105E+00,0.000000E+00,7.643973E+00,8.880645E+04,1.331849E+05
09:30:00,4.047590E+00,1.031618E+05,2.886210E+00,0.000000E+00,0.000000E+00,2.886210E+00,0.000000E+00,1.490788E+01,1.742017E+05,2.644199E+05,4.343554E+01,1.018833E+06,2.886210E+01,0.000000E+00,0.000000E+00,2.886210E+01,0.000000E+00,1.553411E+02,1.812483E+06,2.716913E+06,5.657021E+00,9.620942E+04,2.886210E+00,0.000000E+00,0.000000E+00,2.886210E+00,0.000000E+00,1.479914E+01,1.729782E+05,2.631499E+05,1.443105E+00,5.408934E+04,1.443105E+00,0.000000E+00,0.000000E+00,1.443105E+00,0.000000E+00,7.619656E+00,8.897241E+04,1.333533E+05
09:40:00,4.047477E+00,1.031623E+05,2.886210E+00,0.000000E+00,0.000000E+00,2.886210E+00,0.000000E+00,1.487412E+01,1.747010E+05,2.649252E+05,4.343422E+01,1.018839E+06,2.886210E+01,0.000000E+00,0.000000E+00,2.886210E+01,0.000000E+00,1.549319E+02,1.816671E+06,2.721135E+06,5.643084E+00,9.626963E+04,2.886210E+00,0.000000E+00,0.000000E+00,2.886210E+00,0.000000E+00,1.476606E+01,1.734851E+05,2.636628E+05,1.443105E+00,5.408934E+04,1.443105E+00,0.000000E+00,0.000000E+00,1.443105E+00,0.000000E+00,7.596176E+00,8.914780E+04,1.335310E+05
09:50:00,4.047368E+00,1.031627E+05,2.886210E+00,0.000000E+00,0.000000E+00,2.886210E+00,0.000000E+00,1.483705E+01,1.751631E+05,2.653922E+05,4.343294E+01,1.018845E+06,2.886210E+01,0.000000E+00,0.000000E+00,2.886210E+01,0.000000E+00,1.544978E+02,1.820578E+06,2.725068E+06,5.629877E+00,9.632668E+04,2.886210E+00,0.000000E+00,0.000000E+00,2.886210E+00,0.000000E+00,1.473293E+01,1.739916E+05,2.641751E+05,1.443105E+00,5.408934E+04,1.443105E+00,0.000000E+00,0.000000E+00,1.443105E+00,0.000000E+00,7.573441E+00,8.933158E+04,1.337169E+05
10:00:00,4.047263E+00,1.031632E+05,2.886210E+00,0.000000E+00,0.000000E+00,2.886210E+00,0.000000E+00,1.479653E+01,1.755864E+05,2.658215E+05,4.343169E+01,1.018850E+06,2.886210E+01,0.000000E+00,0.000000E+00,2.886210E+01,0.000000E+00,1.540374E+02,1.824191E+06,2.728719E+06,5.617352E+00,9.638079E+04,2.886210E+00,0.000000E+00,0.000000E+00,2.886210E+00,0.000000E+00,1.469954E+01,1.744951E+05,2.646866E+05,1.443105E+00,5.408934E+04,1.443105E+00,0.000000E+00,0.000000E+00,1.443105E+00,0.000000E+00,7.551393E+00,8.952309E+04,1.339106E+05
10:10:00,4.047160E+00,1.031636E+05,2.886210E+00,0.000000E+00,0.000000E+00,2.886210E+00,0.000000E+00,1.475246E+01,1.758663E+05,2.661033E+05,4.343048E+01,1.018855E+06,2.886210E+01,0.000000E+00,0.000000E+00,2.886210E+01,0.000000E+00,1.535477E+02,1.826438E+06,2.730966E+06,5.605472E+00,9.643212E+04,2.886210E+00,0.000000E+00,0.000000E+00,2.886210E+00,0.000000E+00,1.466561E+01,1.748891E+05,2.650854E+05,1.443105E+00,5.408934E+04,1.443105E+00,0.000000E+00,0.000000E+00,1.443105E+00,0.000000E+00,7.529957E+00,8.966976E+04,1.340585E+05
10:20:00,4.047060E+00,1.031640E+05,2.886210E+00,0.000000E+00,0.000000E+00,2.886210E+00,0.000000E+00,1.470500E+01,1.761081E+05,2.663455E+05,4.342929E+01,1.018860E+06,2.886210E+01,0.000000E+00,0.000000E+00,2.886210E+01,0.000000E+00,1.530306E+02,1.828378E+06,2.732896E+06,5.594183E+00,9.648088E+04,2.886210E+00,0.000000E+00,0.000000E+00,2.886210E+00,0.000000E+00,1.463127E+01,1.752784E+05,2.654795E+05,1.443105E+00,5.408934E+04,1.443105E+00,0.000000E+00,0.000000E+00,1.443105E+00,0.000000E+00,7.509072E+00,8.982263E+04,1.342125E+05
10:30:00,4.046963E+00,1.031645E+05,2.886210E+00,0.000000E+00,0.000000E+00,2.886210E+00,0.000000E+00,1.465534E+01,1.763251E+05,2.665615E+05,4.342814E+01,1.018865E+06,2.886210E+01,0.000000E+00,0.000000E+00,2.886210E+01,0.000000E+00,1.524950E+02,1.830109E+06,2.734606E+06,5.583527E+00,9.652692E+04,2.886210E+00,0.000000E+00,0.000000E+00,2.886210E+00,0.000000E+00,1.459743E+01,1.756734E+05,2.658790E+05,1.443105E+00,5.408934E+04,1.443105E+00,0.000000E+00,0.000000E+00,1.443105E+00,0.000000E+00,7.488688E+00,8.998115E+04,1.343723E+05
10:40:00,4.046869E+00,1.031649E+05,2.886210E+00,0.000000E+00,0.000000E+00,2.886210E+00,0.000000E+00,1.460563E+01,1.765416E+05,2.667753E+05,4.342701E+01,1.018870E+06,2.886210E+01,0.000000E+00,0.000000E+00,2.886210E+01,0.000000E+00,1.519602E+02,1.831849E+06,2.736314E+06,5.573435E+00,9.657052E+04,2.886210E+00,0.000000E+00,0.000000E+00,2.886210E+00,0.000000E+00,1.456581E+01,1.760934E+05,2.663030E+05,1.443105E+00,5.408934E+04,1.443105E+00,0.000000E+00,0.000000E+00,1.443105E+00,0.000000E+00,7.468769E+00,9.014490E+04,1.345374E+05
10:50:00,4.046776E+00,1.031653E+05,2.886210E+00,0.000000E+00,0.000000E+00,2.886210E+00,0.000000E+00,1.455986E+01,1.768024E+05,2.670328E+05,4.342591E+01,1.018875E+06,2.886210E+01,0.000000E+00,0.000000E+00,2.886210E+01,0.000000E+00,1.514621E+02,1.834002E+06,2.738428E+06,5.563836E+00,9.661199E+04,2.886210E+00,0.000000E+00,0.000000E+00,2.886210E+00,0.000000E+00,1.453988E+01,1.765775E+05,2.667913E+05,1.443105E+00,5.408934E+04,1.443105E+00,0.000000E+00,0.000000E+00,1.443105E+00,0.000000E+00,7.449274E+00,9.031342E+04,1.347073E+05
11:00:00,4.046685E+00,1.031657E+05,2.886210E+00,0.000000E+00,0.000000E+00,2.886210E+00,0.000000E+00,1.452039E+01,1.771341E+05,2.673604E+05,4.342483E+01,1.018879E+06,2.886210E+01,0.000000E+00,0.000000E+00,2.886210E+01,0.000000E+00,1.510236E+02,1.836826E+06,2.741210E+06,5.554685E+00,9.665152E+04,2.886210E+00,0.000000E+00,0.000000E+00,2.886210E+00,0.000000E+00,1.452186E+01,1.771505E+05,2.673691E+05,1.443105E+00,5.408934E+04,1.443105E+00,0.000000E+00,0.000000E+00,1.443105E+00,0.000000E+00,7.430167E+00,9.048630E+04,1.348817E+05
11:10:00,4.046595E+00,1.031660E+05,2.886210E+00,0.000000E+00,0.000000E+00,2.886210E+00,0.000000E+00,1.448938E+01,1.773023E+05,2.675190E+05,4.342377E+01,1.018884E+06,2.886210E+01,0.000000E+00,0.000000E+00,2.886210E+01,0.000000E+00,1.506644E+02,1.837956E+06,2.742242E+06,5.545945E+00,9.668928E+04,2.886210E+00,0.000000E+00,0.000000E+00,2.886210E+00,0.000000E+00,1.451363E+01,1.775751E+05,2.677938E+05,1.443105E+00,5.408934E+04,1.443105E+00,0.000000E+00,0.000000E+00,1.443105E+00,0.000000E+00,7.411417E+00,9.053391E+04,1.349283E+05
11:20:00,4.046507E+00,1.031664E+05,2.886210E+00,0.000000E+00,0.000000E+00,2.886210E+00,0.000000E+00,1.446909E+01,1.775911E+05,2.678020E+05,4.342272E+01,1.018889E+06,2.886210E+01,0.000000E+00,0.000000E+00,2.886210E+01,0.000000E+00,1.504060E+02,1.840220E+06,2.744442E+06,5.537585E+00,9.672540E+04,2.886210E+00,0.000000E+00,0.000000E+00,2.886210E+00,0.000000E+00,1.451723E+01,1.781327E+05,2.683559E+05,1.443105E+00,5.408934E+04,1.443105E+00,0.000000E+00,0.000000E+00,1.443105E+00,0.000000E+00,7.393001E+00,9.058526E+04,1.349786E+05
11:30:00,4.046418E+00,1.031668E+05,2.886210E+00,0.000000E+00,0.000000E+00,2.886210E+00,0.000000E+00,1.446054E+01,1.780122E+05,2.682210E+05,4.342168E+01,1.018893E+06,2.886210E+01,0.000000E+00,0.000000E+00,2.886210E+01,0.000000E+00,1.502591E+02,1.843738E+06,2.747931E+06,5.529487E+00,9.676038E+04,2.886210E+00,0.000000E+00,0.000000E+00,2.886210E+00,0.000000E+00,1.453364E+01,1.788345E+05,2.690664E+05,1.443105E+00,5.408934E+04,1.443105E+00,0.000000E+00,0.000000E+00,1.443105E+00,0.000000E+00,7.374895E+00,9.064012E+04,1.350326E+05
11:40:00,4.046331E+00,1.031672E+05,2.886210E+00,0.000000E+00,0.000000E+00,2.886210E+00,0.000000E+00,1.446300E+01,1.785570E+05,2.687680E+05,4.342064E+01,1.018898E+06,2.886210E+01,0.000000E+00,0.000000E+00,2.886210E+01,0.000000E+00,1.502172E+02,1.848440E+06,2.752638E+06,5.521654E+00,9.679422E+04,2.886210E+00,0.000000E+00,0.000000E+00,2.886210E+00,0.000000E+00,1.456223E+01,1.796734E+05,2.699182E+05,1.443105E+00,5.408934E+04,1.443105E+00,0.000000E+00,0.000000E+00,1.443105E+00,0.000000E+00,7.357086E+00,9.069831E+04,1.350900E+05
11:50:00,4.046243E+00,1.031676E+05,2.886210E+00,0.000000E+00,0.000000E+00,2.886210E+00,0.000000E+00,1.447360E+01,1.791935E+05,2.694106E+05,4.341962E+01,1.018902E+06,2.886210E+01,0.000000E+00,0.000000E+00,2.886210E+01,0.000000E+00,1.502554E+02,1.854041E+06,2.758282E+06,5.514094E+00,9.682688E+04,2.886210E+00,0.000000E+00,0.000000E+00,2.886210E+00,0.000000E+00,1.460054E+01,1.806217E+05,2.708838E+05,1.443105E+00,5.408934E+04,1.443105E+00,0.000000E+00,0.000000E+00,1.443105E+00,0.000000E+00,7.339562E+00,9.075971E+04,1.351507E+05
12:00:00,4.046157E+00,1.031679E+05,2.886210E+00,0.000000E+00,0.000000E+00,2.886210E+00,0.000000E+00,1.448799E+01,1.798726E+05,2.700998E+05,4.341860E+01,1.018906E+06,2.886210E+01,0.000000E+00,0.000000E+00,2.886210E+01,0.000000E+00,1.503327E+02,1.860083E+06,2.764404E+06,5.506800E+00,9.685839E+04,2.886210E+00,0.000000E+00,0.000000E+00,2.886210E+00,0.000000E+00,1.464455E+01,1.816341E+05,2.719178E+05,1.443105E+00,5.408934E+04,1.443105E+00,0.000000E+00,0.000000E+00,1.443105E+00,0.000000E+00,7.322317E+00,9.082425E+04,1.352146E+05
12:10:00,4.046071E+00,1.031683E+05,2.886210E+00,0.000000E+00,0.000000E+00,2.886210E+00,0.000000E+00,1.450183E+01,1.804420E+05,2.706816E+05,4.341760E+01,1.018911E+06,2.886210E+01,0.000000E+00,0.000000E+00,2.886210E+01,0.000000E+00,1.504103E+02,1.865093E+06,2.769515E+06,5.499760E+00,9.688880E+04,2.886210E+00,0.000000E+00,0.000000E+00,2.886210E+00,0.000000E+00,1.469039E+01,1.825637E+05,2.728716E+05,1.443105E+00,5.408934E+04,1.443105E+00,0.000000E+00,0.000000E+00,1.443105E+00,0.000000E+00,7.305349E+00,9.084018E+04,1.352289E+05
12:20:00,4.045985E+00,1.031687E+05,2.886210E+00,0.000000E+00,0.000000E+00,2.886210E+00,0.000000E+00,1.451232E+01,1.809738E+05,2.712310E+05,4.341660E+01,1.018915E+06,2.886210E+01,0.000000E+00,0.000000E+00,2.886210E+01,0.000000E+00,1.504616E+02,1.869808E+06,2.774379E+06,5.492962E+00,9.691817E+04,2.886210E+00,0.000000E+00,0.000000E+00,2.886210E+00,0.000000E+00,1.473521E+01,1.834817E+05,2.738188E+05,1.443105E+00,5.408934E+04,1.443105E+00,0.000000E+00,0.000000E+00,1.443105E+00,0.000000E+00,7.288662E+00,9.085927E+04,1.352465E+05
12:30:00,4.045901E+00,1.031690E+05,2.886210E+00,0.000000E+00,0.000000E+00,2.886210E+00,0.000000E+00,1.451976E+01,1.814714E+05,2.717481E+05,4.341562E+01,1.018919E+06,2.886210E+01,0.000000E+00,0.000000E+00,2.886210E+01,0.000000E+00,1.504894E+02,1.874258E+06,2.778997E+06,5.486395E+00,9.694654E+04,2.886210E+00,0.000000E+00,0.000000E+00,2.886210E+00,0.000000E+00,1.477936E+01,1.843923E+05,2.747615E+05,1.443105E+00,5.408934E+04,1.443105E+00,0.000000E+00,0.000000E+00,1.443105E+00,0.000000E+00,7.272249E+00,9.088146E+04,1.352672E+05
12:40:00,4.045817E+00,1.031694E+05,2.886210E+00,0.000000E+00,0.000000E+00,2.886210E+00,0.000000E+00,1.452315E+01,1.819233E+05,2.722117E+05,4.341464E+01,1.018923E+06,2.886210E+01,0.000000E+00,0.000000E+00,2.886210E+01,0.000000E+00,1.504842E+02,1.878338E+06,2.783174E+06,5.480047E+00,9.697396E+04,2.886210E+00,0.000000E+00,0.000000E+00,2.886210E+00,0.000000E+00,1.482182E+01,1.852838E+05,2.756787E+05,1.443105E+00,5.408934E+04,1.443105E+00,0.000000E+00,0.000000E+00,1.443105E+00,0.000000E+00,7.256113E+00,9.090676E+04,1.352911E+05
12:50:00,4.045733E+00,1.031698E+05,2.886210E+00,0.000000E+00,0.000000E+00,2.886210E+00,0.000000E+00,1.452090E+01,1.823117E+05,2.726049E+05,4.341368E+01,1.018928E+06,2.886210E+01,0.000000E+00,0.000000E+00,2.886210E+01,0.000000E+00,1.504341E+02,1.881912E+06,2.786787E+06,5.473909E+00,9.700048E+04,2.886210E+00,0.000000E+00,0.000000E+00,2.886210E+00,0.000000E+00,1.486113E+01,1.861399E+05,2.765547E+05,1.443105E+00,5.408934E+04,1.443105E+00,0.000000E+00,0.000000E+00,1.443105E+00,0.000000E+00,7.240260E+00,9.093524E+04,1.353183E+05
13:00:00,4.045650E+00,1.031701E+05,2.886210E+00,0.000000E+00,0.000000E+00,2.886210E+00,0.000000E+00,1.451282E+01,1.826346E+05,2.729313E+05,4.341272E+01,1.018932E+06,2.886210E+01,0.000000E+00,0.000000E+00,2.886210E+01,0.000000E+00,1.503368E+02,1.884954E+06,2.789858E+06,5.467971E+00,9.702614E+04,2.886210E+00,0.000000E+00,0.000000E+00,2.886210E+00,0.000000E+00,1.489699E+01,1.869572E+05,2.773914E+05,1.443105E+00,5.408934E+04,1.443105E+00,0.000000E+00,0.000000E+00,1.443105E+00,0.000000E+00,7.224689E+00,9.096689E+04,1.353488E+05
13:10:00,4.045568E+00,1.031705E+05,2.886210E+00,0.000000E+00,0.000000E+00,2.886210E+00,0.000000E+00,1.449971E+01,1.827457E+05,2.730451E+05,4.341177E+01,1.018936E+06,2.886210E+01,0.000000E+00,0.000000E+00,2.886210E+01,0.000000E+00,1.501992E+02,1.885993E+06,2.790917E+06,5.462223E+00,9.705097E+04,2.886210E+00,0.000000E+00,0.000000E+00,2.886210E+00,0.000000E+00,1.493004E+01,1.875876E+05,2.780408E+05,1.443105E+00,5.408934E+04,1.443105E+00,0.000000E+00,0.000000E+00,1.443105E+00,0.000000E+00,7.209397E+00,9.092411E+04,1.353034E+05
13:20:00,4.045487E+00,1.031708E+05,2.886210E+00,0.000000E+00,0.000000E+00,2.886210E+00,0.000000E+00,1.448203E+01,1.828054E+05,2.731109E+05,4.341083E+01,1.018940E+06,2.886210E+01,0.000000E+00,0.000000E+00,2.886210E+01,0.000000E+00,1.500256E+02,1.886625E+06,2.791605E+06,5.456658E+00,9.707501E+04,2.886210E+00,0.000000E+00,0.000000E+00,2.886210E+00,0.000000E+00,1.496066E+01,1.881908E+05,2.786667E+05,1.443105E+00,5.408934E+04,1.443105E+00,0.000000E+00,0.000000E+00,1.443105E+00,0.000000E+00,7.194381E+00,9.088443E+04,1.352612E+05
13:30:00,4.045406E+00,1.031712E+05,2.886210E+00,0.000000E+00,0.000000E+00,2.886210E+00,0.000000E+00,1.445877E+01,1.828023E+05,2.731115E+05,4.340990E+01,1.018944E+06,2.886210E+01,0.000000E+00,0.000000E+00,2.886210E+01,0.000000E+00,1.498055E+02,1.886735E+06,2.791751E+06,5.451268E+00,9.709829E+04,2.886210E+00,0.000000E+00,0.000000E+00,2.886210E+00,0.000000E+00,1.498778E+01,1.887547E+05,2.792520E+05,1.443105E+00,5.408934E+04,1.443105E+00,0.000000E+00,0.000000E+00,1.443105E+00,0.000000E+00,7.179643E+00,9.084788E+04,1.352222E+05
13:40:00,4.045325E+00,1.031715E+05,2.886210E+00,0.000000E+00,0.000000E+00,2.886210E+00,0.000000E+00,1.443218E+01,1.827617E+05,2.730698E+05,4.340898E+01,1.018948E+06,2.886210E+01,0.000000E+00,0.000000E+00,2.886210E+01,0.000000E+00,1.495599E+02,1.886557E+06,2.791570E+06,5.446045E+00,9.712085E+04,2.886210E+00,0.000000E+00,0.000000E+00,2.886210E+00,0.000000E+00,1.501318E+01,1.892990E+05,2.798137E+05,1.443105E+00,5.408934E+04,1.443105E+00,0.000000E+00,0.000000E+00,1.443105E+00,0.000000E+00,7.165182E+00,9.081445E+04,1.351864E+05
13:50:00,4.045245E+00,1.031719E+05,2.886210E+00,0.000000E+00,0.000000E+00,2.886210E+00,0.000000E+00,1.440687E+01,1.827356E+05,2.730386E+05,4.340806E+01,1.018952E+06,2.886210E+01,0.000000E+00,0.000000E+00,2.886210E+01,0.000000E+00,1.493286E+02,1.886541E+06,2.791514E+06,5.440983E+00,9.714272E+04,2.886210E+00,0.000000E+00,0.000000E+00,2.886210E+00,0.000000E+00,1.504071E+01,1.898674E+05,2.803962E+05,1.443105E+00,5.408934E+04,1.443105E+00,0.000000E+00,0.000000E+00,1.443105E+00,0.000000E+00,7.150995E+00,9.078410E+04,1.351537E+05
14:00:00,4.045166E+00,1.031722E+05,2.886210E+00,0.000000E+00,0.000000E+00,2.886210E+00,0.000000E+00,1.438759E+01,1.827772E+05,2.730735E+05,4.340715E+01,1.018956E+06,2.886210E+01,0.000000E+00,0.000000E+00,2.886210E+01,0.000000E+00,1.491549E+02,1.887173E+06,2.792090E+06,5.436075E+00,9.716393E+04,2.886210E+00,0.000000E+00,0.000000E+00,2.886210E+00,0.000000E+00,1.507433E+01,1.905043E+05,2.810461E+05,1.443105E+00,5.408934E+04,1.443105E+00,0.000000E+00,0.000000E+00,1.443105E+00,0.000000E+00,7.137082E+00,9.075683E+04,1.351243E+05
14:10:00,4.045087E+00,1.031726E+05,2.886210E+00,0.000000E+00,0.000000E+00,2.886210E+00,0.000000E+00,1.437756E+01,1.826643E+05,2.729491E+05,4.340625E+01,1.018960E+06,2.886210E+01,0.000000E+00,0.000000E+00,2.886210E+01,0.000000E+00,1.490670E+02,1.886183E+06,2.790994E+06,5.431314E+00,9.718449E+04,2.886210E+00,0.000000E+00,0.000000E+00,2.886210E+00,0.000000E+00,1.511655E+01,1.909793E+05,2.815290E+05,1.443105E+00,5.408934E+04,1.443105E+00,0.000000E+00,0.000000E+00,1.443105E+00,0.000000E+00,7.123446E+00,9.060338E+04,1.349662E+05
14:20:00,4.045009E+00,1.031729E+05,2.886210E+00,0.000000E+00,0.000000E+00,2.886210E+00,0.000000E+00,1.437863E+01,1.826763E+05,2.729542E+05,4.340536E+01,1.018964E+06,2.886210E+01,0.000000E+00,0.000000E+00,2.886210E+01,0.000000E+00,1.490807E+02,1.886337E+06,2.791087E+06,5.426696E+00,9.720444E+04,2.886210E+00,0.000000E+00,0.000000E+00,2.886210E+00,0.000000E+00,1.516880E+01,1.915673E+05,2.821295E+05,1.443105E+00,5.408934E+04,1.443105E+00,0.000000E+00,0.000000E+00,1.443105E+00,0.000000E+00,7.110087E+00,9.045305E+04,1.348113E+05
14:30:00,4.044932E+00,1.031732E+05,2.886210E+00,0.000000E+00,0.000000E+00,2.886210E+00,0.000000E+00,1.439097E+01,1.828151E+05,2.730909E+05,4.340448E+01,1.018967E+06,2.886210E+01,0.000000E+00,0.000000E+00,2.886210E+01,0.000000E+00,1.491975E+02,1.887651E+06,2.792384E+06,5.422215E+00,9.722380E+04,2.886210E+00,0.000000E+00,0.000000E+00,2.886210E+00,0.000000E+00,1.523082E+01,1.922651E+05,2.828438E+05,1.443105E+00,5.408934E+04,1.443105E+00,0.000000E+00,0.000000E+00,1.443105E+00,0.000000E+00,7.097012E+00,9.030591E+04,1.346596E+05
14:40:00,4.044855E+00,1.031736E+05,2.886210E+00,0.000000E+00,0.000000E+00,2.886210E+00,0.000000E+00,1.441322E+01,1.830654E+05,2.733436E+05,4.340360E+01,1.018971E+06,2.886210E+01,0.000000E+00,0.000000E+00,2.886210E+01,0.000000E+00,1.494039E+02,1.889973E+06,2.794731E+06,5.417866E+00,9.724259E+04,2.886210E+00,0.000000E+00,0.000000E+00,2.886210E+00,0.000000E+00,1.530125E+01,1.930576E+05,2.836566E+05,1.443105E+00,5.408934E+04,1.443105E+00,0.000000E+00,0.000000E+00,1.443105E+00,0.000000E+00,7.084221E+00,9.016197E+04,1.345113E+05
14:50:00,4.044778E+00,1.031739E+05,2.886210E+00,0.000000E+00,0.000000E+00,2.886210E+00,0.000000E+00,1.444284E+01,1.833987E+05,2.736835E+05,4.340273E+01,1.018975E+06,2.886210E+01,0.000000E+00,0.000000E+00,2.886210E+01,0.000000E+00,1.496779E+02,1.893055E+06,2.797878E+06,5.413643E+00,9.726083E+04,2.886210E+00,0.000000E+00,0.000000E+00,2.886210E+00,0.000000E+00,1.537788E+01,1.939197E+05,2.845426E+05,1.443105E+00,5.408934E+04,1.443105E+00,0.000000E+00,0.000000E+00,1.443105E+00,0.000000E+00,7.071715E+00,9.002123E+04,1.343663E+05
15:00:00,4.044702E+00,1.031742E+05,2.886210E+00,0.000000E+00,0.000000E+00,2.886210E+00,0.000000E+00,1.447784E+01,1.837924E+05,2.740882E+05,4.340187E+01,1.018979E+06,2.886210E+01,0.000000E+00,0.000000E+00,2.886210E+01,0.000000E+00,1.500016E+02,1.896697E+06,2.801619E+06,5.409543E+00,9.727855E+04,2.886210E+00,0.000000E+00,0.000000E+00,2.886210E+00,0.000000E+00,1.545889E+01,1.948313E+05,2.854812E+05,1.443105E+00,5.408934E+04,1.443105E+00,0.000000E+00,0.000000E+00,1.443105E+00,0.000000E+00,7.059493E+00,8.988369E+04,1.342245E+05
15:10:00,4.044628E+00,1.031745E+05,2.886210E+00,0.000000E+00,0.000000E+00,2.886210E+00,0.000000E+00,1.451442E+01,1.838936E+05,2.741943E+05,4.340103E+01,1.018982E+06,2.886210E+01,0.000000E+00,0.000000E+00,2.886210E+01,0.000000E+00,1.503406E+02,1.897407E+06,2.802367E+06,5.405632E+00,9.729545E+04,2.886210E+00,0.000000E+00,0.000000E+00,2.886210E+00,0.000000E+00,1.554076E+01,1.954421E+05,2.861125E+05,1.443105E+00,5.408934E+04,1.443105E+00,0.000000E+00,0.000000E+00,1.443105E+00,0.000000E+00,7.047553E+00,8.959416E+04,1.339278E+05
15:20:00,4.044557E+00,1.031749E+05,2.886210E+00,0.000000E+00,0.000000E+00,2.886210E+00,0.000000E+00,1.454986E+01,1.839821E+05,2.742920E+05,4.340022E+01,1.018986E+06,2.886210E+01,0.000000E+00,0.000000E+00,2.886210E+01,0.000000E+00,1.506700E+02,1.898010E+06,2.803051E+06,5.401888E+00,9.731162E+04,2.886210E+00,0.000000E+00,0.000000E+00,2.886210E+00,0.000000E+00,1.562097E+01,1.960343E+05,2.867293E+05,1.443105E+00,5.408934E+04,1.443105E+00,0.000000E+00,0.000000E+00,1.443105E+00,0.000000E+00,7.035890E+00,8.930775E+04,1.336342E+05
15:30:00,4.044487E+00,1.031752E+05,2.886210E+00,0.000000E+00,0.000000E+00,2.886210E+00,0.000000E+00,1.458237E+01,1.840376E+05,2.743578E+05,4.339942E+01,1.018989E+06,2.886210E+01,0.000000E+00,0.000000E+00,2.886210E+01,0.000000E+00,1.509739E+02,1.898328E+06,2.803460E+06,5.398282E+00,9.732720E+04,2.886210E+00,0.000000E+00,0.000000E+00,2.886210E+00,0.000000E+00,1.569784E+01,1.965890E+05,2.873092E+05,1.443105E+00,5.408934E+04,1.443105E+00,0.000000E+00,0.000000E+00,1.443105E+00,0.000000E+00,7.024496E+00,8.902436E+04,1.333438E+05
15:40:00,4.044417E+00,1.031755E+05,2.886210E+00,0.000000E+00,0.000000E+00,2.886210E+00,0.000000E+00,1.461105E+01,1.840500E+05,2.743789E+05,4.339863E+01,1.018993E+06,2.886210E+01,0.000000E+00,0.000000E+00,2.886210E+01,0.000000E+00,1.512445E+02,1.898269E+06,2.803480E+06,5.394802E+00,9.734223E+04,2.886210E+00,0.000000E+00,0.000000E+00,2.886210E+00,0.000000E+00,1.577051E+01,1.970964E+05,2.878401E+05,1.443105E+00,5.408934E+04,1.443105E+00,0.000000E+00,0.000000E+00,1.443105E+00,0.000000E+00,7.013359E+00,8.874388E+04,1.330563E+05
15:50:00,4.044349E+00,1.031757E+05,2.886210E+00,0.000000E+00,0.000000E+00,2.886210E+00,0.000000E+00,1.463578E+01,1.840180E+05,2.743530E+05,4.339786E+01,1.018996E+06,2.886210E+01,0.000000E+00,0.000000E+00,2.886210E+01,0.000000E+00,1.514783E+02,1.897797E+06,2.803062E+06,5.391440E+00,9.735675E+04,2.886210E+00,0.000000E+00,0.000000E+00,2.886210E+00,0.000000E+00,1.583850E+01,1.975511E+05,2.883155E+05,1.443105E+00,5.408934E+04,1.443105E+00,0.000000E+00,0.000000E+00,1.443105E+00,0.000000E+00,7.002468E+00,8.846616E+04,1.327717E+05
16:00:00,4.044281E+00,1.031760E+05,2.886210E+00,0.000000E+00,0.000000E+00,2.886210E+00,0.000000E+00,1.465566E+01,1.839315E+05,2.742692E+05,4.339709E+01,1.018999E+06,2.886210E+01,0.000000E+00,0.000000E+00,2.886210E+01,0.000000E+00,1.516657E+02,1.896803E+06,2.802088E+06,5.388190E+00,9.737080E+04,2.886210E+00,0.000000E+00,0.000000E+00,2.886210E+00,0.000000E+00,1.590067E+01,1.979404E+05,2.887219E+05,1.443105E+00,5.408934E+04,1.443105E+00,0.000000E+00,0.000000E+00,1.443105E+00,0.000000E+00,6.991808E+00,8.819103E+04,1.324898E+05
16:10:00,4.044213E+00,1.031763E+05,2.886210E+00,0.000000E+00,0.000000E+00,2.886210E+00,0.000000E+00,1.467208E+01,1.837024E+05,2.740386E+05,4.339632E+01,1.019003E+06,2.886210E+01,0.000000E+00,0.000000E+00,2.886210E+01,0.000000E+00,1.518192E+02,1.894393E+06,2.799659E+06,5.384974E+00,9.738469E+04,2.886210E+00,0.000000E+00,0.000000E+00,2.886210E+00,0.000000E+00,1.595826E+01,1.981747E+05,2.889689E+05,1.443105E+00,5.408934E+04,1.443105E+00,0.000000E+00,0.000000E+00,1.443105E+00,0.000000E+00,6.981364E+00,8.786662E+04,1.321576E+05
16:20:00,4.044143E+00,1.031766E+05,2.886210E+00,0.000000E+00,0.000000E+00,2.886210E+00,0.000000E+00,1.468484E+01,1.834322E+05,2.737663E+05,4.339553E+01,1.019006E+06,2.886210E+01,0.000000E+00,0.000000E+00,2.886210E+01,0.000000E+00,1.519369E+02,1.891580E+06,2.796822E+06,5.381805E+00,9.739838E+04,2.886210E+00,0.000000E+00,0.000000E+00,2.886210E+00,0.000000E+00,1.601082E+01,1.983524E+05,2.891582E+05,1.443105E+00,5.408934E+04,1.443105E+00,0.000000E+00,0.000000E+00,1.443105E+00,0.000000E+00,6.971125E+00,8.754450E+04,1.318278E+05
16:30:00,4.044074E+00,1.031769E+05,2.886210E+00,0.000000E+00,0.000000E+00,2.886210E+00,0.000000E+00,1.469289E+01,1.831091E+05,2.734401E+05,4.339475E+01,1.019009E+06,2.886210E+01,0.000000E+00,0.000000E+00,2.886210E+01,0.000000E+00,1.520092E+02,1.888256E+06,2.793467E+06,5.378704E+00,9.741178E+04,2.886210E+00,0.000000E+00,0.000000E+00,2.886210E+00,0.000000E+00,1.605739E+01,1.984627E+05,2.892793E+05,1.443105E+00,5.408934E+04,1.443105E+00,0.000000E+00,0.000000E+00,1.443105E+00,0.000000E+00,6.961074E+00,8.722452E+04,1.315001E+05
16:40:00,4.044004E+00,1.031772E+05,2.886210E+00,0.000000E+00,0.000000E+00,2.886210E+00,0.000000E+00,1.469365E+01,1.827039E+05,2.730289E+05,4.339396E+01,1.019013E+06,2.886210E+01,0.000000E+00,0.000000E+00,2.886210E+01,0.000000E+00,1.520109E+02,1.884138E+06,2.789290E+06,5.375675E+00,9.742486E+04,2.886210E+00,0.000000E+00,0.000000E+00,2.886210E+00,0.000000E+00,1.609541E+01,1.984768E+05,2.893009E+05,1.443105E+00,5.408934E+04,1.443105E+00,0.000000E+00,0.000000E+00,1.443105E+00,0.000000E+00,6.951198E+00,8.690650E+04,1.311744E+05
16:50:00,4.043935E+00,1.031775E+05,2.886210E+00,0.000000E+00,0.000000E+00,2.886210E+00,0.000000E+00,1.468603E+01,1.822045E+05,2.725248E+05,4.339318E+01,1.019016E+06,2.886210E+01,0.000000E+00,0.000000E+00,2.886210E+01,0.000000E+00,1.519324E+02,1.879118E+06,2.784222E+06,5.372718E+00,9.743764E+04,2.886210E+00,0.000000E+00,0.000000E+00,2.886210E+00,0.000000E+00,1.612390E+01,1.983836E+05,2.892160E+05,1.443105E+00,5.408934E+04,1.443105E+00,0.000000E+00,0.000000E+00,1.443105E+00,0.000000E+00,6.941486E+00,8.659032E+04,1.308507E+05
17:00:00,4.043865E+00,1.031778E+05,2.886210E+00,0.000000E+00,0.000000E+00,2.886210E+00,0.000000E+00,1.466870E+01,1.815957E+05,2.719089E+05,4.339241E+01,1.019019E+06,2.886210E+01,0.000000E+00,0.000000E+00,2.886210E+01,0.000000E+00,1.517610E+02,1.873051E+06,2.778083E+06,5.369834E+00,9.745009E+04,2.886210E+00,0.000000E+00,0.000000E+00,2.886210E+00,0.000000E+00,1.614152E+01,1.981681E+05,2.890059E+05,1.443105E+00,5.408934E+04,1.443105E+00,0.000000E+00,0.000000E+00,1.443105E+00,0.000000E+00,6.931925E+00,8.627584E+04,1.305287E+05
17:10:00,4.043797E+00,1.031781E+05,2.886210E+00,0.000000E+00,0.000000E+00,2.886210E+00,0.000000E+00,1.464157E+01,1.807733E+05,2.710743E+05,4.339164E+01,1.019023E+06,2.886210E+01,0.000000E+00,0.000000E+00,2.886210E+01,0.000000E+00,1.514930E+02,1.864864E+06,2.769775E+06,5.367022E+00,9.746225E+04,2.886210E+00,0.000000E+00,0.000000E+00,2.886210E+00,0.000000E+00,1.614764E+01,1.977199E+05,2.885575E+05,1.443105E+00,5.408934E+04,1.443105E+00,0.000000E+00,0.000000E+00,1.443105E+00,0.000000E+00,6.922511E+00,8.591130E+04,1.301556E+05
17:20:00,4.043728E+00,1.031784E+05,2.886210E+00,0.000000E+00,0.000000E+00,2.886210E+00,0.000000E+00,1.460731E+01,1.798706E+05,2.701566E+05,4.339087E+01,1.019026E+06,2.886210E+01,0.000000E+00,0.000000E+00,2.886210E+01,0.000000E+00,1.511540E+02,1.855878E+06,2.760643E+06,5.364279E+00,9.747409E+04,2.886210E+00,0.000000E+00,0.000000E+00,2.886210E+00,0.000000E+00,1.614491E+01,1.971721E+05,2.880069E+05,1.443105E+00,5.408934E+04,1.443105E+00,0.000000E+00,0.000000E+00,1.443105E+00,0.000000E+00,6.913223E+00,8.554817E+04,1.297839E+05
17:30:00,4.043660E+00,1.031787E+05,2.886210E+00,0.000000E+00,0.000000E+00,2.886210E+00,0.000000E+00,1.456760E+01,1.789066E+05,2.691692E+05,4.339011E+01,1.019029E+06,2.886210E+01,0.000000E+00,0.000000E+00,2.886210E+01,0.000000E+00,1.507594E+02,1.846266E+06,2.750805E+06,5.361606E+00,9.748564E+04,2.886210E+00,0.000000E+00,0.000000E+00,2.886210E+00,0.000000E+00,1.613478E+01,1.965408E+05,2.873645E+05,1.443105E+00,5.408934E+04,1.443105E+00,0.000000E+00,0.000000E+00,1.443105E+00,0.000000E+00,6.904038E+00,8.518620E+04,1.294135E+05
17:40:00,4.043592E+00,1.031790E+05,2.886210E+00,0.000000E+00,0.000000E+00,2.886210E+00,0.000000E+00,1.452394E+01,1.778982E+05,2.681326E+05,4.338935E+01,1.019033E+06,2.886210E+01,0.000000E+00,0.000000E+00,2.886210E+01,0.000000E+00,1.503226E+02,1.836179E+06,2.740445E+06,5.359001E+00,9.749690E+04,2.886210E+00,0.000000E+00,0.000000E+00,2.886210E+00,0.000000E+00,1.611846E+01,1.958401E+05,2.866473E+05,1.443105E+00,5.408934E+04,1.443105E+00,0.000000E+00,0.000000E+00,1.443105E+00,0.000000E+00,6.894931E+00,8.482512E+04,1.290439E+05
17:50:00,4.043525E+00,1.031793E+05,2.886210E+00,0.000000E+00,0.000000E+00,2.886210E+00,0.000000E+00,1.447550E+01,1.768359E+05,2.670412E+05,4.338859E+01,1.019036E+06,2.886210E+01,0.000000E+00,0.000000E+00,2.886210E+01,0.000000E+00,1.498338E+02,1.825507E+06,2.729488E+06,5.356461E+00,9.750787E+04,2.886210E+00,0.000000E+00,0.000000E+00,2.886210E+00,0.000000E+00,1.609497E+01,1.950586E+05,2.858476E+05,1.443105E+00,5.408934E+04,1.443105E+00,0.000000E+00,0.000000E+00,1.443105E+00,0.000000E+00,6.885867E+00,8.446452E+04,1.286748E+05
18:00:00,4.043458E+00,1.031796E+05,2.886210E+00,0.000000E+00,0.000000E+00,2.886210E+00,0.000000E+00,1.442180E+01,1.757145E+05,2.658922E+05,4.338785E+01,1.019039E+06,2.886210E+01,0.000000E+00,0.000000E+00,2.886210E+01,0.000000E+00,1.492872E+02,1.814184E+06,2.717894E+06,5.353986E+00,9.751856E+04,2.886210E+00,0.000000E+00,0.000000E+00,2.886210E+00,0.000000E+00,1.606363E+01,1.941887E+05,2.849602E+05,1.443105E+00,5.408934E+04,1.443105E+00,0.000000E+00,0.000000E+00,1.443105E+00,0.000000E+00,6.876820E+00,8.410410E+04,1.283058E+05
18:10:00,4.108470E+00,1.028987E+05,2.886210E+00,0.000000E+00,0.000000E+00,2.886210E+00,0.000000E+00,1.436107E+01,1.742553E+05,2.644004E+05,4.404023E+01,1.016220E+06,2.886210E+01,0.000000E+00,0.000000E+00,2.886210E+01,0.000000E+00,1.486655E+02,1.799431E+06,2.702818E+06,5.417169E+00,9.724549E+04,2.886210E+00,0.000000E+00,0.000000E+00,2.886210E+00,0.000000E+00,1.602274E+01,1.929529E+05,2.837014E+05,1.443105E+00,5.408934E+04,1.443105E+00,0.000000E+00,0.000000E+00,1.443105E+00,0.000000E+00,6.867754E+00,8.361417E+04,1.278047E+05
18:20:00,4.173533E+00,1.026176E+05,2.886210E+00,0.000000E+00,0.000000E+00,2.886210E+00,0.000000E+00,1.428975E+01,1.726771E+05,2.627881E+05,4.469312E+01,1.013400E+06,2.886210E+01,0.000000E+00,0.000000E+00,2.886210E+01,0.000000E+00,1.479333E+02,1.783434E+06,2.686486E+06,5.490979E+00,9.692663E+04,2.886210E+00,0.000000E+00,0.000000E+00,2.886210E+00,0.000000E+00,1.596862E+01,1.915681E+05,2.822924E+05,1.443105E+00,5.408934E+04,1.443105E+00,0.000000E+00,0.000000E+00,1.443105E+00,0.000000E+00,6.858645E+00,8.312376E+04,1.273031E+05
18:30:00,4.238814E+00,1.023358E+05,2.886210E+00,0.000000E+00,0.000000E+00,2.886210E+00,0.000000E+00,1.420623E+01,1.709614E+05,2.610337E+05,4.534812E+01,1.010572E+06,2.886210E+01,0.000000E+00,0.000000E+00,2.886210E+01,0.000000E+00,1.470724E+02,1.765990E+06,2.668660E+06,5.581274E+00,9.653703E+04,2.886210E+00,0.000000E+00,0.000000E+00,2.886210E+00,0.000000E+00,1.589925E+01,1.900118E+05,2.807069E+05,1.443105E+00,5.408934E+04,1.443105E+00,0.000000E+00,0.000000E+00,1.443105E+00,0.000000E+00,6.849479E+00,8.263270E+04,1.268008E+05
18:40:00,4.304367E+00,1.020530E+05,2.886210E+00,0.000000E+00,0.000000E+00,2.886210E+00,0.000000E+00,1.410996E+01,1.691025E+05,2.591291E+05,4.600582E+01,1.007737E+06,2.886210E+01,0.000000E+00,0.000000E+00,2.886210E+01,0.000000E+00,1.460761E+02,1.747021E+06,2.649241E+06,5.685565E+00,9.608748E+04,2.886210E+00,0.000000E+00,0.000000E+00,2.886210E+00,0.000000E+00,1.581380E+01,1.882746E+05,2.789335E+05,1.443105E+00,5.408934E+04,1.443105E+00,0.000000E+00,0.000000E+00,1.443105E+00,0.000000E+00,6.840242E+00,8.214085E+04,1.262976E+05
18:50:00,4.370127E+00,1.017695E+05,2.886210E+00,0.000000E+00,0.000000E+00,2.886210E+00,0.000000E+00,1.400080E+01,1.670983E+05,2.570726E+05,4.666557E+01,1.004894E+06,2.886210E+01,0.000000E+00,0.000000E+00,2.886210E+01,0.000000E+00,1.449417E+02,1.726499E+06,2.628198E+06,5.800626E+00,9.559175E+04,2.886210E+00,0.000000E+00,0.000000E+00,2.886210E+00,0.000000E+00,1.571183E+01,1.863514E+05,2.769669E+05,1.443105E+00,5.408934E+04,1.443105E+00,0.000000E+00,0.000000E+00,1.443105E+00,0.000000E+00,6.830934E+00,8.164820E+04,1.257935E+05
19:00:00,4.436034E+00,1.014855E+05,2.886210E+00,0.000000E+00,0.000000E+00,2.886210E+00,0.000000E+00,1.387753E+01,1.649356E+05,2.548499E+05,4.732682E+01,1.002046E+06,2.886210E+01,0.000000E+00,0.000000E+00,2.886210E+01,0.000000E+00,1.436580E+02,1.704297E+06,2.605402E+06,5.924328E+00,9.505896E+04,2.886210E+00,0.000000E+00,0.000000E+00,2.886210E+00,0.000000E+00,1.559212E+01,1.842286E+05,2.747930E+05,1.443105E+00,5.408934E+04,1.443105E+00,0.000000E+00,0.000000E+00,1.443105E+00,0.000000E+00,6.821548E+00,8.115467E+04,1.252886E+05
19:10:00,4.436975E+00,1.014822E+05,2.886210E+00,0.000000E+00,0.000000E+00,2.886210E+00,0.000000E+00,1.373675E+01,1.627826E+05,2.526331E+05,4.733608E+01,1.002016E+06,2.886210E+01,0.000000E+00,0.000000E+00,2.886210E+01,0.000000E+00,1.421930E+02,1.682124E+06,2.582597E+06,5.989806E+00,9.477792E+04,2.886210E+00,0.000000E+00,0.000000E+00,2.886210E+00,0.000000E+00,1.545145E+01,1.820769E+05,2.725864E+05,1.443105E+00,5.408934E+04,1.443105E+00,0.000000E+00,0.000000E+00,1.443105E+00,0.000000E+00,6.812079E+00,8.076364E+04,1.248882E+05
19:20:00,4.437955E+00,1.014787E+05,2.886210E+00,0.000000E+00,0.000000E+00,2.886210E+00,0.000000E+00,1.357792E+01,1.604265E+05,2.502128E+05,4.734577E+01,1.001984E+06,2.886210E+01,0.000000E+00,0.000000E+00,2.886210E+01,0.000000E+00,1.405415E+02,1.657852E+06,2.557689E+06,6.051188E+00,9.451450E+04,2.886210E+00,0.000000E+00,0.000000E+00,2.886210E+00,0.000000E+00,1.528926E+01,1.796830E+05,2.701370E+05,1.443105E+00,5.408934E+04,1.443105E+00,0.000000E+00,0.000000E+00,1.443105E+00,0.000000E+00,6.802527E+00,8.037168E+04,1.244868E+05
19:30:00,4.438791E+00,1.014757E+05,2.886210E+00,0.000000E+00,0.000000E+00,2.886210E+00,0.000000E+00,1.339876E+01,1.578417E+05,2.475542E+05,4.735412E+01,1.001955E+06,2.886210E+01,0.000000E+00,0.000000E+00,2.886210E+01,0.000000E+00,1.386827E+02,1.631248E+06,2.530354E+06,6.101903E+00,9.429666E+04,2.886210E+00,0.000000E+00,0.000000E+00,2.886210E+00,0.000000E+00,1.510338E+01,1.770226E+05,2.674118E+05,1.443105E+00,5.408934E+04,1.443105E+00,0.000000E+00,0.000000E+00,1.443105E+00,0.000000E+00,6.792885E+00,7.997872E+04,1.240843E+05
19:40:00,4.439417E+00,1.014733E+05,2.886210E+00,0.000000E+00,0.000000E+00,2.886210E+00,0.000000E+00,1.319993E+01,1.550356E+05,2.446650E+05,4.736045E+01,1.001932E+06,2.886210E+01,0.000000E+00,0.000000E+00,2.886210E+01,0.000000E+00,1.366234E+02,1.602388E+06,2.500674E+06,6.143861E+00,9.411613E+04,2.886210E+00,0.000000E+00,0.000000E+00,2.886210E+00,0.000000E+00,1.489443E+01,1.741027E+05,2.644183E+05,1.443105E+00,5.408934E+04,1.443105E+00,0.000000E+00,0.000000E+00,1.443105E+00,0.000000E+00,6.783147E+00,7.958467E+04,1.236807E+05
19:50:00,4.439893E+00,1.014715E+05,2.886210E+00,0.000000E+00,0.000000E+00,2.886210E+00,0.000000E+00,1.299206E+01,1.521277E+05,2.416713E+05,4.736533E+01,1.001913E+06,2.886210E+01,0.000000E+00,0.000000E+00,2.886210E+01,0.000000E+00,1.344676E+02,1.572441E+06,2.469877E+06,6.179806E+00,9.396128E+04,2.886210E+00,0.000000E+00,0.000000E+00,2.886210E+00,0.000000E+00,1.467280E+01,1.710399E+05,2.612787E+05,1.443105E+00,5.408934E+04,1.443105E+00,0.000000E+00,0.000000E+00,1.443105E+00,0.000000E+00,6.773306E+00,7.918947E+04,1.232759E+05
20:00:00,4.440271E+00,1.014700E+05,2.886210E+00,0.000000E+00,0.000000E+00,2.886210E+00,0.000000E+00,1.278886E+01,1.492724E+05,2.387171E+05,4.736926E+01,1.001898E+06,2.886210E+01,0.000000E+00,0.000000E+00,2.886210E+01,0.000000E+00,1.323493E+02,1.542917E+06,2.439376E+06,6.211460E+00,9.382481E+04,2.886210E+00,0.000000E+00,0.000000E+00,2.886210E+00,0.000000E+00,1.445195E+01,1.679860E+05,2.581339E+05,1.443105E+00,5.408934E+04,1.443105E+00,0.000000E+00,0.000000E+00,1.443105E+00,0.000000E+00,6.763355E+00,7.879302E+04,1.228698E+05
20:10:00,4.440583E+00,1.014688E+05,2.886210E+00,0.000000E+00,0.000000E+00,2.886210E+00,0.000000E+00,1.260236E+01,1.467085E+05,2.360415E+05,4.737256E+01,1.001885E+06,2.886210E+01,0.000000E+00,0.000000E+00,2.886210E+01,0.000000E+00,1.303880E+02,1.516193E+06,2.411546E+06,6.239741E+00,9.370281E+04,2.886210E+00,0.000000E+00,0.000000E+00,2.886210E+00,0.000000E+00,1.424392E+01,1.651797E+05,2.552217E+05,1.443105E+00,5.408934E+04,1.443105E+00,0.000000E+00,0.000000E+00,1.443105E+00,0.000000E+00,6.753289E+00,7.844700E+04,1.225151E+05
20:20:00,4.440848E+00,1.014677E+05,2.886210E+00,0.000000E+00,0.000000E+00,2.886210E+00,0.000000E+00,1.243822E+01,1.443961E+05,2.336138E+05,4.737541E+01,1.001873E+06,2.886210E+01,0.000000E+00,0.000000E+00,2.886210E+01,0.000000E+00,1.286402E+02,1.491872E+06,2.386076E+06,6.265246E+00,9.359275E+04,2.886210E+00,0.000000E+00,0.000000E+00,2.886210E+00,0.000000E+00,1.405448E+01,1.625827E+05,2.525122E+05,1.443105E+00,5.408934E+04,1.443105E+00,0.000000E+00,0.000000E+00,1.443105E+00,0.000000E+00,6.743111E+00,7.809972E+04,1.221591E+05
20:30:00,4.441080E+00,1.014668E+05,2.886210E+00,0.000000E+00,0.000000E+00,2.886210E+00,0.000000E+00,1.230236E+01,1.424018E+05,2.315180E+05,4.737795E+01,1.001863E+06,2.886210E+01,0.000000E+00,0.000000E+00,2.886210E+01,0.000000E+00,1.271649E+02,1.470617E+06,2.363792E+06,6.288422E+00,9.349271E+04,2.886210E+00,0.000000E+00,0.000000E+00,2.886210E+00,0.000000E+00,1.388974E+01,1.602635E+05,2.500901E+05,1.443105E+00,5.408934E+04,1.443105E+00,0.000000E+00,0.000000E+00,1.443105E+00,0.000000E+00,6.732837E+00,7.775136E+04,1.218020E+05
20:40:00,4.441287E+00,1.014659E+05,2.886210E+00,0.000000E+00,0.000000E+00,2.886210E+00,0.000000E+00,1.219757E+01,1.407572E+05,2.297975E+05,4.738024E+01,1.001853E+06,2.886210E+01,0.000000E+00,0.000000E+00,2.886210E+01,0.000000E+00,1.259916E+02,1.452760E+06,2.345139E+06,6.309528E+00,9.340160E+04,2.886210E+00,0.000000E+00,0.000000E+00,2.886210E+00,0.000000E+00,1.375286E+01,1.582577E+05,2.480017E+05,1.443105E+00,5.408934E+04,1.443105E+00,0.000000E+00,0.000000E+00,1.443105E+00,0.000000E+00,6.722486E+00,7.740214E+04,1.214440E+05
20:50:00,4.441475E+00,1.014651E+05,2.886210E+00,0.000000E+00,0.000000E+00,2.886210E+00,0.000000E+00,1.211667E+01,1.393812E+05,2.283665E+05,4.738236E+01,1.001844E+06,2.886210E+01,0.000000E+00,0.000000E+00,2.886210E+01,0.000000E+00,1.250528E+02,1.437540E+06,2.329318E+06,6.328871E+00,9.331809E+04,2.886210E+00,0.000000E+00,0.000000E+00,2.886210E+00,0.000000E+00,1.363724E+01,1.564912E+05,2.461698E+05,1.443105E+00,5.408934E+04,1.443105E+00,0.000000E+00,0.000000E+00,1.443105E+00,0.000000E+00,6.712087E+00,7.705236E+04,1.210854E+05
21:00:00,4.441648E+00,1.014644E+05,2.886210E+00,0.000000E+00,0.000000E+00,2.886210E+00,0.000000E+00,1.205008E+01,1.381665E+05,2.271076E+05,4.738433E+01,1.001836E+06,2.886210E+01,0.000000E+00,0.000000E+00,2.886210E+01,0.000000E+00,1.242567E+02,1.423927E+06,2.315206E+06,6.346701E+00,9.324110E+04,2.886210E+00,0.000000E+00,0.000000E+00,2.886210E+00,0.000000E+00,1.353385E+01,1.548623E+05,2.444843E+05,1.443105E+00,5.408934E+04,1.443105E+00,0.000000E+00,0.000000E+00,1.443105E+00,0.000000E+00,6.701669E+00,7.670239E+04,1.207266E+05
21:10:00,4.441810E+00,1.014637E+05,2.886210E+00,0.000000E+00,0.000000E+00,2.886210E+00,0.000000E+00,1.199268E+01,1.370549E+05,2.259577E+05,4.738620E+01,1.001828E+06,2.886210E+01,0.000000E+00,0.000000E+00,2.886210E+01,0.000000E+00,1.235534E+02,1.411357E+06,2.302193E+06,6.363212E+00,9.316981E+04,2.886210E+00,0.000000E+00,0.000000E+00,2.886210E+00,0.000000E+00,1.343781E+01,1.533162E+05,2.428857E+05,1.443105E+00,5.408934E+04,1.443105E+00,0.000000E+00,0.000000E+00,1.443105E+00,0.000000E+00,6.691265E+00,7.635256E+04,1.203679E+05
21:20:00,4.441963E+00,1.014631E+05,2.886210E+00,0.000000E+00,0.000000E+00,2.886210E+00,0.000000E+00,1.194178E+01,1.360167E+05,2.248850E+05,4.738797E+01,1.001821E+06,2.886210E+01,0.000000E+00,0.000000E+00,2.886210E+01,0.000000E+00,1.229177E+02,1.399549E+06,2.289981E+06,6.378563E+00,9.310352E+04,2.886210E+00,0.000000E+00,0.000000E+00,2.886210E+00,0.000000E+00,1.334687E+01,1.518273E+05,2.413473E+05,1.443105E+00,5.408934E+04,1.443105E+00,0.000000E+00,0.000000E+00,1.443105E+00,0.000000E+00,6.680902E+00,7.600321E+04,1.200098E+05
21:30:00,4.442109E+00,1.014624E+05,2.886210E+00,0.000000E+00,0.000000E+00,2.886210E+00,0.000000E+00,1.189561E+01,1.350316E+05,2.238678E+05,4.738968E+01,1.001813E+06,2.886210E+01,0.000000E+00,0.000000E+00,2.886210E+01,0.000000E+00,1.223329E+02,1.388314E+06,2.278366E+06,6.392888E+00,9.304166E+04,2.886210E+00,0.000000E+00,0.000000E+00,2.886210E+00,0.000000E+00,1.325940E+01,1.503775E+05,2.398494E+05,1.443105E+00,5.408934E+04,1.443105E+00,0.000000E+00,0.000000E+00,1.443105E+00,0.000000E+00,6.670602E+00,7.565455E+04,1.196523E+05
21:40:00,4.442250E+00,1.014618E+05,2.886210E+00,0.000000E+00,0.000000E+00,2.886210E+00,0.000000E+00,1.185291E+01,1.340857E+05,2.228916E+05,4.739133E+01,1.001806E+06,2.886210E+01,0.000000E+00,0.000000E+00,2.886210E+01,0.000000E+00,1.217871E+02,1.377517E+06,2.267211E+06,6.406382E+00,9.298339E+04,2.886210E+00,0.000000E+00,0.000000E+00,2.886210E+00,0.000000E+00,1.317433E+01,1.489548E+05,2.383796E+05,1.443105E+00,5.408934E+04,1.443105E+00,0.000000E+00,0.000000E+00,1.443105E+00,0.000000E+00,6.660379E+00,7.530676E+04,1.192958E+05
21:50:00,4.442387E+00,1.014612E+05,2.886210E+00,0.000000E+00,0.000000E+00,2.886210E+00,0.000000E+00,1.181282E+01,1.331691E+05,2.219459E+05,4.739295E+01,1.001799E+06,2.886210E+01,0.000000E+00,0.000000E+00,2.886210E+01,0.000000E+00,1.212720E+02,1.367066E+06,2.256415E+06,6.419110E+00,9.292843E+04,2.886210E+00,0.000000E+00,0.000000E+00,2.886210E+00,0.000000E+00,1.309097E+01,1.475514E+05,2.369298E+05,1.443105E+00,5.408934E+04,1.443105E+00,0.000000E+00,0.000000E+00,1.443105E+00,0.000000E+00,6.650246E+00,7.495999E+04,1.189404E+05
22:00:00,4.442521E+00,1.014607E+05,2.886210E+00,0.000000E+00,0.000000E+00,2.886210E+00,0.000000E+00,1.177472E+01,1.322748E+05,2.210236E+05,4.739452E+01,1.001792E+06,2.886210E+01,0.000000E+00,0.000000E+00,2.886210E+01,0.000000E+00,1.207816E+02,1.356892E+06,2.245908E+06,6.431126E+00,9.287654E+04,2.886210E+00,0.000000E+00,0.000000E+00,2.886210E+00,0.000000E+00,1.300887E+01,1.461620E+05,2.354945E+05,1.443105E+00,5.408934E+04,1.443105E+00,0.000000E+00,0.000000E+00,1.443105E+00,0.000000E+00,6.640212E+00,7.461434E+04,1.185861E+05
22:10:00,4.442650E+00,1.014601E+05,2.886210E+00,0.000000E+00,0.000000E+00,2.886210E+00,0.000000E+00,9.798605E+00,1.111760E+05,1.981469E+05,4.739605E+01,1.001786E+06,2.886210E+01,0.000000E+00,0.000000E+00,2.886210E+01,0.000000E+00,1.005006E+02,1.140958E+06,2.012631E+06,6.442401E+00,9.282786E+04,2.886210E+00,0.000000E+00,0.000000E+00,2.886210E+00,0.000000E+00,1.082515E+01,1.231008E+05,2.107960E+05,1.443105E+00,5.408934E+04,1.443105E+00,0.000000E+00,0.000000E+00,1.443105E+00,0.000000E+00,5.529322E+00,6.254487E+04,1.052848E+05
22:20:00,4.442776E+00,1.014596E+05,2.886210E+00,0.000000E+00,0.000000E+00,2.886210E+00,0.000000E+00,8.168528E+00,9.423856E+04,1.799297E+05,4.739753E+01,1.001779E+06,2.886210E+01,0.000000E+00,0.000000E+00,2.886210E+01,0.000000E+00,8.387689E+01,9.687854E+05,1.828023E+06,6.453021E+00,9.278200E+04,2.886210E+00,0.000000E+00,0.000000E+00,2.886210E+00,0.000000E+00,9.074410E+00,1.051566E+05,1.916908E+05,1.443105E+00,5.408934E+04,1.443105E+00,0.000000E+00,0.000000E+00,1.443105E+00,0.000000E+00,4.423057E+00,5.073493E+04,9.225358E+04
22:30:00,4.442899E+00,1.014590E+05,2.886210E+00,0.000000E+00,0.000000E+00,2.886210E+00,0.000000E+00,6.665998E+00,7.775194E+04,1.613585E+05,4.739899E+01,1.001773E+06,2.886210E+01,0.000000E+00,0.000000E+00,2.886210E+01,0.000000E+00,6.857792E+01,8.014316E+05,1.640080E+06,6.463070E+00,9.273861E+04,2.886210E+00,0.000000E+00,0.000000E+00,2.886210E+00,0.000000E+00,7.458118E+00,8.763494E+04,1.721741E+05,1.443105E+00,5.408934E+04,1.443105E+00,0.000000E+00,0.000000E+00,1.443105E+00,0.000000E+00,3.439972E+00,3.992206E+04,8.032962E+04
22:40:00,4.443021E+00,1.014585E+05,2.886210E+00,0.000000E+00,0.000000E+00,2.886210E+00,0.000000E+00,5.201734E+00,6.039411E+04,1.403360E+05,4.740042E+01,1.001767E+06,2.886210E+01,0.000000E+00,0.000000E+00,2.886210E+01,0.000000E+00,5.367590E+01,6.253033E+05,1.427329E+06,6.472605E+00,9.269743E+04,2.886210E+00,0.000000E+00,0.000000E+00,2.886210E+00,0.000000E+00,5.883620E+00,6.918522E+04,1.500820E+05,1.443105E+00,5.408934E+04,1.443105E+00,0.000000E+00,0.000000E+00,1.443105E+00,0.000000E+00,2.475787E+00,2.845855E+04,6.720467E+04
22:50:00,4.443140E+00,1.014580E+05,2.886210E+00,0.000000E+00,0.000000E+00,2.886210E+00,0.000000E+00,3.767752E+00,4.211210E+04,1.179794E+05,4.740183E+01,1.001761E+06,2.886210E+01,0.000000E+00,0.000000E+00,2.886210E+01,0.000000E+00,3.910413E+01,4.400633E+05,1.201427E+06,6.481672E+00,9.265827E+04,2.886210E+00,0.000000E+00,0.000000E+00,2.886210E+00,0.000000E+00,4.345695E+00,4.979572E+04,1.266617E+05,1.443105E+00,5.408934E+04,1.443105E+00,0.000000E+00,0.000000E+00,1.443105E+00,0.000000E+00,1.522611E+00,1.626678E+04,5.333005E+04
23:00:00,4.443257E+00,1.014575E+05,2.886210E+00,0.000000E+00,0.000000E+00,2.886210E+00,0.000000E+00,2.888283E+00,3.011828E+04,1.029929E+05,4.740322E+01,1.001755E+06,2.886210E+01,0.000000E+00,0.000000E+00,2.886210E+01,0.000000E+00,2.913793E+01,3.046741E+05,1.033994E+06,6.490313E+00,9.262096E+04,2.886210E+00,0.000000E+00,0.000000E+00,2.886210E+00,0.000000E+00,2.976941E+00,3.133347E+04,1.043951E+05,1.443105E+00,5.408934E+04,1.443105E+00,0.000000E+00,0.000000E+00,1.443105E+00,0.000000E+00,1.443105E+00,1.504496E+04,5.147993E+04
23:10:00,4.443375E+00,1.014570E+05,2.886210E+00,0.000000E+00,0.000000E+00,2.886210E+00,0.000000E+00,3.015579E+00,3.152804E+04,1.036404E+05,4.740460E+01,1.001749E+06,2.886210E+01,0.000000E+00,0.000000E+00,2.886210E+01,0.000000E+00,3.149016E+01,3.338534E+05,1.057849E+06,6.498652E+00,9.258495E+04,2.886210E+00,0.000000E+00,0.000000E+00,2.886210E+00,0.000000E+00,3.494502E+00,3.819693E+04,1.112347E+05,1.443105E+00,5.408934E+04,1.443105E+00,0.000000E+00,0.000000E+00,1.443105E+00,0.000000E+00,1.443105E+00,1.486393E+04,5.077098E+04
23:20:00,4.443492E+00,1.014565E+05,2.886210E+00,0.000000E+00,0.000000E+00,2.886210E+00,0.000000E+00,3.185707E+00,3.354868E+04,1.049923E+05,4.740597E+01,1.001743E+06,2.886210E+01,0.000000E+00,0.000000E+00,2.886210E+01,0.000000E+00,3.334745E+01,3.563019E+05,1.073759E+06,6.506692E+00,9.255023E+04,2.886210E+00,0.000000E+00,0.000000E+00,2.886210E+00,0.000000E+00,3.694404E+00,4.065327E+04,1.130365E+05,1.443105E+00,5.408934E+04,1.443105E+00,0.000000E+00,0.000000E+00,1.443105E+00,0.000000E+00,1.443105E+00,1.468291E+04,5.006579E+04
23:30:00,4.443608E+00,1.014560E+05,2.886210E+00,0.000000E+00,0.000000E+00,2.886210E+00,0.000000E+00,3.286430E+00,3.459328E+04,1.052189E+05,4.740733E+01,1.001737E+06,2.886210E+01,0.000000E+00,0.000000E+00,2.886210E+01,0.000000E+00,3.449752E+01,3.687425E+05,1.078205E+06,6.514429E+00,9.251683E+04,2.886210E+00,0.000000E+00,0.000000E+00,2.886210E+00,0.000000E+00,3.795235E+00,4.169931E+04,1.132305E+05,1.443105E+00,5.408934E+04,1.443105E+00,0.000000E+00,0.000000E+00,1.443105E+00,0.000000E+00,1.443105E+00,1.450189E+04,4.936433E+04
23:40:00,4.443723E+00,1.014555E+05,2.886210E+00,0.000000E+00,0.000000E+00,2.886210E+00,0.000000E+00,3.369805E+00,3.539564E+04,1.051659E+05,4.740867E+01,1.001731E+06,2.886210E+01,0.000000E+00,0.000000E+00,2.886210E+01,0.000000E+00,3.547678E+01,3.787981E+05,1.079866E+06,6.521872E+00,9.248468E+04,2.886210E+00,0.000000E+00,0.000000E+00,2.886210E+00,0.000000E+00,3.886444E+00,4.261105E+04,1.132743E+05,1.443105E+00,5.408934E+04,1.443105E+00,0.000000E+00,0.000000E+00,1.443105E+00,0.000000E+00,1.443105E+00,1.432087E+04,4.866657E+04
23:50:00,4.443837E+00,1.014550E+05,2.886210E+00,0.000000E+00,0.000000E+00,2.886210E+00,0.000000E+00,3.438590E+00,3.599422E+04,1.048770E+05,4.741001E+01,1.001726E+06,2.886210E+01,0.000000E+00,0.000000E+00,2.886210E+01,0.000000E+00,3.633066E+01,3.871028E+05,1.079480E+06,6.529039E+00,9.245374E+04,2.886210E+00,0.000000E+00,0.000000E+00,2.886210E+00,0.000000E+00,3.962605E+00,4.331265E+04,1.130757E+05,1.443105E+00,5.408934E+04,1.443105E+00,0.000000E+00,0.000000E+00,1.443105E+00,0.000000E+00,1.443105E+00,1.413984E+04,4.797250E+04
24:00:00,4.443951E+00,1.014545E+05,2.886210E+00,0.000000E+00,0.000000E+00,2.886210E+00,0.000000E+00,3.496573E+00,3.644196E+04,1.044144E+05,4.741133E+01,1.001720E+06,2.886210E+01,0.000000E+00,0.000000E+00,2.886210E+01,0.000000E+00,3.708760E+01,3.940536E+05,1.077517E+06,6.535942E+00,9.242393E+04,2.886210E+00,0.000000E+00,0.000000E+00,2.886210E+00,0.000000E+00,4.026960E+00,4.384938E+04,1.126883E+05,1.443105E+00,5.408934E+04,1.443105E+00,0.000000E+00,0.000000E+00,1.443105E+00,0.000000E+00,1.443105E+00,1.395882E+04,4.728208E+04
Coinc Peak   ,4.445624E+00,1.644601E+01,1.014473E+05,2.135066E+05,4.743050E+01,1.737318E+02,1.001637E+06,2.245128E+06,6.678770E+00,1.669198E+01,9.180008E+04,2.220363E+05,1.443105E+00,8.508166E+00,5.408934E+04,9.277777E+04
NonCoinc Peak,4.445624E+00,1.875071E+01,1.014473E+05,2.135066E+05,4.743050E+01,1.989581E+02,1.001637E+06,2.245128E+06,6.680411E+00,1.948236E+01,9.180008E+04,2.220363E+05,1.443105E+00,8.508166E+00,5.408934E+04,9.277777E+04
