2021-04-13 14:51:15,009 Run nr 0 of opt-method rbf-cost building_id 2 with 6 evalautions took: (min)
2021-04-13 14:51:15,025 29.938159072399138
2021-04-13 14:52:55,960 Run nr 1 of opt-method rbf-cost building_id 2 with 6 evalautions took: (min)
2021-04-13 14:52:55,973 30.619000148773193
2021-04-13 14:54:02,501 Run nr 0 of opt-method rbf-net building_id 2 with 6 evalautions took: (min)
2021-04-13 14:54:02,503 30.728390804926555
2021-04-13 14:54:51,763 Run nr 1 of opt-method rbf-net building_id 2 with 6 evalautions took: (min)
2021-04-13 14:54:51,786 30.550684607028963
