2021-04-22 00:35:29,884 Run nr 1 of opt-method rbf-net building_id 2 with 200 evalautions took: (min)
2021-04-22 00:35:29,895 845.4327929655711
2021-04-22 00:48:28,552 Run nr 4 of opt-method rbf-net building_id 2 with 200 evalautions took: (min)
2021-04-22 00:48:28,603 858.103631345431
2021-04-22 00:48:30,881 Run nr 2 of opt-method rbf-net building_id 2 with 200 evalautions took: (min)
2021-04-22 00:48:31,051 Run nr 1 of opt-method rbf-cost building_id 2 with 200 evalautions took: (min)
2021-04-22 00:48:31,344 858.3494955142339
2021-04-22 00:48:33,656 859.3463377396266
2021-04-22 00:48:34,452 Run nr 0 of opt-method rbf-cost building_id 2 with 200 evalautions took: (min)
2021-04-22 00:48:34,455 859.48676298062
2021-04-22 00:48:35,756 Run nr 5 of opt-method rbf-net building_id 2 with 200 evalautions took: (min)
2021-04-22 00:48:37,048 858.1180983424186
2021-04-22 00:53:05,518 Run nr 9 of opt-method rbf-net building_id 2 with 200 evalautions took: (min)
2021-04-22 00:53:05,558 862.2025831063588
2021-04-22 00:57:08,179 Run nr 7 of opt-method rbf-net building_id 2 with 200 evalautions took: (min)
2021-04-22 00:57:08,209 866.4865857521693
2021-04-22 00:57:08,439 Run nr 8 of opt-method rbf-net building_id 2 with 200 evalautions took: (min)
2021-04-22 00:57:08,439 866.3862411379814
2021-04-22 00:57:10,315 Run nr 6 of opt-method rbf-net building_id 2 with 200 evalautions took: (min)
2021-04-22 00:57:10,756 866.6055115183194
2021-04-22 00:58:33,178 Run nr 3 of opt-method rbf-net building_id 2 with 200 evalautions took: (min)
2021-04-22 00:58:33,180 868.2853532393773
2021-04-22 01:01:18,690 Run nr 9 of opt-method rbf-cost building_id 2 with 200 evalautions took: (min)
2021-04-22 01:01:18,700 871.4461328625679
2021-04-22 01:05:26,712 Run nr 0 of opt-method rbf-net building_id 2 with 200 evalautions took: (min)
2021-04-22 01:05:26,713 875.4813635110855
2021-04-22 11:07:23,130 Run nr 1 of opt-method rbf-net building_id 2 with 400 evalautions took: (min)
2021-04-22 11:07:23,172 1475.0664491534233
2021-04-22 11:10:54,862 Run nr 2 of opt-method rbf-net building_id 2 with 400 evalautions took: (min)
2021-04-22 11:10:54,890 1478.5119743188222
2021-04-22 12:44:18,259 Run nr 5 of opt-method rbf-net building_id 2 with 400 evalautions took: (min)
2021-04-22 12:44:18,286 1571.7141454339028
2021-04-22 12:47:54,320 Run nr 3 of opt-method rbf-net building_id 2 with 400 evalautions took: (min)
2021-04-22 12:47:54,348 1575.5112502296765
2021-04-22 12:52:47,063 Run nr 4 of opt-method rbf-net building_id 2 with 400 evalautions took: (min)
2021-04-22 12:52:47,088 1580.3085564017297
2021-04-22 12:56:29,806 Run nr 6 of opt-method rbf-net building_id 2 with 400 evalautions took: (min)
2021-04-22 12:56:29,824 1583.829812983672
2021-04-22 14:24:57,481 Run nr 7 of opt-method rbf-cost building_id 2 with 400 evalautions took: (min)
2021-04-22 14:24:57,512 1673.1101846933366
2021-04-22 14:31:04,729 Run nr 0 of opt-method rbf-cost building_id 2 with 400 evalautions took: (min)
2021-04-22 14:31:04,746 1680.048474931717
2021-04-22 14:31:16,923 Run nr 4 of opt-method rbf-cost building_id 2 with 400 evalautions took: (min)
2021-04-22 14:31:16,925 1679.8048333962759
2021-04-22 14:40:58,078 Run nr 2 of opt-method rbf-cost building_id 2 with 400 evalautions took: (min)
2021-04-22 14:40:58,117 1689.682284684976
2021-04-22 14:55:05,978 Run nr 1 of opt-method rbf-cost building_id 2 with 400 evalautions took: (min)
2021-04-22 14:55:05,981 1703.9575679063796
2021-04-22 15:03:34,216 Run nr 5 of opt-method rbf-cost building_id 2 with 400 evalautions took: (min)
2021-04-22 15:03:34,270 1711.9778213500977
2021-04-22 15:07:30,034 Run nr 3 of opt-method rbf-cost building_id 2 with 400 evalautions took: (min)
2021-04-22 15:07:30,052 1716.1315739393235
2021-04-22 15:16:35,477 Run nr 6 of opt-method rbf-cost building_id 2 with 400 evalautions took: (min)
2021-04-22 15:16:35,507 1724.8608757893244
2021-04-22 15:32:24,188 Run nr 0 of opt-method rbf-net building_id 2 with 400 evalautions took: (min)
2021-04-22 15:32:24,214 1740.1709457675615
2021-04-22 15:39:37,026 Run nr 8 of opt-method rbf-cost building_id 2 with 400 evalautions took: (min)
2021-04-22 15:39:37,047 1747.8998807668686
2021-04-22 15:47:25,698 Run nr 9 of opt-method rbf-cost building_id 2 with 400 evalautions took: (min)
2021-04-22 15:47:25,699 1755.338675101598
2021-04-23 10:26:02,054 Run nr 4 of opt-method rbf-cost building_id 2 with 800 evalautions took: (min)
2021-04-23 10:26:02,078 2872.3769021073977
2021-04-23 20:34:15,402 Run nr 0 of opt-method rbf-cost building_id 2 with 800 evalautions took: (min)
2021-04-23 20:34:15,463 3481.02638515234
2021-04-23 20:41:37,255 Run nr 1 of opt-method rbf-cost building_id 2 with 800 evalautions took: (min)
2021-04-23 20:41:37,270 3488.292374753952
2021-04-23 20:41:44,879 Run nr 2 of opt-method rbf-cost building_id 2 with 800 evalautions took: (min)
2021-04-23 20:41:44,880 3488.3171729127566
2021-04-23 20:45:43,525 Run nr 3 of opt-method rbf-cost building_id 2 with 800 evalautions took: (min)
2021-04-23 20:45:43,558 3492.194573533535
