rbf-net,6,0,,,,,,,,
rbf-net,6,1,,,,run,array,time,,
rbf-net,6,2,,,rbf-net,50,0-9,8:00:00,,# rbf-net 50 sbatch --array=0-9 --time=8:00:00 cluster_batch.sh
rbf-net,6,3,,,rbf-net,100,10-19,17:00:00,,# rbf-net 100 sbatch --array=10-19 --time=17:00:00 cluster_batch.sh
rbf-net,6,4,,,rbf-net,200,20-29,36:00:00,,# rbf-net 200 sbatch --array=20-29 --time=36:00:00 cluster_batch.sh
rbf-net,6,5,,,rbf-cost,50,30-39,8:00:00,,# rbf-cost 50 sbatch --array=30-39 --time=8:00:00 cluster_batch.sh
rbf-net,6,6,,,rbf-cost,100,40-49,17:00:00,,# rbf-cost 100 sbatch --array=40-49 --time=17:00:00 cluster_batch.sh
rbf-net,6,7,,,rbf-cost,200,50-59,36:00:00,,# rbf-cost 200 sbatch --array=50-59 --time=36:00:00 cluster_batch.sh
rbf-net,6,8,,,ga-50,50,60-69,8:00:00,,# ga-50 50 sbatch --array=60-69 --time=8:00:00 cluster_batch.sh
rbf-net,6,9,,,ga-50,100,70-79,17:00:00,,# ga-50 100 sbatch --array=70-79 --time=17:00:00 cluster_batch.sh
rbf-net,100,0,,,ga-50,200,80-89,36:00:00,,# ga-50 200 sbatch --array=80-89 --time=36:00:00 cluster_batch.sh
rbf-net,100,1,,,ga-20,50,90-99,8:00:00,,# ga-20 50 sbatch --array=90-99 --time=8:00:00 cluster_batch.sh
rbf-net,100,2,,,ga-20,100,100-109,17:00:00,,# ga-20 100 sbatch --array=100-109 --time=17:00:00 cluster_batch.sh
rbf-net,100,3,,,ga-20,200,110-119,36:00:00,,# ga-20 200 sbatch --array=110-119 --time=36:00:00 cluster_batch.sh
rbf-net,100,4,,,,,,,,
rbf-net,100,5,,,,,,,,
rbf-net,100,6,,,,,,,,
rbf-net,100,7,,,,,,,,
rbf-net,100,8,,,,,,,,
rbf-net,100,9,,,,,,,,
rbf-net,200,0,,,,,,,,
rbf-net,200,1,,,,,,,,
rbf-net,200,2,,,,,,,,
rbf-net,200,3,,,,,,,,
rbf-net,200,4,,,,,,,,
rbf-net,200,5,,,,,,,,
rbf-net,200,6,,,,,,,,
rbf-net,200,7,,,,,,,,
rbf-net,200,8,,,,,,,,
rbf-net,200,9,,,,,,,,
rbf-cost,6,0,,,,,,,,
rbf-cost,6,1,,,,,,,,
rbf-cost,6,2,,,,,,,,
rbf-cost,6,3,,,,,,,,
rbf-cost,6,4,,,,,,,,
rbf-cost,6,5,,,,,,,,
rbf-cost,6,6,,,,,,,,
rbf-cost,6,7,,,,,,,,
rbf-cost,6,8,,,,,,,,
rbf-cost,6,9,,,,,,,,
rbf-cost,100,0,,,,,,,,
rbf-cost,100,1,,,,,,,,
rbf-cost,100,2,,,,,,,,
rbf-cost,100,3,,,,,,,,
rbf-cost,100,4,,,,,,,,
rbf-cost,100,5,,,,,,,,
rbf-cost,100,6,,,,,,,,
rbf-cost,100,7,,,,,,,,
rbf-cost,100,8,,,,,,,,
rbf-cost,100,9,,,,,,,,
rbf-cost,200,0,,,,,,,,
rbf-cost,200,1,,,,,,,,
rbf-cost,200,2,,,,,,,,
rbf-cost,200,3,,,,,,,,
rbf-cost,200,4,,,,,,,,
rbf-cost,200,5,,,,,,,,
rbf-cost,200,6,,,,,,,,
rbf-cost,200,7,,,,,,,,
rbf-cost,200,8,,,,,,,,
rbf-cost,200,9,,,,,,,,
ga-50,6,0,,,,,,,,
ga-50,6,1,,,,,,,,
ga-50,6,2,,,,,,,,
ga-50,6,3,,,,,,,,
ga-50,6,4,,,,,,,,
ga-50,6,5,,,,,,,,
ga-50,6,6,,,,,,,,
ga-50,6,7,,,,,,,,
ga-50,6,8,,,,,,,,
ga-50,6,9,,,,,,,,
ga-50,100,0,,,,,,,,
ga-50,100,1,,,,,,,,
ga-50,100,2,,,,,,,,
ga-50,100,3,,,,,,,,
ga-50,100,4,,,,,,,,
ga-50,100,5,,,,,,,,
ga-50,100,6,,,,,,,,
ga-50,100,7,,,,,,,,
ga-50,100,8,,,,,,,,
ga-50,100,9,,,,,,,,
ga-50,200,0,,,,,,,,
ga-50,200,1,,,,,,,,
ga-50,200,2,,,,,,,,
ga-50,200,3,,,,,,,,
ga-50,200,4,,,,,,,,
ga-50,200,5,,,,,,,,
ga-50,200,6,,,,,,,,
ga-50,200,7,,,,,,,,
ga-50,200,8,,,,,,,,
ga-50,200,9,,,,,,,,
ga-20,6,0,,,,,,,,
ga-20,6,1,,,,,,,,
ga-20,6,2,,,,,,,,
ga-20,6,3,,,,,,,,
ga-20,6,4,,,,,,,,
ga-20,6,5,,,,,,,,
ga-20,6,6,,,,,,,,
ga-20,6,7,,,,,,,,
ga-20,6,8,,,,,,,,
ga-20,6,9,,,,,,,,
ga-20,100,0,,,,,,,,
ga-20,100,1,,,,,,,,
ga-20,100,2,,,,,,,,
ga-20,100,3,,,,,,,,
ga-20,100,4,,,,,,,,
ga-20,100,5,,,,,,,,
ga-20,100,6,,,,,,,,
ga-20,100,7,,,,,,,,
ga-20,100,8,,,,,,,,
ga-20,100,9,,,,,,,,
ga-20,200,0,,,,,,,,
ga-20,200,1,,,,,,,,
ga-20,200,2,,,,,,,,
ga-20,200,3,,,,,,,,
ga-20,200,4,,,,,,,,
ga-20,200,5,,,,,,,,
ga-20,200,6,,,,,,,,
ga-20,200,7,,,,,,,,
ga-20,200,8,,,,,,,,
ga-20,200,9,,,,,,,,
