Time,PSZ-AC:1:DesPer 1:Des Heat Mass Flow [kg/s],PSZ-AC:1:DesPer 1:Des Heat Cap [W],PSZ-AC:1:DesPer 1:Des Cool Mass Flow [kg/s],PSZ-AC:1:DesPer 1:Des Sens Cool Cap [W],PSZ-AC:1:DesPer 1:Des Tot Cool Cap [W],PSZ-AC:1:DesPer 2:Des Heat Mass Flow [kg/s],PSZ-AC:1:DesPer 2:Des Heat Cap [W],PSZ-AC:1:DesPer 2:Des Cool Mass Flow [kg/s],PSZ-AC:1:DesPer 2:Des Sens Cool Cap [W],PSZ-AC:1:DesPer 2:Des Tot Cool Cap [W],PSZ-AC:2:DesPer 1:Des Heat Mass Flow [kg/s],PSZ-AC:2:DesPer 1:Des Heat Cap [W],PSZ-AC:2:DesPer 1:Des Cool Mass Flow [kg/s],PSZ-AC:2:DesPer 1:Des Sens Cool Cap [W],PSZ-AC:2:DesPer 1:Des Tot Cool Cap [W],PSZ-AC:2:DesPer 2:Des Heat Mass Flow [kg/s],PSZ-AC:2:DesPer 2:Des Heat Cap [W],PSZ-AC:2:DesPer 2:Des Cool Mass Flow [kg/s],PSZ-AC:2:DesPer 2:Des Sens Cool Cap [W],PSZ-AC:2:DesPer 2:Des Tot Cool Cap [W],PSZ-AC:3:DesPer 1:Des Heat Mass Flow [kg/s],PSZ-AC:3:DesPer 1:Des Heat Cap [W],PSZ-AC:3:DesPer 1:Des Cool Mass Flow [kg/s],PSZ-AC:3:DesPer 1:Des Sens Cool Cap [W],PSZ-AC:3:DesPer 1:Des Tot Cool Cap [W],PSZ-AC:3:DesPer 2:Des Heat Mass Flow [kg/s],PSZ-AC:3:DesPer 2:Des Heat Cap [W],PSZ-AC:3:DesPer 2:Des Cool Mass Flow [kg/s],PSZ-AC:3:DesPer 2:Des Sens Cool Cap [W],PSZ-AC:3:DesPer 2:Des Tot Cool Cap [W],PSZ-AC:4:DesPer 1:Des Heat Mass Flow [kg/s],PSZ-AC:4:DesPer 1:Des Heat Cap [W],PSZ-AC:4:DesPer 1:Des Cool Mass Flow [kg/s],PSZ-AC:4:DesPer 1:Des Sens Cool Cap [W],PSZ-AC:4:DesPer 1:Des Tot Cool Cap [W],PSZ-AC:4:DesPer 2:Des Heat Mass Flow [kg/s],PSZ-AC:4:DesPer 2:Des Heat Cap [W],PSZ-AC:4:DesPer 2:Des Cool Mass Flow [kg/s],PSZ-AC:4:DesPer 2:Des Sens Cool Cap [W],PSZ-AC:4:DesPer 2:Des Tot Cool Cap [W],PSZ-AC:5:DesPer 1:Des Heat Mass Flow [kg/s],PSZ-AC:5:DesPer 1:Des Heat Cap [W],PSZ-AC:5:DesPer 1:Des Cool Mass Flow [kg/s],PSZ-AC:5:DesPer 1:Des Sens Cool Cap [W],PSZ-AC:5:DesPer 1:Des Tot Cool Cap [W],PSZ-AC:5:DesPer 2:Des Heat Mass Flow [kg/s],PSZ-AC:5:DesPer 2:Des Heat Cap [W],PSZ-AC:5:DesPer 2:Des Cool Mass Flow [kg/s],PSZ-AC:5:DesPer 2:Des Sens Cool Cap [W],PSZ-AC:5:DesPer 2:Des Tot Cool Cap [W]
00:10:00,2.691753E-01,9.194579E+03,9.698115E-02,0.000000E+00,0.000000E+00,9.698115E-02,1.723055E+03,9.698115E-02,9.276489E+02,3.137928E+03,3.541975E-01,9.837255E+03,7.351799E-02,0.000000E+00,0.000000E+00,7.351799E-02,1.306187E+03,7.351799E-02,7.032179E+02,2.378753E+03,2.230044E-01,6.081840E+03,4.361182E-02,0.000000E+00,0.000000E+00,4.361182E-02,7.748470E+02,4.361182E-02,4.171579E+02,1.411107E+03,3.375793E-01,9.519885E+03,7.351799E-02,0.000000E+00,0.000000E+00,7.351799E-02,1.306187E+03,7.351799E-02,7.032179E+02,2.378753E+03,2.227852E-01,6.077653E+03,4.361182E-02,0.000000E+00,0.000000E+00,4.361182E-02,7.748470E+02,4.903197E-02,4.928418E+02,1.527687E+03
00:20:00,2.691771E-01,9.194613E+03,9.698115E-02,0.000000E+00,0.000000E+00,9.698115E-02,1.733482E+03,9.698115E-02,9.172215E+02,3.098531E+03,3.541989E-01,9.837281E+03,7.351799E-02,0.000000E+00,0.000000E+00,7.351799E-02,1.314092E+03,7.351799E-02,6.953133E+02,2.348887E+03,2.230053E-01,6.081857E+03,4.361182E-02,0.000000E+00,0.000000E+00,4.361182E-02,7.795362E+02,4.361182E-02,4.124688E+02,1.393390E+03,3.375807E-01,9.519911E+03,7.351799E-02,0.000000E+00,0.000000E+00,7.351799E-02,1.314092E+03,7.351799E-02,6.953133E+02,2.348887E+03,2.227861E-01,6.077670E+03,4.361182E-02,0.000000E+00,0.000000E+00,4.361182E-02,7.795362E+02,5.018885E-02,5.043056E+02,1.534623E+03
00:30:00,2.691788E-01,9.194646E+03,9.698115E-02,0.000000E+00,0.000000E+00,9.698115E-02,1.743910E+03,9.698115E-02,9.067941E+02,3.059312E+03,3.542003E-01,9.837307E+03,7.351799E-02,0.000000E+00,0.000000E+00,7.351799E-02,1.321996E+03,7.351799E-02,6.874086E+02,2.319156E+03,2.230062E-01,6.081874E+03,4.361182E-02,0.000000E+00,0.000000E+00,4.361182E-02,7.842253E+02,4.361182E-02,4.077796E+02,1.375753E+03,3.375820E-01,9.519937E+03,7.351799E-02,0.000000E+00,0.000000E+00,7.351799E-02,1.321996E+03,7.351799E-02,6.874086E+02,2.319156E+03,2.227870E-01,6.077687E+03,4.361182E-02,0.000000E+00,0.000000E+00,4.361182E-02,7.842253E+02,5.112860E-02,5.127375E+02,1.536762E+03
00:40:00,2.691805E-01,9.194677E+03,9.698115E-02,0.000000E+00,0.000000E+00,9.698115E-02,1.754337E+03,9.698115E-02,8.963667E+02,3.020268E+03,3.542016E-01,9.837332E+03,7.351799E-02,0.000000E+00,0.000000E+00,7.351799E-02,1.329901E+03,7.351799E-02,6.795040E+02,2.289559E+03,2.230070E-01,6.081890E+03,4.361182E-02,0.000000E+00,0.000000E+00,4.361182E-02,7.889145E+02,4.361182E-02,4.030905E+02,1.358196E+03,3.375833E-01,9.519961E+03,7.351799E-02,0.000000E+00,0.000000E+00,7.351799E-02,1.329901E+03,7.351799E-02,6.795040E+02,2.289559E+03,2.227878E-01,6.077703E+03,4.361182E-02,0.000000E+00,0.000000E+00,4.361182E-02,7.889145E+02,5.188334E-02,5.185864E+02,1.534813E+03
00:50:00,2.691821E-01,9.194708E+03,9.698115E-02,0.000000E+00,0.000000E+00,9.698115E-02,1.764764E+03,9.698115E-02,8.859393E+02,2.981401E+03,3.542028E-01,9.837356E+03,7.351799E-02,0.000000E+00,0.000000E+00,7.351799E-02,1.337806E+03,7.351799E-02,6.715993E+02,2.260095E+03,2.230078E-01,6.081905E+03,4.361182E-02,0.000000E+00,0.000000E+00,4.361182E-02,7.936036E+02,4.361182E-02,3.984014E+02,1.340717E+03,3.375846E-01,9.519985E+03,7.351799E-02,0.000000E+00,0.000000E+00,7.351799E-02,1.337806E+03,7.351799E-02,6.715993E+02,2.260095E+03,2.227886E-01,6.077718E+03,4.361182E-02,0.000000E+00,0.000000E+00,4.361182E-02,7.936036E+02,5.247897E-02,5.222136E+02,1.529369E+03
01:00:00,2.691836E-01,9.194737E+03,9.698115E-02,0.000000E+00,0.000000E+00,9.698115E-02,1.775192E+03,9.698115E-02,8.755119E+02,2.942707E+03,3.542040E-01,9.837379E+03,7.351799E-02,0.000000E+00,0.000000E+00,7.351799E-02,1.345710E+03,7.351799E-02,6.636947E+02,2.230763E+03,2.230086E-01,6.081920E+03,4.361182E-02,0.000000E+00,0.000000E+00,4.361182E-02,7.982927E+02,4.361182E-02,3.937122E+02,1.323317E+03,3.375858E-01,9.520008E+03,7.351799E-02,0.000000E+00,0.000000E+00,7.351799E-02,1.345710E+03,7.351799E-02,6.636947E+02,2.230763E+03,2.227894E-01,6.077733E+03,4.361182E-02,0.000000E+00,0.000000E+00,4.361182E-02,7.982927E+02,5.293766E-02,5.239290E+02,1.520948E+03
01:10:00,2.691851E-01,9.194766E+03,9.698115E-02,0.000000E+00,0.000000E+00,9.698115E-02,1.782143E+03,9.698115E-02,8.685603E+02,2.917008E+03,3.542051E-01,9.837399E+03,7.351799E-02,0.000000E+00,0.000000E+00,7.351799E-02,1.350980E+03,7.351799E-02,6.584249E+02,2.211281E+03,2.230093E-01,6.081933E+03,4.361182E-02,0.000000E+00,0.000000E+00,4.361182E-02,8.014188E+02,4.361182E-02,3.905861E+02,1.311760E+03,3.375868E-01,9.520028E+03,7.351799E-02,0.000000E+00,0.000000E+00,7.351799E-02,1.350980E+03,7.351799E-02,6.584249E+02,2.211281E+03,2.227901E-01,6.077747E+03,4.361182E-02,0.000000E+00,0.000000E+00,4.361182E-02,8.014188E+02,5.340330E-02,5.273048E+02,1.518402E+03
01:20:00,2.691865E-01,9.194793E+03,9.698115E-02,0.000000E+00,0.000000E+00,9.698115E-02,1.789095E+03,9.698115E-02,8.616087E+02,2.891386E+03,3.542061E-01,9.837419E+03,7.351799E-02,0.000000E+00,0.000000E+00,7.351799E-02,1.356250E+03,7.351799E-02,6.531552E+02,2.191858E+03,2.230100E-01,6.081946E+03,4.361182E-02,0.000000E+00,0.000000E+00,4.361182E-02,8.045449E+02,4.361182E-02,3.874600E+02,1.300238E+03,3.375879E-01,9.520048E+03,7.351799E-02,0.000000E+00,0.000000E+00,7.351799E-02,1.356250E+03,7.351799E-02,6.531552E+02,2.191858E+03,2.227908E-01,6.077759E+03,4.361182E-02,0.000000E+00,0.000000E+00,4.361182E-02,8.045449E+02,5.378048E-02,5.294454E+02,1.513958E+03
01:30:00,2.691879E-01,9.194820E+03,9.698115E-02,0.000000E+00,0.000000E+00,9.698115E-02,1.796047E+03,9.698115E-02,8.546571E+02,2.865840E+03,3.542071E-01,9.837438E+03,7.351799E-02,0.000000E+00,0.000000E+00,7.351799E-02,1.361520E+03,7.351799E-02,6.478854E+02,2.172492E+03,2.230106E-01,6.081958E+03,4.361182E-02,0.000000E+00,0.000000E+00,4.361182E-02,8.076710E+02,4.361182E-02,3.843339E+02,1.288750E+03,3.375888E-01,9.520067E+03,7.351799E-02,0.000000E+00,0.000000E+00,7.351799E-02,1.361520E+03,7.351799E-02,6.478854E+02,2.172492E+03,2.227914E-01,6.077772E+03,4.361182E-02,0.000000E+00,0.000000E+00,4.361182E-02,8.076710E+02,5.408214E-02,5.305317E+02,1.507922E+03
01:40:00,2.691893E-01,9.194846E+03,9.698115E-02,0.000000E+00,0.000000E+00,9.698115E-02,1.802998E+03,9.698115E-02,8.477055E+02,2.840370E+03,3.542081E-01,9.837456E+03,7.351799E-02,0.000000E+00,0.000000E+00,7.351799E-02,1.366789E+03,7.351799E-02,6.426156E+02,2.153184E+03,2.230112E-01,6.081970E+03,4.361182E-02,0.000000E+00,0.000000E+00,4.361182E-02,8.107971E+02,4.361182E-02,3.812079E+02,1.277297E+03,3.375898E-01,9.520085E+03,7.351799E-02,0.000000E+00,0.000000E+00,7.351799E-02,1.366789E+03,7.351799E-02,6.426156E+02,2.153184E+03,2.227920E-01,6.077784E+03,4.361182E-02,0.000000E+00,0.000000E+00,4.361182E-02,8.107971E+02,5.432006E-02,5.307280E+02,1.500567E+03
01:50:00,2.691906E-01,9.194871E+03,9.698115E-02,0.000000E+00,0.000000E+00,9.698115E-02,1.809950E+03,9.698115E-02,8.407539E+02,2.814976E+03,3.542090E-01,9.837474E+03,7.351799E-02,0.000000E+00,0.000000E+00,7.351799E-02,1.372059E+03,7.351799E-02,6.373459E+02,2.133934E+03,2.230118E-01,6.081982E+03,4.361182E-02,0.000000E+00,0.000000E+00,4.361182E-02,8.139232E+02,4.361182E-02,3.780818E+02,1.265877E+03,3.375907E-01,9.520103E+03,7.351799E-02,0.000000E+00,0.000000E+00,7.351799E-02,1.372059E+03,7.351799E-02,6.373459E+02,2.133934E+03,2.227926E-01,6.077795E+03,4.361182E-02,0.000000E+00,0.000000E+00,4.361182E-02,8.139232E+02,5.450427E-02,5.301746E+02,1.492124E+03
02:00:00,2.691919E-01,9.194896E+03,9.698115E-02,0.000000E+00,0.000000E+00,9.698115E-02,1.816901E+03,9.698115E-02,8.338023E+02,2.789658E+03,3.542099E-01,9.837492E+03,7.351799E-02,0.000000E+00,0.000000E+00,7.351799E-02,1.377329E+03,7.351799E-02,6.320761E+02,2.114742E+03,2.230124E-01,6.081993E+03,4.361182E-02,0.000000E+00,0.000000E+00,4.361182E-02,8.170493E+02,4.361182E-02,3.749557E+02,1.254492E+03,3.375916E-01,9.520120E+03,7.351799E-02,0.000000E+00,0.000000E+00,7.351799E-02,1.377329E+03,7.351799E-02,6.320761E+02,2.114742E+03,2.227932E-01,6.077806E+03,4.361182E-02,0.000000E+00,0.000000E+00,4.361182E-02,8.170493E+02,5.464337E-02,5.289912E+02,1.482787E+03
02:10:00,2.691932E-01,9.194920E+03,9.698115E-02,0.000000E+00,0.000000E+00,9.698115E-02,1.822115E+03,9.698115E-02,8.285886E+02,2.770719E+03,3.542108E-01,9.837509E+03,7.351799E-02,0.000000E+00,0.000000E+00,7.351799E-02,1.381281E+03,7.351799E-02,6.281238E+02,2.100384E+03,2.230130E-01,6.082004E+03,4.361182E-02,0.000000E+00,0.000000E+00,4.361182E-02,8.193938E+02,4.372915E-02,3.742495E+02,1.248522E+03,3.375925E-01,9.520137E+03,7.351799E-02,0.000000E+00,0.000000E+00,7.351799E-02,1.381281E+03,7.351799E-02,6.281238E+02,2.100384E+03,2.227938E-01,6.077817E+03,4.361182E-02,0.000000E+00,0.000000E+00,4.361182E-02,8.193938E+02,5.473609E-02,5.279419E+02,1.475378E+03
02:20:00,2.691944E-01,9.194943E+03,9.698115E-02,0.000000E+00,0.000000E+00,9.698115E-02,1.827329E+03,9.698115E-02,8.233748E+02,2.751822E+03,3.542117E-01,9.837525E+03,7.351799E-02,0.000000E+00,0.000000E+00,7.351799E-02,1.385234E+03,7.351799E-02,6.241715E+02,2.086059E+03,2.230135E-01,6.082014E+03,4.361182E-02,0.000000E+00,0.000000E+00,4.361182E-02,8.217384E+02,4.384623E-02,3.735398E+02,1.242548E+03,3.375934E-01,9.520153E+03,7.351799E-02,0.000000E+00,0.000000E+00,7.351799E-02,1.385234E+03,7.351799E-02,6.241715E+02,2.086059E+03,2.227943E-01,6.077828E+03,4.361182E-02,0.000000E+00,0.000000E+00,4.361182E-02,8.217384E+02,5.478853E-02,5.263301E+02,1.467201E+03
02:30:00,2.691956E-01,9.194966E+03,9.698115E-02,0.000000E+00,0.000000E+00,9.698115E-02,1.832543E+03,9.698115E-02,8.181611E+02,2.732967E+03,3.542125E-01,9.837541E+03,7.351799E-02,0.000000E+00,0.000000E+00,7.351799E-02,1.389186E+03,7.351799E-02,6.202191E+02,2.071766E+03,2.230141E-01,6.082025E+03,4.361182E-02,0.000000E+00,0.000000E+00,4.361182E-02,8.240830E+02,4.393346E-02,3.724132E+02,1.235933E+03,3.375942E-01,9.520169E+03,7.351799E-02,0.000000E+00,0.000000E+00,7.351799E-02,1.389186E+03,7.351799E-02,6.202191E+02,2.071766E+03,2.227949E-01,6.077838E+03,4.361182E-02,0.000000E+00,0.000000E+00,4.361182E-02,8.240830E+02,5.480589E-02,5.242286E+02,1.458368E+03
02:40:00,2.691967E-01,9.194988E+03,9.698115E-02,0.000000E+00,0.000000E+00,9.698115E-02,1.837756E+03,9.698115E-02,8.129474E+02,2.714155E+03,3.542133E-01,9.837556E+03,7.351799E-02,0.000000E+00,0.000000E+00,7.351799E-02,1.393138E+03,7.351799E-02,6.162668E+02,2.057505E+03,2.230146E-01,6.082035E+03,4.361182E-02,0.000000E+00,0.000000E+00,4.361182E-02,8.264276E+02,4.399461E-02,3.709225E+02,1.228764E+03,3.375950E-01,9.520184E+03,7.351799E-02,0.000000E+00,0.000000E+00,7.351799E-02,1.393138E+03,7.351799E-02,6.162668E+02,2.057505E+03,2.227954E-01,6.077848E+03,4.361182E-02,0.000000E+00,0.000000E+00,4.361182E-02,8.264276E+02,5.479269E-02,5.217002E+02,1.448974E+03
02:50:00,2.691978E-01,9.195009E+03,9.698115E-02,0.000000E+00,0.000000E+00,9.698115E-02,1.842970E+03,9.698115E-02,8.077337E+02,2.695384E+03,3.542141E-01,9.837571E+03,7.351799E-02,0.000000E+00,0.000000E+00,7.351799E-02,1.397091E+03,7.351799E-02,6.123145E+02,2.043275E+03,2.230151E-01,6.082044E+03,4.361182E-02,0.000000E+00,0.000000E+00,4.361182E-02,8.287721E+02,4.403293E-02,3.691131E+02,1.221119E+03,3.375958E-01,9.520199E+03,7.351799E-02,0.000000E+00,0.000000E+00,7.351799E-02,1.397091E+03,7.351799E-02,6.123145E+02,2.043275E+03,2.227959E-01,6.077858E+03,4.361182E-02,0.000000E+00,0.000000E+00,4.361182E-02,8.287721E+02,5.475280E-02,5.187992E+02,1.439101E+03
03:00:00,2.691989E-01,9.195030E+03,9.698115E-02,0.000000E+00,0.000000E+00,9.698115E-02,1.848184E+03,9.698115E-02,8.025200E+02,2.676655E+03,3.542149E-01,9.837586E+03,7.351799E-02,0.000000E+00,0.000000E+00,7.351799E-02,1.401043E+03,7.351799E-02,6.083622E+02,2.029078E+03,2.230156E-01,6.082054E+03,4.361182E-02,0.000000E+00,0.000000E+00,4.361182E-02,8.311167E+02,4.405129E-02,3.670248E+02,1.213062E+03,3.375965E-01,9.520214E+03,7.351799E-02,0.000000E+00,0.000000E+00,7.351799E-02,1.401043E+03,7.351799E-02,6.083622E+02,2.029078E+03,2.227964E-01,6.077867E+03,4.361182E-02,0.000000E+00,0.000000E+00,4.361182E-02,8.311167E+02,5.468962E-02,5.155730E+02,1.428819E+03
03:10:00,2.692000E-01,9.195050E+03,9.698115E-02,0.000000E+00,0.000000E+00,9.698115E-02,1.853397E+03,9.698115E-02,7.973063E+02,2.657967E+03,3.542156E-01,9.837600E+03,7.351799E-02,0.000000E+00,0.000000E+00,7.351799E-02,1.404995E+03,7.351799E-02,6.044098E+02,2.014911E+03,2.230161E-01,6.082063E+03,4.361182E-02,0.000000E+00,0.000000E+00,4.361182E-02,8.334613E+02,4.404345E-02,3.645708E+02,1.204465E+03,3.375973E-01,9.520228E+03,7.351799E-02,0.000000E+00,0.000000E+00,7.351799E-02,1.404995E+03,7.351799E-02,6.044098E+02,2.014911E+03,2.227969E-01,6.077876E+03,4.361182E-02,0.000000E+00,0.000000E+00,4.361182E-02,8.334613E+02,5.459738E-02,5.119409E+02,1.418010E+03
03:20:00,2.692010E-01,9.195070E+03,9.698115E-02,0.000000E+00,0.000000E+00,9.698115E-02,1.858611E+03,9.698115E-02,7.920926E+02,2.639322E+03,3.542163E-01,9.837614E+03,7.351799E-02,0.000000E+00,0.000000E+00,7.351799E-02,1.408948E+03,7.351799E-02,6.004575E+02,2.000777E+03,2.230165E-01,6.082072E+03,4.361182E-02,0.000000E+00,0.000000E+00,4.361182E-02,8.358058E+02,4.401142E-02,3.617790E+02,1.195375E+03,3.375980E-01,9.520242E+03,7.351799E-02,0.000000E+00,0.000000E+00,7.351799E-02,1.408948E+03,7.351799E-02,6.004575E+02,2.000777E+03,2.227973E-01,6.077885E+03,4.361182E-02,0.000000E+00,0.000000E+00,4.361182E-02,8.358058E+02,5.447847E-02,5.079364E+02,1.406724E+03
03:30:00,2.692020E-01,9.195089E+03,9.698115E-02,0.000000E+00,0.000000E+00,9.698115E-02,1.863825E+03,9.698115E-02,7.868789E+02,2.620717E+03,3.542171E-01,9.837628E+03,7.351799E-02,0.000000E+00,0.000000E+00,7.351799E-02,1.412900E+03,7.351799E-02,5.965052E+02,1.986673E+03,2.230170E-01,6.082080E+03,4.361182E-02,0.000000E+00,0.000000E+00,4.361182E-02,8.381504E+02,4.395694E-02,3.586737E+02,1.185832E+03,3.375987E-01,9.520255E+03,7.351799E-02,0.000000E+00,0.000000E+00,7.351799E-02,1.412900E+03,7.351799E-02,5.965052E+02,1.986673E+03,2.227978E-01,6.077893E+03,4.361182E-02,0.000000E+00,0.000000E+00,4.361182E-02,8.381504E+02,5.433500E-02,5.035889E+02,1.395002E+03
03:40:00,2.692030E-01,9.195108E+03,9.698115E-02,0.000000E+00,0.000000E+00,9.698115E-02,1.869038E+03,9.698115E-02,7.816652E+02,2.602154E+03,3.542177E-01,9.837641E+03,7.351799E-02,0.000000E+00,0.000000E+00,7.351799E-02,1.416852E+03,7.351799E-02,5.925529E+02,1.972601E+03,2.230174E-01,6.082089E+03,4.361182E-02,0.000000E+00,0.000000E+00,4.361182E-02,8.404950E+02,4.388155E-02,3.552764E+02,1.175873E+03,3.375994E-01,9.520268E+03,7.351799E-02,0.000000E+00,0.000000E+00,7.351799E-02,1.416852E+03,7.351799E-02,5.925529E+02,1.972601E+03,2.227982E-01,6.077902E+03,4.361182E-02,0.000000E+00,0.000000E+00,4.361182E-02,8.404950E+02,5.416881E-02,4.989243E+02,1.382882E+03
03:50:00,2.692040E-01,9.195126E+03,9.698115E-02,0.000000E+00,0.000000E+00,9.698115E-02,1.874252E+03,9.698115E-02,7.764515E+02,2.583632E+03,3.542184E-01,9.837653E+03,7.351799E-02,0.000000E+00,0.000000E+00,7.351799E-02,1.420805E+03,7.351799E-02,5.886005E+02,1.958561E+03,2.230179E-01,6.082097E+03,4.361182E-02,0.000000E+00,0.000000E+00,4.361182E-02,8.428395E+02,4.378662E-02,3.516063E+02,1.165529E+03,3.376000E-01,9.520281E+03,7.351799E-02,0.000000E+00,0.000000E+00,7.351799E-02,1.420805E+03,7.351799E-02,5.886005E+02,1.958561E+03,2.227986E-01,6.077910E+03,4.361182E-02,0.000000E+00,0.000000E+00,4.361182E-02,8.428395E+02,5.398158E-02,4.939656E+02,1.370397E+03
04:00:00,2.692049E-01,9.195144E+03,9.698115E-02,0.000000E+00,0.000000E+00,9.698115E-02,1.879466E+03,9.698115E-02,7.712378E+02,2.565152E+03,3.542191E-01,9.837666E+03,7.351799E-02,0.000000E+00,0.000000E+00,7.351799E-02,1.424757E+03,7.351799E-02,5.846482E+02,1.944551E+03,2.230183E-01,6.082105E+03,4.361182E-02,0.000000E+00,0.000000E+00,4.361182E-02,8.451841E+02,4.367338E-02,3.476805E+02,1.154828E+03,3.376007E-01,9.520293E+03,7.351799E-02,0.000000E+00,0.000000E+00,7.351799E-02,1.424757E+03,7.351799E-02,5.846482E+02,1.944551E+03,2.227991E-01,6.077918E+03,4.361182E-02,0.000000E+00,0.000000E+00,4.361182E-02,8.451841E+02,5.377478E-02,4.887339E+02,1.357574E+03
04:10:00,2.692058E-01,9.195162E+03,9.698115E-02,0.000000E+00,0.000000E+00,9.698115E-02,1.882942E+03,9.698115E-02,7.677620E+02,2.552854E+03,3.542197E-01,9.837678E+03,7.351799E-02,0.000000E+00,0.000000E+00,7.351799E-02,1.427392E+03,7.351799E-02,5.820133E+02,1.935229E+03,2.230187E-01,6.082113E+03,4.361182E-02,0.000000E+00,0.000000E+00,4.361182E-02,8.467471E+02,4.361182E-02,3.452578E+02,1.148002E+03,3.376013E-01,9.520305E+03,7.351799E-02,0.000000E+00,0.000000E+00,7.351799E-02,1.427392E+03,7.351799E-02,5.820133E+02,1.935229E+03,2.227995E-01,6.077926E+03,4.361182E-02,0.000000E+00,0.000000E+00,4.361182E-02,8.467471E+02,5.355891E-02,4.841568E+02,1.347385E+03
04:20:00,2.692067E-01,9.195179E+03,9.698115E-02,0.000000E+00,0.000000E+00,9.698115E-02,1.886417E+03,9.698115E-02,7.642862E+02,2.540574E+03,3.542203E-01,9.837690E+03,7.351799E-02,0.000000E+00,0.000000E+00,7.351799E-02,1.430027E+03,7.351799E-02,5.793785E+02,1.925920E+03,2.230191E-01,6.082120E+03,4.361182E-02,0.000000E+00,0.000000E+00,4.361182E-02,8.483102E+02,4.361182E-02,3.436948E+02,1.142480E+03,3.376019E-01,9.520317E+03,7.351799E-02,0.000000E+00,0.000000E+00,7.351799E-02,1.430027E+03,7.351799E-02,5.793785E+02,1.925920E+03,2.227999E-01,6.077933E+03,4.361182E-02,0.000000E+00,0.000000E+00,4.361182E-02,8.483102E+02,5.333457E-02,4.794616E+02,1.337081E+03
04:30:00,2.692076E-01,9.195195E+03,9.698115E-02,0.000000E+00,0.000000E+00,9.698115E-02,1.889893E+03,9.698115E-02,7.608104E+02,2.528313E+03,3.542209E-01,9.837701E+03,7.351799E-02,0.000000E+00,0.000000E+00,7.351799E-02,1.432661E+03,7.351799E-02,5.767436E+02,1.916625E+03,2.230195E-01,6.082127E+03,4.361182E-02,0.000000E+00,0.000000E+00,4.361182E-02,8.498732E+02,4.361182E-02,3.421317E+02,1.136966E+03,3.376025E-01,9.520328E+03,7.351799E-02,0.000000E+00,0.000000E+00,7.351799E-02,1.432661E+03,7.351799E-02,5.767436E+02,1.916625E+03,2.228002E-01,6.077941E+03,4.361182E-02,0.000000E+00,0.000000E+00,4.361182E-02,8.498732E+02,5.310331E-02,4.746696E+02,1.326689E+03
04:40:00,2.692084E-01,9.195211E+03,9.698115E-02,0.000000E+00,0.000000E+00,9.698115E-02,1.893369E+03,9.698115E-02,7.573346E+02,2.516069E+03,3.542215E-01,9.837712E+03,7.351799E-02,0.000000E+00,0.000000E+00,7.351799E-02,1.435296E+03,7.351799E-02,5.741087E+02,1.907344E+03,2.230198E-01,6.082135E+03,4.361182E-02,0.000000E+00,0.000000E+00,4.361182E-02,8.514363E+02,4.361182E-02,3.405687E+02,1.131461E+03,3.376031E-01,9.520339E+03,7.351799E-02,0.000000E+00,0.000000E+00,7.351799E-02,1.435296E+03,7.351799E-02,5.741087E+02,1.907344E+03,2.228006E-01,6.077948E+03,4.361182E-02,0.000000E+00,0.000000E+00,4.361182E-02,8.514363E+02,5.286641E-02,4.697988E+02,1.316230E+03
04:50:00,2.692092E-01,9.195227E+03,9.698115E-02,0.000000E+00,0.000000E+00,9.698115E-02,1.896845E+03,9.698115E-02,7.538588E+02,2.503844E+03,3.542220E-01,9.837723E+03,7.351799E-02,0.000000E+00,0.000000E+00,7.351799E-02,1.437931E+03,7.351799E-02,5.714738E+02,1.898076E+03,2.230202E-01,6.082141E+03,4.361182E-02,0.000000E+00,0.000000E+00,4.361182E-02,8.529993E+02,4.361182E-02,3.390056E+02,1.125963E+03,3.376037E-01,9.520350E+03,7.351799E-02,0.000000E+00,0.000000E+00,7.351799E-02,1.437931E+03,7.351799E-02,5.714738E+02,1.898076E+03,2.228010E-01,6.077955E+03,4.361182E-02,0.000000E+00,0.000000E+00,4.361182E-02,8.529993E+02,5.262734E-02,4.648978E+02,1.305769E+03
05:00:00,2.692101E-01,9.195243E+03,9.698115E-02,0.000000E+00,0.000000E+00,9.698115E-02,1.900321E+03,9.698115E-02,7.503830E+02,2.491637E+03,3.542226E-01,9.837733E+03,7.351799E-02,0.000000E+00,0.000000E+00,7.351799E-02,1.440566E+03,7.351799E-02,5.688389E+02,1.888822E+03,2.230206E-01,6.082148E+03,4.361182E-02,0.000000E+00,0.000000E+00,4.361182E-02,8.545624E+02,4.361182E-02,3.374426E+02,1.120474E+03,3.376042E-01,9.520360E+03,7.351799E-02,0.000000E+00,0.000000E+00,7.351799E-02,1.440566E+03,7.351799E-02,5.688389E+02,1.888822E+03,2.228013E-01,6.077961E+03,4.361182E-02,0.000000E+00,0.000000E+00,4.361182E-02,8.545624E+02,5.241194E-02,4.603272E+02,1.295814E+03
05:10:00,2.692108E-01,9.195258E+03,9.698115E-02,0.000000E+00,0.000000E+00,9.698115E-02,1.896845E+03,9.698115E-02,7.538588E+02,2.503844E+03,3.542231E-01,9.837744E+03,7.351799E-02,0.000000E+00,0.000000E+00,7.351799E-02,1.437931E+03,7.351799E-02,5.714738E+02,1.898076E+03,2.230209E-01,6.082155E+03,4.361182E-02,0.000000E+00,0.000000E+00,4.361182E-02,8.529993E+02,4.474161E-02,3.547821E+02,1.149400E+03,3.376047E-01,9.520370E+03,7.351799E-02,0.000000E+00,0.000000E+00,7.351799E-02,1.437931E+03,7.351799E-02,5.714738E+02,1.898076E+03,2.228017E-01,6.077968E+03,4.361182E-02,0.000000E+00,0.000000E+00,4.361182E-02,8.529993E+02,5.229598E-02,4.602712E+02,1.298827E+03
05:20:00,2.692116E-01,9.195272E+03,9.698115E-02,0.000000E+00,0.000000E+00,9.698115E-02,1.893369E+03,9.698115E-02,7.573346E+02,2.516069E+03,3.542237E-01,9.837754E+03,7.351799E-02,0.000000E+00,0.000000E+00,7.351799E-02,1.435296E+03,7.351799E-02,5.741087E+02,1.907344E+03,2.230212E-01,6.082161E+03,4.361182E-02,0.000000E+00,0.000000E+00,4.361182E-02,8.514363E+02,4.740457E-02,3.935305E+02,1.209632E+03,3.376053E-01,9.520380E+03,7.351799E-02,0.000000E+00,0.000000E+00,7.351799E-02,1.435296E+03,7.351799E-02,5.741087E+02,1.907344E+03,2.228020E-01,6.077974E+03,4.361182E-02,0.000000E+00,0.000000E+00,4.361182E-02,8.514363E+02,5.232311E-02,4.622134E+02,1.304720E+03
05:30:00,2.692123E-01,9.195286E+03,9.698115E-02,0.000000E+00,0.000000E+00,9.698115E-02,1.889893E+03,9.698115E-02,7.608104E+02,2.528313E+03,3.542242E-01,9.837764E+03,7.351799E-02,0.000000E+00,0.000000E+00,7.351799E-02,1.432661E+03,7.351799E-02,5.767436E+02,1.916625E+03,2.230216E-01,6.082167E+03,4.361182E-02,0.000000E+00,0.000000E+00,4.361182E-02,8.498732E+02,5.179508E-02,4.564013E+02,1.303941E+03,3.376058E-01,9.520390E+03,7.351799E-02,0.000000E+00,0.000000E+00,7.351799E-02,1.432661E+03,7.351799E-02,5.767436E+02,1.916625E+03,2.228023E-01,6.077981E+03,4.361182E-02,0.000000E+00,0.000000E+00,4.361182E-02,8.498732E+02,5.254214E-02,4.668350E+02,1.314427E+03
05:40:00,2.692131E-01,9.195300E+03,9.698115E-02,0.000000E+00,0.000000E+00,9.698115E-02,1.886417E+03,9.698115E-02,7.642862E+02,2.540574E+03,3.542247E-01,9.837773E+03,7.351799E-02,0.000000E+00,0.000000E+00,7.351799E-02,1.430027E+03,7.351799E-02,5.793785E+02,1.925920E+03,2.230219E-01,6.082174E+03,4.361182E-02,0.000000E+00,0.000000E+00,4.361182E-02,8.483102E+02,5.802945E-02,5.450163E+02,1.432464E+03,3.376063E-01,9.520399E+03,7.351799E-02,0.000000E+00,0.000000E+00,7.351799E-02,1.430027E+03,7.351799E-02,5.793785E+02,1.925920E+03,2.228027E-01,6.077987E+03,4.361182E-02,0.000000E+00,0.000000E+00,4.361182E-02,8.483102E+02,5.296200E-02,4.742609E+02,1.328089E+03
05:50:00,2.692138E-01,9.195314E+03,9.698115E-02,0.000000E+00,0.000000E+00,9.698115E-02,1.882942E+03,9.698115E-02,7.677620E+02,2.552854E+03,3.542252E-01,9.837782E+03,7.351799E-02,0.000000E+00,0.000000E+00,7.351799E-02,1.427392E+03,7.351799E-02,5.820133E+02,1.935229E+03,2.230222E-01,6.082179E+03,4.361182E-02,0.000000E+00,0.000000E+00,4.361182E-02,8.467471E+02,6.608909E-02,6.591165E+02,1.589747E+03,3.376067E-01,9.520409E+03,7.351799E-02,0.000000E+00,0.000000E+00,7.351799E-02,1.427392E+03,7.351799E-02,5.820133E+02,1.935229E+03,2.228030E-01,6.077993E+03,4.361182E-02,0.000000E+00,0.000000E+00,4.361182E-02,8.467471E+02,5.355779E-02,4.841445E+02,1.345131E+03
06:00:00,2.692145E-01,9.195327E+03,9.698115E-02,0.000000E+00,0.000000E+00,9.698115E-02,1.879466E+03,9.698115E-02,7.712378E+02,2.565152E+03,3.542256E-01,9.837791E+03,7.351799E-02,0.000000E+00,0.000000E+00,7.351799E-02,1.424757E+03,7.351799E-02,5.846482E+02,1.944551E+03,2.230225E-01,6.082185E+03,4.361182E-02,0.000000E+00,0.000000E+00,4.361182E-02,8.451841E+02,7.557052E-02,7.930715E+02,1.770316E+03,3.376072E-01,9.520418E+03,7.351799E-02,0.000000E+00,0.000000E+00,7.351799E-02,1.424757E+03,7.351799E-02,5.846482E+02,1.944551E+03,2.228033E-01,6.077998E+03,4.361182E-02,0.000000E+00,0.000000E+00,4.361182E-02,8.451841E+02,5.430913E-02,4.962015E+02,1.365309E+03
06:10:00,2.490320E-01,8.809835E+03,9.698115E-02,0.000000E+00,0.000000E+00,9.698115E-02,1.867301E+03,1.745506E-01,1.839347E+03,4.167214E+03,3.429467E-01,9.622386E+03,7.351799E-02,0.000000E+00,0.000000E+00,7.351799E-02,1.415535E+03,1.430728E-01,1.540772E+03,3.280331E+03,2.155034E-01,5.938582E+03,4.361182E-02,0.000000E+00,0.000000E+00,4.361182E-02,8.397134E+02,1.360205E-01,1.610354E+03,2.774643E+03,3.263283E-01,9.305013E+03,7.351799E-02,0.000000E+00,0.000000E+00,7.351799E-02,1.415535E+03,1.397646E-01,1.495723E+03,3.234785E+03,2.152842E-01,5.934395E+03,4.361182E-02,0.000000E+00,0.000000E+00,4.361182E-02,8.397134E+02,1.006933E-01,1.129395E+03,2.205621E+03
06:20:00,2.288460E-01,8.424203E+03,9.698115E-02,0.000000E+00,0.000000E+00,9.698115E-02,1.855135E+03,2.546776E-01,2.871905E+03,5.536519E+03,3.316691E-01,9.406968E+03,7.351799E-02,0.000000E+00,0.000000E+00,7.351799E-02,1.406313E+03,2.103110E-01,2.404347E+03,4.361201E+03,2.079855E-01,5.794973E+03,4.361182E-02,0.000000E+00,0.000000E+00,4.361182E-02,8.342428E+02,1.966228E-01,2.372852E+03,3.616229E+03,3.150507E-01,9.089595E+03,7.351799E-02,0.000000E+00,0.000000E+00,7.351799E-02,1.406313E+03,2.067314E-01,2.357182E+03,4.324957E+03,2.077662E-01,5.790786E+03,4.361182E-02,0.000000E+00,0.000000E+00,4.361182E-02,8.342428E+02,1.437382E-01,1.676257E+03,2.857631E+03
06:30:00,2.086555E-01,8.038497E+03,9.698115E-02,0.000000E+00,0.000000E+00,9.698115E-02,1.842970E+03,3.278505E-01,3.743183E+03,6.441335E+03,3.203916E-01,9.191516E+03,7.351799E-02,0.000000E+00,0.000000E+00,7.351799E-02,1.397091E+03,2.717013E-01,3.132389E+03,5.102672E+03,2.004678E-01,5.651344E+03,4.361182E-02,0.000000E+00,0.000000E+00,4.361182E-02,8.287721E+02,2.531495E-01,3.028189E+03,4.211010E+03,3.037730E-01,8.874144E+03,7.351799E-02,0.000000E+00,0.000000E+00,7.351799E-02,1.397091E+03,2.676705E-01,3.081089E+03,5.062125E+03,2.002486E-01,5.647157E+03,4.361182E-02,0.000000E+00,0.000000E+00,4.361182E-02,8.287721E+02,1.827154E-01,2.132155E+03,3.302552E+03
06:40:00,1.884613E-01,7.652742E+03,9.698115E-02,0.000000E+00,0.000000E+00,9.698115E-02,1.830805E+03,3.971689E-01,4.501053E+03,7.259233E+03,3.091128E-01,8.976018E+03,7.351799E-02,0.000000E+00,0.000000E+00,7.351799E-02,1.387869E+03,3.298980E-01,3.765757E+03,5.778264E+03,1.929494E-01,5.507686E+03,4.361182E-02,0.000000E+00,0.000000E+00,4.361182E-02,8.233015E+02,3.074288E-01,3.604853E+03,4.798498E+03,2.924939E-01,8.658647E+03,7.351799E-02,0.000000E+00,0.000000E+00,7.351799E-02,1.387869E+03,3.253200E-01,3.709558E+03,5.731029E+03,1.927301E-01,5.503499E+03,4.361182E-02,0.000000E+00,0.000000E+00,4.361182E-02,8.233015E+02,2.193732E-01,2.524362E+03,3.716460E+03
06:50:00,1.682639E-01,7.266951E+03,9.698115E-02,0.000000E+00,0.000000E+00,9.698115E-02,1.818639E+03,4.634026E-01,5.159822E+03,7.984207E+03,2.978319E-01,8.760472E+03,7.351799E-02,0.000000E+00,0.000000E+00,7.351799E-02,1.378646E+03,3.856192E-01,4.317269E+03,6.381659E+03,1.854296E-01,5.363998E+03,4.361182E-02,0.000000E+00,0.000000E+00,4.361182E-02,8.178308E+02,3.598023E-01,4.109961E+03,5.336451E+03,2.812127E-01,8.443105E+03,7.351799E-02,0.000000E+00,0.000000E+00,7.351799E-02,1.378646E+03,3.804126E-01,4.255706E+03,6.326948E+03,1.852103E-01,5.359811E+03,4.361182E-02,0.000000E+00,0.000000E+00,4.361182E-02,8.178308E+02,2.542408E-01,2.862280E+03,4.087919E+03
07:00:00,1.480635E-01,6.881132E+03,9.698115E-02,0.000000E+00,0.000000E+00,9.698115E-02,1.806474E+03,5.270745E-01,5.729582E+03,8.640887E+03,2.865487E-01,8.544880E+03,7.351799E-02,0.000000E+00,0.000000E+00,7.351799E-02,1.369424E+03,4.393616E-01,4.795904E+03,6.928183E+03,1.779083E-01,5.220281E+03,4.361182E-02,0.000000E+00,0.000000E+00,4.361182E-02,8.123601E+02,4.104981E-01,4.548639E+03,5.821982E+03,2.699292E-01,8.227518E+03,7.351799E-02,0.000000E+00,0.000000E+00,7.351799E-02,1.369424E+03,4.333269E-01,4.727276E+03,6.864916E+03,1.776890E-01,5.216094E+03,4.361182E-02,0.000000E+00,0.000000E+00,4.361182E-02,8.123601E+02,2.876936E-01,3.152587E+03,4.423552E+03
07:10:00,1.480437E-01,6.880713E+03,9.698115E-02,0.000000E+00,0.000000E+00,9.698115E-02,1.776930E+03,4.991415E-01,5.401321E+03,8.286776E+03,2.865425E-01,8.544634E+03,7.351799E-02,0.000000E+00,0.000000E+00,7.351799E-02,1.347028E+03,4.198716E-01,4.561897E+03,6.695815E+03,1.779048E-01,5.220126E+03,4.361182E-02,0.000000E+00,0.000000E+00,4.361182E-02,7.990743E+02,4.095301E-01,4.513394E+03,5.813043E+03,2.699227E-01,8.227278E+03,7.351799E-02,0.000000E+00,0.000000E+00,7.351799E-02,1.347028E+03,4.134155E-01,4.489167E+03,6.625951E+03,1.776855E-01,5.215939E+03,4.361182E-02,0.000000E+00,0.000000E+00,4.361182E-02,7.990743E+02,2.744938E-01,2.992496E+03,4.270973E+03
07:20:00,1.480248E-01,6.880339E+03,9.698115E-02,0.000000E+00,0.000000E+00,9.698115E-02,1.747385E+03,4.803623E-01,5.217315E+03,8.127450E+03,2.865327E-01,8.544345E+03,7.351799E-02,0.000000E+00,0.000000E+00,7.351799E-02,1.324631E+03,4.057219E-01,4.423035E+03,6.585886E+03,1.778986E-01,5.219939E+03,4.361182E-02,0.000000E+00,0.000000E+00,4.361182E-02,7.857884E+02,4.074805E-01,4.500980E+03,5.832877E+03,2.699127E-01,8.226995E+03,7.351799E-02,0.000000E+00,0.000000E+00,7.351799E-02,1.324631E+03,3.981014E-01,4.337267E+03,6.500429E+03,1.776793E-01,5.215752E+03,4.361182E-02,0.000000E+00,0.000000E+00,4.361182E-02,7.857884E+02,2.637853E-01,2.883845E+03,4.182446E+03
07:30:00,1.480082E-01,6.880013E+03,9.698115E-02,0.000000E+00,0.000000E+00,9.698115E-02,1.717841E+03,4.669886E-01,5.096434E+03,8.059190E+03,2.865207E-01,8.544044E+03,7.351799E-02,0.000000E+00,0.000000E+00,7.351799E-02,1.302235E+03,3.964291E-01,4.340869E+03,6.550119E+03,1.778908E-01,5.219741E+03,4.361182E-02,0.000000E+00,0.000000E+00,4.361182E-02,7.725025E+02,4.079667E-01,4.519623E+03,5.889774E+03,2.699008E-01,8.226702E+03,7.351799E-02,0.000000E+00,0.000000E+00,7.351799E-02,1.302235E+03,3.876019E-01,4.241531E+03,6.449095E+03,1.776715E-01,5.215555E+03,4.361182E-02,0.000000E+00,0.000000E+00,4.361182E-02,7.725025E+02,2.564020E-01,2.814030E+03,4.142227E+03
07:40:00,1.479932E-01,6.879717E+03,9.698115E-02,0.000000E+00,0.000000E+00,9.698115E-02,1.688297E+03,4.561213E-01,5.003769E+03,8.034109E+03,2.865082E-01,8.543755E+03,7.351799E-02,0.000000E+00,0.000000E+00,7.351799E-02,1.279838E+03,3.894543E-01,4.284829E+03,6.549561E+03,1.778825E-01,5.219550E+03,4.361182E-02,0.000000E+00,0.000000E+00,4.361182E-02,7.592166E+02,4.089028E-01,4.543471E+03,5.954435E+03,2.698884E-01,8.226419E+03,7.351799E-02,0.000000E+00,0.000000E+00,7.351799E-02,1.279838E+03,3.794925E-01,4.172726E+03,6.434086E+03,1.776632E-01,5.215363E+03,4.361182E-02,0.000000E+00,0.000000E+00,4.361182E-02,7.592166E+02,2.507203E-01,2.763406E+03,4.125538E+03
07:50:00,1.479794E-01,6.879447E+03,9.698115E-02,0.000000E+00,0.000000E+00,9.698115E-02,1.658753E+03,4.472002E-01,4.932971E+03,8.040306E+03,2.864961E-01,8.543489E+03,7.351799E-02,0.000000E+00,0.000000E+00,7.351799E-02,1.257442E+03,3.841994E-01,4.248122E+03,6.574166E+03,1.778743E-01,5.219373E+03,4.361182E-02,0.000000E+00,0.000000E+00,4.361182E-02,7.459307E+02,4.098669E-01,4.567626E+03,6.021022E+03,2.698764E-01,8.226157E+03,7.351799E-02,0.000000E+00,0.000000E+00,7.351799E-02,1.257442E+03,3.732452E-01,4.124852E+03,6.446128E+03,1.776551E-01,5.215186E+03,4.361182E-02,0.000000E+00,0.000000E+00,4.361182E-02,7.459307E+02,2.463210E-01,2.727202E+03,4.126344E+03
08:00:00,1.479668E-01,6.879201E+03,9.698115E-02,0.000000E+00,0.000000E+00,9.698115E-02,1.629208E+03,4.397997E-01,4.879268E+03,8.070120E+03,2.864848E-01,8.543249E+03,7.351799E-02,0.000000E+00,0.000000E+00,7.351799E-02,1.235045E+03,3.802986E-01,4.226642E+03,6.618121E+03,1.778668E-01,5.219213E+03,4.361182E-02,0.000000E+00,0.000000E+00,4.361182E-02,7.326448E+02,4.104621E-01,4.587625E+03,6.084469E+03,2.698652E-01,8.225920E+03,7.351799E-02,0.000000E+00,0.000000E+00,7.351799E-02,1.235045E+03,3.686233E-01,4.095257E+03,6.481037E+03,1.776475E-01,5.215026E+03,4.361182E-02,0.000000E+00,0.000000E+00,4.361182E-02,7.326448E+02,2.429622E-01,2.702701E+03,4.141075E+03
08:10:00,1.479553E-01,6.878976E+03,9.698115E-02,0.000000E+00,0.000000E+00,9.698115E-02,1.596188E+03,4.335974E-01,4.842514E+03,8.108888E+03,2.864744E-01,8.543036E+03,7.351799E-02,0.000000E+00,0.000000E+00,7.351799E-02,1.210014E+03,3.773037E-01,4.217987E+03,6.668128E+03,1.778599E-01,5.219071E+03,4.361182E-02,0.000000E+00,0.000000E+00,4.361182E-02,7.177959E+02,4.105496E-01,4.603470E+03,6.138643E+03,2.698549E-01,8.225708E+03,7.351799E-02,0.000000E+00,0.000000E+00,7.351799E-02,1.210014E+03,3.651031E-01,4.080690E+03,6.524483E+03,1.776406E-01,5.214884E+03,4.361182E-02,0.000000E+00,0.000000E+00,4.361182E-02,7.177959E+02,2.403535E-01,2.688201E+03,4.161662E+03
08:20:00,1.479448E-01,6.878771E+03,9.698115E-02,0.000000E+00,0.000000E+00,9.698115E-02,1.563168E+03,4.283916E-01,4.816969E+03,8.085479E+03,2.864652E-01,8.542847E+03,7.351799E-02,0.000000E+00,0.000000E+00,7.351799E-02,1.184983E+03,3.749657E-01,4.216720E+03,6.669539E+03,1.778536E-01,5.218945E+03,4.361182E-02,0.000000E+00,0.000000E+00,4.361182E-02,7.029469E+02,4.100546E-01,4.612760E+03,6.151437E+03,2.698457E-01,8.225520E+03,7.351799E-02,0.000000E+00,0.000000E+00,7.351799E-02,1.184983E+03,3.623906E-01,4.075208E+03,6.521226E+03,1.776344E-01,5.214759E+03,4.361182E-02,0.000000E+00,0.000000E+00,4.361182E-02,7.029469E+02,2.383193E-01,2.680166E+03,4.155336E+03
08:30:00,1.479353E-01,6.878584E+03,9.698115E-02,0.000000E+00,0.000000E+00,9.698115E-02,1.530148E+03,4.240352E-01,4.800968E+03,8.070673E+03,2.864569E-01,8.542681E+03,7.351799E-02,0.000000E+00,0.000000E+00,7.351799E-02,1.159951E+03,3.731246E-01,4.221033E+03,6.675686E+03,1.778481E-01,5.218835E+03,4.361182E-02,0.000000E+00,0.000000E+00,4.361182E-02,6.880980E+02,4.090805E-01,4.616649E+03,6.156988E+03,2.698374E-01,8.225354E+03,7.351799E-02,0.000000E+00,0.000000E+00,7.351799E-02,1.159951E+03,3.603154E-01,4.076888E+03,6.524490E+03,1.776288E-01,5.214648E+03,4.361182E-02,0.000000E+00,0.000000E+00,4.361182E-02,6.880980E+02,2.367429E-01,2.677275E+03,4.153489E+03
08:40:00,1.479265E-01,6.878415E+03,9.698115E-02,0.000000E+00,0.000000E+00,9.698115E-02,1.497128E+03,4.203557E-01,4.792579E+03,8.062734E+03,2.864495E-01,8.542535E+03,7.351799E-02,0.000000E+00,0.000000E+00,7.351799E-02,1.134920E+03,3.716721E-01,4.229717E+03,6.685582E+03,1.778432E-01,5.218738E+03,4.361182E-02,0.000000E+00,0.000000E+00,4.361182E-02,6.732491E+02,4.076967E-01,4.615922E+03,6.156970E+03,2.698300E-01,8.225208E+03,7.351799E-02,0.000000E+00,0.000000E+00,7.351799E-02,1.134920E+03,3.587138E-01,4.083893E+03,6.532563E+03,1.776239E-01,5.214551E+03,4.361182E-02,0.000000E+00,0.000000E+00,4.361182E-02,6.732491E+02,2.355215E-01,2.678377E+03,4.155184E+03
08:50:00,1.479186E-01,6.878260E+03,9.698115E-02,0.000000E+00,0.000000E+00,9.698115E-02,1.464108E+03,4.172127E-01,4.790226E+03,8.060428E+03,2.864430E-01,8.542407E+03,7.351799E-02,0.000000E+00,0.000000E+00,7.351799E-02,1.109888E+03,3.705226E-01,4.241810E+03,6.698529E+03,1.778388E-01,5.218652E+03,4.361182E-02,0.000000E+00,0.000000E+00,4.361182E-02,6.584001E+02,4.058832E-01,4.610361E+03,6.151658E+03,2.698234E-01,8.225078E+03,7.351799E-02,0.000000E+00,0.000000E+00,7.351799E-02,1.109888E+03,3.574925E-01,4.095179E+03,6.544664E+03,1.776196E-01,5.214466E+03,4.361182E-02,0.000000E+00,0.000000E+00,4.361182E-02,6.584001E+02,2.345939E-01,2.682784E+03,4.159984E+03
09:00:00,1.479114E-01,6.878120E+03,9.698115E-02,0.000000E+00,0.000000E+00,9.698115E-02,1.431088E+03,4.144915E-01,4.792621E+03,8.062652E+03,2.864372E-01,8.542293E+03,7.351799E-02,0.000000E+00,0.000000E+00,7.351799E-02,1.084857E+03,3.695590E-01,4.255996E+03,6.713243E+03,1.778350E-01,5.218577E+03,4.361182E-02,0.000000E+00,0.000000E+00,4.361182E-02,6.435512E+02,4.037078E-01,4.600728E+03,6.142136E+03,2.698176E-01,8.224963E+03,7.351799E-02,0.000000E+00,0.000000E+00,7.351799E-02,1.084857E+03,3.564895E-01,4.108921E+03,6.558961E+03,1.776157E-01,5.214390E+03,4.361182E-02,0.000000E+00,0.000000E+00,4.361182E-02,6.435512E+02,2.338445E-01,2.689199E+03,4.166613E+03
09:10:00,1.479048E-01,6.877992E+03,9.698115E-02,0.000000E+00,0.000000E+00,9.698115E-02,1.401543E+03,4.120850E-01,4.795083E+03,8.064716E+03,2.864320E-01,8.542192E+03,7.351799E-02,0.000000E+00,0.000000E+00,7.351799E-02,1.062461E+03,3.688281E-01,4.270166E+03,6.727751E+03,1.778315E-01,5.218510E+03,4.361182E-02,0.000000E+00,0.000000E+00,4.361182E-02,6.302653E+02,4.009947E-01,4.583482E+03,6.124835E+03,2.698124E-01,8.224862E+03,7.351799E-02,0.000000E+00,0.000000E+00,7.351799E-02,1.062461E+03,3.556627E-01,4.122011E+03,6.572408E+03,1.776123E-01,5.214324E+03,4.361182E-02,0.000000E+00,0.000000E+00,4.361182E-02,6.302653E+02,2.332529E-01,2.695826E+03,4.173351E+03
09:20:00,1.478987E-01,6.877874E+03,9.698115E-02,0.000000E+00,0.000000E+00,9.698115E-02,1.371999E+03,4.099272E-01,4.800343E+03,8.069519E+03,2.864274E-01,8.542103E+03,7.351799E-02,0.000000E+00,0.000000E+00,7.351799E-02,1.040064E+03,3.684108E-01,4.287865E+03,6.745794E+03,1.778285E-01,5.218451E+03,4.361182E-02,0.000000E+00,0.000000E+00,4.361182E-02,6.169794E+02,3.975131E-01,4.557589E+03,6.098814E+03,2.698077E-01,8.224771E+03,7.351799E-02,0.000000E+00,0.000000E+00,7.351799E-02,1.040064E+03,3.549768E-01,4.136688E+03,6.587396E+03,1.776092E-01,5.214265E+03,4.361182E-02,0.000000E+00,0.000000E+00,4.361182E-02,6.169794E+02,2.327937E-01,2.703943E+03,4.181573E+03
09:30:00,1.478932E-01,6.877767E+03,9.698115E-02,0.000000E+00,0.000000E+00,9.698115E-02,1.342455E+03,4.079676E-01,4.807835E+03,8.076531E+03,2.864232E-01,8.542023E+03,7.351799E-02,0.000000E+00,0.000000E+00,7.351799E-02,1.017668E+03,3.684170E-01,4.310330E+03,6.768675E+03,1.778257E-01,5.218398E+03,4.361182E-02,0.000000E+00,0.000000E+00,4.361182E-02,6.036935E+02,3.928427E-01,4.518318E+03,6.059461E+03,2.698035E-01,8.224690E+03,7.351799E-02,0.000000E+00,0.000000E+00,7.351799E-02,1.017668E+03,3.543838E-01,4.152411E+03,6.603405E+03,1.776064E-01,5.214212E+03,4.361182E-02,0.000000E+00,0.000000E+00,4.361182E-02,6.036935E+02,2.324381E-01,2.713228E+03,4.190975E+03
09:40:00,1.478881E-01,6.877669E+03,9.698115E-02,0.000000E+00,0.000000E+00,9.698115E-02,1.312910E+03,4.061665E-01,4.817110E+03,8.085322E+03,2.864195E-01,8.541950E+03,7.351799E-02,0.000000E+00,0.000000E+00,7.351799E-02,9.952711E+02,3.689603E-01,4.338841E+03,6.797726E+03,1.778232E-01,5.218351E+03,4.361182E-02,0.000000E+00,0.000000E+00,4.361182E-02,5.904076E+02,3.867669E-01,4.463232E+03,6.004401E+03,2.697997E-01,8.224617E+03,7.351799E-02,0.000000E+00,0.000000E+00,7.351799E-02,9.952711E+02,3.538600E-01,4.168912E+03,6.620189E+03,1.776040E-01,5.214164E+03,4.361182E-02,0.000000E+00,0.000000E+00,4.361182E-02,5.904076E+02,2.321767E-01,2.723571E+03,4.201463E+03
09:50:00,1.478834E-01,6.877578E+03,9.698115E-02,0.000000E+00,0.000000E+00,9.698115E-02,1.283366E+03,4.044920E-01,4.827810E+03,8.095539E+03,2.864161E-01,8.541885E+03,7.351799E-02,0.000000E+00,0.000000E+00,7.351799E-02,9.728746E+02,3.701207E-01,4.374294E+03,6.833912E+03,1.778210E-01,5.218308E+03,4.361182E-02,0.000000E+00,0.000000E+00,4.361182E-02,5.771218E+02,3.789953E-01,4.389063E+03,5.930031E+03,2.697963E-01,8.224551E+03,7.351799E-02,0.000000E+00,0.000000E+00,7.351799E-02,9.728746E+02,3.534206E-01,4.186364E+03,6.637930E+03,1.776017E-01,5.214121E+03,4.361182E-02,0.000000E+00,0.000000E+00,4.361182E-02,5.771218E+02,2.320247E-01,2.735147E+03,4.213210E+03
10:00:00,1.478791E-01,6.877495E+03,9.698115E-02,0.000000E+00,0.000000E+00,9.698115E-02,1.253822E+03,4.029324E-01,4.839792E+03,8.106892E+03,2.864130E-01,8.541826E+03,7.351799E-02,0.000000E+00,0.000000E+00,7.351799E-02,9.504782E+02,3.720107E-01,4.417949E+03,6.878854E+03,1.778190E-01,5.218269E+03,4.361182E-02,0.000000E+00,0.000000E+00,4.361182E-02,5.638359E+02,3.695847E-01,4.296441E+03,5.835944E+03,2.697931E-01,8.224491E+03,7.351799E-02,0.000000E+00,0.000000E+00,7.351799E-02,9.504782E+02,3.530350E-01,4.204413E+03,6.656193E+03,1.775997E-01,5.214082E+03,4.361182E-02,0.000000E+00,0.000000E+00,4.361182E-02,5.638359E+02,2.319624E-01,2.747726E+03,4.225960E+03
10:10:00,1.478751E-01,6.877417E+03,9.698115E-02,0.000000E+00,0.000000E+00,9.698115E-02,1.227753E+03,4.014519E-01,4.849184E+03,8.115772E+03,2.864101E-01,8.541771E+03,7.351799E-02,0.000000E+00,0.000000E+00,7.351799E-02,9.307165E+02,3.747004E-01,4.467963E+03,6.930300E+03,1.778171E-01,5.218233E+03,4.361182E-02,0.000000E+00,0.000000E+00,4.361182E-02,5.521130E+02,3.586342E-01,4.184923E+03,5.722682E+03,2.697903E-01,8.224436E+03,7.351799E-02,0.000000E+00,0.000000E+00,7.351799E-02,9.307165E+02,3.526562E-01,4.219898E+03,6.671831E+03,1.775979E-01,5.214047E+03,4.361182E-02,0.000000E+00,0.000000E+00,4.361182E-02,5.521130E+02,2.319563E-01,2.759370E+03,4.237752E+03
10:20:00,1.478713E-01,6.877346E+03,9.698115E-02,0.000000E+00,0.000000E+00,9.698115E-02,1.201685E+03,4.000394E-01,4.859339E+03,8.125420E+03,2.864075E-01,8.541721E+03,7.351799E-02,0.000000E+00,0.000000E+00,7.351799E-02,9.109549E+02,3.781880E-01,4.526957E+03,6.991160E+03,1.778154E-01,5.218201E+03,4.361182E-02,0.000000E+00,0.000000E+00,4.361182E-02,5.403902E+02,3.464803E-01,4.059864E+03,5.594606E+03,2.697876E-01,8.224385E+03,7.351799E-02,0.000000E+00,0.000000E+00,7.351799E-02,9.109549E+02,3.522823E-01,4.235438E+03,6.687557E+03,1.775961E-01,5.214014E+03,4.361182E-02,0.000000E+00,0.000000E+00,4.361182E-02,5.403902E+02,2.319991E-01,2.771566E+03,4.250158E+03
10:30:00,1.478679E-01,6.877279E+03,9.698115E-02,0.000000E+00,0.000000E+00,9.698115E-02,1.175616E+03,3.986871E-01,4.870173E+03,8.135780E+03,2.864051E-01,8.541675E+03,7.351799E-02,0.000000E+00,0.000000E+00,7.351799E-02,8.911933E+02,3.824288E-01,4.594425E+03,7.060856E+03,1.778138E-01,5.218171E+03,4.361182E-02,0.000000E+00,0.000000E+00,4.361182E-02,5.286673E+02,3.337877E-01,3.928742E+03,5.459566E+03,2.697852E-01,8.224339E+03,7.351799E-02,0.000000E+00,0.000000E+00,7.351799E-02,8.911933E+02,3.519248E-01,4.251164E+03,6.703516E+03,1.775946E-01,5.213984E+03,4.361182E-02,0.000000E+00,0.000000E+00,4.361182E-02,5.286673E+02,2.320880E-01,2.784279E+03,4.263148E+03
10:40:00,1.478646E-01,6.877217E+03,9.698115E-02,0.000000E+00,0.000000E+00,9.698115E-02,1.149548E+03,3.973919E-01,4.881650E+03,8.146809E+03,2.864029E-01,8.541632E+03,7.351799E-02,0.000000E+00,0.000000E+00,7.351799E-02,8.714317E+02,3.873273E-01,4.669294E+03,7.138234E+03,1.778124E-01,5.218143E+03,4.361182E-02,0.000000E+00,0.000000E+00,4.361182E-02,5.169445E+02,3.211288E-01,3.798001E+03,5.324127E+03,2.697830E-01,8.224296E+03,7.351799E-02,0.000000E+00,0.000000E+00,7.351799E-02,8.714317E+02,3.515829E-01,4.267064E+03,6.719667E+03,1.775931E-01,5.213956E+03,4.361182E-02,0.000000E+00,0.000000E+00,4.361182E-02,5.169445E+02,2.322074E-01,2.797338E+03,4.276513E+03
10:50:00,1.478616E-01,6.877158E+03,9.698115E-02,0.000000E+00,0.000000E+00,9.698115E-02,1.123479E+03,3.961542E-01,4.893775E+03,8.158511E+03,2.864008E-01,8.541592E+03,7.351799E-02,0.000000E+00,0.000000E+00,7.351799E-02,8.516701E+02,3.928317E-01,4.750982E+03,7.222731E+03,1.778110E-01,5.218117E+03,4.361182E-02,0.000000E+00,0.000000E+00,4.361182E-02,5.052217E+02,3.092207E-01,3.675708E+03,5.196752E+03,2.697809E-01,8.224256E+03,7.351799E-02,0.000000E+00,0.000000E+00,7.351799E-02,8.516701E+02,3.512270E-01,4.282808E+03,6.735599E+03,1.775917E-01,5.213930E+03,4.361182E-02,0.000000E+00,0.000000E+00,4.361182E-02,5.052217E+02,2.323216E-01,2.810336E+03,4.289786E+03
11:00:00,1.478587E-01,6.877103E+03,9.698115E-02,0.000000E+00,0.000000E+00,9.698115E-02,1.097411E+03,3.949635E-01,4.906438E+03,8.170748E+03,2.863988E-01,8.541555E+03,7.351799E-02,0.000000E+00,0.000000E+00,7.351799E-02,8.319085E+02,3.987892E-01,4.837777E+03,7.312508E+03,1.778097E-01,5.218092E+03,4.361182E-02,0.000000E+00,0.000000E+00,4.361182E-02,4.934988E+02,2.984758E-01,3.566512E+03,5.082271E+03,2.697789E-01,8.224218E+03,7.351799E-02,0.000000E+00,0.000000E+00,7.351799E-02,8.319085E+02,3.508818E-01,4.298681E+03,6.751616E+03,1.775905E-01,5.213906E+03,4.361182E-02,0.000000E+00,0.000000E+00,4.361182E-02,4.934988E+02,2.324330E-01,2.823309E+03,4.303004E+03
11:10:00,1.478561E-01,6.877052E+03,9.698115E-02,0.000000E+00,0.000000E+00,9.698115E-02,1.080032E+03,3.938268E-01,4.911026E+03,8.174720E+03,2.863970E-01,8.541519E+03,7.351799E-02,0.000000E+00,0.000000E+00,7.351799E-02,8.187341E+02,4.050124E-01,4.920981E+03,7.398630E+03,1.778085E-01,5.218069E+03,4.361182E-02,0.000000E+00,0.000000E+00,4.361182E-02,4.856836E+02,2.892676E-01,3.470705E+03,4.981264E+03,2.697770E-01,8.224182E+03,7.351799E-02,0.000000E+00,0.000000E+00,7.351799E-02,8.187341E+02,3.505582E-01,4.308213E+03,6.761132E+03,1.775893E-01,5.213883E+03,4.361182E-02,0.000000E+00,0.000000E+00,4.361182E-02,4.856836E+02,2.325366E-01,2.832290E+03,4.312128E+03
11:20:00,1.478535E-01,6.877003E+03,9.698115E-02,0.000000E+00,0.000000E+00,9.698115E-02,1.062653E+03,3.927452E-01,4.916234E+03,8.179391E+03,2.863952E-01,8.541486E+03,7.351799E-02,0.000000E+00,0.000000E+00,7.351799E-02,8.055597E+02,4.113506E-01,5.005480E+03,7.486154E+03,1.778074E-01,5.218048E+03,4.361182E-02,0.000000E+00,0.000000E+00,4.361182E-02,4.778684E+02,2.817745E-01,3.394198E+03,4.900129E+03,2.697753E-01,8.224149E+03,7.351799E-02,0.000000E+00,0.000000E+00,7.351799E-02,8.055597E+02,3.502658E-01,4.318098E+03,6.771073E+03,1.775881E-01,5.213861E+03,4.361182E-02,0.000000E+00,0.000000E+00,4.361182E-02,4.778684E+02,2.326298E-01,2.841154E+03,4.321174E+03
11:30:00,1.478511E-01,6.876956E+03,9.698115E-02,0.000000E+00,0.000000E+00,9.698115E-02,1.045274E+03,3.917433E-01,4.922325E+03,8.184842E+03,2.863936E-01,8.541454E+03,7.351799E-02,0.000000E+00,0.000000E+00,7.351799E-02,7.923853E+02,4.176648E-01,5.089695E+03,7.574397E+03,1.778063E-01,5.218027E+03,4.361182E-02,0.000000E+00,0.000000E+00,4.361182E-02,4.700531E+02,2.759099E-01,3.336010E+03,4.837566E+03,2.697736E-01,8.224117E+03,7.351799E-02,0.000000E+00,0.000000E+00,7.351799E-02,7.923853E+02,3.500259E-01,4.328562E+03,6.781629E+03,1.775871E-01,5.213841E+03,4.361182E-02,0.000000E+00,0.000000E+00,4.361182E-02,4.700531E+02,2.327199E-01,2.849976E+03,4.330217E+03
11:40:00,1.478488E-01,6.876913E+03,9.698115E-02,0.000000E+00,0.000000E+00,9.698115E-02,1.027895E+03,3.907966E-01,4.929024E+03,8.191183E+03,2.863920E-01,8.541424E+03,7.351799E-02,0.000000E+00,0.000000E+00,7.351799E-02,7.792108E+02,4.238034E-01,5.171922E+03,7.659265E+03,1.778053E-01,5.218008E+03,4.361182E-02,0.000000E+00,0.000000E+00,4.361182E-02,4.622379E+02,2.715296E-01,3.294515E+03,4.793620E+03,2.697721E-01,8.224087E+03,7.351799E-02,0.000000E+00,0.000000E+00,7.351799E-02,7.792108E+02,3.498238E-01,4.339441E+03,6.792653E+03,1.775860E-01,5.213821E+03,4.361182E-02,0.000000E+00,0.000000E+00,4.361182E-02,4.622379E+02,2.327948E-01,2.858620E+03,4.339038E+03
11:50:00,1.478466E-01,6.876871E+03,9.698115E-02,0.000000E+00,0.000000E+00,9.698115E-02,1.010516E+03,3.899066E-01,4.936359E+03,8.198151E+03,2.863905E-01,8.541396E+03,7.351799E-02,0.000000E+00,0.000000E+00,7.351799E-02,7.660364E+02,4.296170E-01,5.250490E+03,7.740594E+03,1.778043E-01,5.217989E+03,4.361182E-02,0.000000E+00,0.000000E+00,4.361182E-02,4.544227E+02,2.683577E-01,3.266618E+03,4.763944E+03,2.697706E-01,8.224059E+03,7.351799E-02,0.000000E+00,0.000000E+00,7.351799E-02,7.660364E+02,3.496586E-01,4.350734E+03,6.804091E+03,1.775851E-01,5.213803E+03,4.361182E-02,0.000000E+00,0.000000E+00,4.361182E-02,4.544227E+02,2.328536E-01,2.867082E+03,4.347662E+03
12:00:00,1.478446E-01,6.876831E+03,9.698115E-02,0.000000E+00,0.000000E+00,9.698115E-02,9.931368E+02,3.890701E-01,4.944298E+03,8.205761E+03,2.863891E-01,8.541368E+03,7.351799E-02,0.000000E+00,0.000000E+00,7.351799E-02,7.528620E+02,4.349923E-01,5.324125E+03,7.816789E+03,1.778034E-01,5.217972E+03,4.361182E-02,0.000000E+00,0.000000E+00,4.361182E-02,4.466074E+02,2.660823E-01,3.248809E+03,4.744989E+03,2.697691E-01,8.224032E+03,7.351799E-02,0.000000E+00,0.000000E+00,7.351799E-02,7.528620E+02,3.495254E-01,4.362388E+03,6.815887E+03,1.775841E-01,5.213785E+03,4.361182E-02,0.000000E+00,0.000000E+00,4.361182E-02,4.466074E+02,2.328956E-01,2.875355E+03,4.356072E+03
12:10:00,1.478426E-01,6.876793E+03,9.698115E-02,0.000000E+00,0.000000E+00,9.698115E-02,9.792336E+02,3.882949E-01,4.949449E+03,8.210559E+03,2.863877E-01,8.541342E+03,7.351799E-02,0.000000E+00,0.000000E+00,7.351799E-02,7.423225E+02,4.398537E-01,5.389342E+03,7.884318E+03,1.778025E-01,5.217955E+03,4.361182E-02,0.000000E+00,0.000000E+00,4.361182E-02,4.403553E+02,2.644111E-01,3.236237E+03,4.731616E+03,2.697678E-01,8.224005E+03,7.351799E-02,0.000000E+00,0.000000E+00,7.351799E-02,7.423225E+02,3.494447E-01,4.371997E+03,6.825616E+03,1.775833E-01,5.213768E+03,4.361182E-02,0.000000E+00,0.000000E+00,4.361182E-02,4.403553E+02,2.329389E-01,2.882079E+03,4.362900E+03
12:20:00,1.478407E-01,6.876756E+03,9.698115E-02,0.000000E+00,0.000000E+00,9.698115E-02,9.653304E+02,3.875735E-01,4.955207E+03,8.216036E+03,2.863864E-01,8.541317E+03,7.351799E-02,0.000000E+00,0.000000E+00,7.351799E-02,7.317830E+02,4.441142E-01,5.447797E+03,7.944902E+03,1.778017E-01,5.217939E+03,4.361182E-02,0.000000E+00,0.000000E+00,4.361182E-02,4.341031E+02,2.631428E-01,3.228199E+03,4.723007E+03,2.697664E-01,8.223980E+03,7.351799E-02,0.000000E+00,0.000000E+00,7.351799E-02,7.317830E+02,3.494100E-01,4.382124E+03,6.835924E+03,1.775824E-01,5.213752E+03,4.361182E-02,0.000000E+00,0.000000E+00,4.361182E-02,4.341031E+02,2.329835E-01,2.888819E+03,4.369766E+03
12:30:00,1.478388E-01,6.876721E+03,9.698115E-02,0.000000E+00,0.000000E+00,9.698115E-02,9.514272E+02,3.868759E-01,4.961245E+03,8.221795E+03,2.863851E-01,8.541293E+03,7.351799E-02,0.000000E+00,0.000000E+00,7.351799E-02,7.212434E+02,4.476841E-01,5.498494E+03,7.997483E+03,1.778009E-01,5.217923E+03,4.361182E-02,0.000000E+00,0.000000E+00,4.361182E-02,4.278509E+02,2.622212E-01,3.224070E+03,4.718538E+03,2.697652E-01,8.223956E+03,7.351799E-02,0.000000E+00,0.000000E+00,7.351799E-02,7.212434E+02,3.493997E-01,4.392536E+03,6.846535E+03,1.775816E-01,5.213736E+03,4.361182E-02,0.000000E+00,0.000000E+00,4.361182E-02,4.278509E+02,2.330198E-01,2.895471E+03,4.376543E+03
12:40:00,1.478371E-01,6.876688E+03,9.698115E-02,0.000000E+00,0.000000E+00,9.698115E-02,9.375240E+02,3.862194E-01,4.967760E+03,8.228075E+03,2.863839E-01,8.541270E+03,7.351799E-02,0.000000E+00,0.000000E+00,7.351799E-02,7.107039E+02,4.505275E-01,5.541031E+03,8.041645E+03,1.778001E-01,5.217908E+03,4.361182E-02,0.000000E+00,0.000000E+00,4.361182E-02,4.215987E+02,2.615282E-01,3.222523E+03,4.716764E+03,2.697640E-01,8.223933E+03,7.351799E-02,0.000000E+00,0.000000E+00,7.351799E-02,7.107039E+02,3.494247E-01,4.403356E+03,6.857578E+03,1.775808E-01,5.213721E+03,4.361182E-02,0.000000E+00,0.000000E+00,4.361182E-02,4.215987E+02,2.330571E-01,2.902143E+03,4.383343E+03
12:50:00,1.478354E-01,6.876655E+03,9.698115E-02,0.000000E+00,0.000000E+00,9.698115E-02,9.236208E+02,3.856291E-01,4.975021E+03,8.235075E+03,2.863827E-01,8.541247E+03,7.351799E-02,0.000000E+00,0.000000E+00,7.351799E-02,7.001644E+02,4.526109E-01,5.575016E+03,8.077106E+03,1.777993E-01,5.217894E+03,4.361182E-02,0.000000E+00,0.000000E+00,4.361182E-02,4.153465E+02,2.610227E-01,3.223086E+03,4.717152E+03,2.697628E-01,8.223911E+03,7.351799E-02,0.000000E+00,0.000000E+00,7.351799E-02,7.001644E+02,3.495012E-01,4.414756E+03,6.869287E+03,1.775801E-01,5.213707E+03,4.361182E-02,0.000000E+00,0.000000E+00,4.361182E-02,4.153465E+02,2.331075E-01,2.908962E+03,4.390328E+03
13:00:00,1.478338E-01,6.876624E+03,9.698115E-02,0.000000E+00,0.000000E+00,9.698115E-02,9.097176E+02,3.850640E-01,4.982517E+03,8.242357E+03,2.863816E-01,8.541226E+03,7.351799E-02,0.000000E+00,0.000000E+00,7.351799E-02,6.896249E+02,4.538877E-01,5.599882E+03,8.102810E+03,1.777986E-01,5.217880E+03,4.361182E-02,0.000000E+00,0.000000E+00,4.361182E-02,4.090943E+02,2.606509E-01,3.225129E+03,4.719107E+03,2.697617E-01,8.223889E+03,7.351799E-02,0.000000E+00,0.000000E+00,7.351799E-02,6.896249E+02,3.496036E-01,4.426413E+03,6.881168E+03,1.775793E-01,5.213693E+03,4.361182E-02,0.000000E+00,0.000000E+00,4.361182E-02,4.090943E+02,2.331574E-01,2.915752E+03,4.397222E+03
13:10:00,1.478322E-01,6.876594E+03,9.698115E-02,0.000000E+00,0.000000E+00,9.698115E-02,9.010281E+02,3.845103E-01,4.984921E+03,8.244412E+03,2.863805E-01,8.541205E+03,7.351799E-02,0.000000E+00,0.000000E+00,7.351799E-02,6.830377E+02,4.543275E-01,5.611370E+03,8.114699E+03,1.777979E-01,5.217866E+03,4.361182E-02,0.000000E+00,0.000000E+00,4.361182E-02,4.051867E+02,2.603703E-01,3.225849E+03,4.719708E+03,2.697606E-01,8.223869E+03,7.351799E-02,0.000000E+00,0.000000E+00,7.351799E-02,6.830377E+02,3.497147E-01,4.434209E+03,6.889067E+03,1.775786E-01,5.213679E+03,4.361182E-02,0.000000E+00,0.000000E+00,4.361182E-02,4.051867E+02,2.331958E-01,2.920066E+03,4.401559E+03
13:20:00,1.478307E-01,6.876565E+03,9.698115E-02,0.000000E+00,0.000000E+00,9.698115E-02,8.923386E+02,3.839636E-01,4.987404E+03,8.246612E+03,2.863794E-01,8.541185E+03,7.351799E-02,0.000000E+00,0.000000E+00,7.351799E-02,6.764505E+02,4.539301E-01,5.613437E+03,8.116937E+03,1.777972E-01,5.217853E+03,4.361182E-02,0.000000E+00,0.000000E+00,4.361182E-02,4.012791E+02,2.601543E-01,3.227296E+03,4.721122E+03,2.697595E-01,8.223849E+03,7.351799E-02,0.000000E+00,0.000000E+00,7.351799E-02,6.764505E+02,3.498305E-01,4.442058E+03,6.897096E+03,1.775779E-01,5.213666E+03,4.361182E-02,0.000000E+00,0.000000E+00,4.361182E-02,4.012791E+02,2.332097E-01,2.924102E+03,4.405647E+03
13:30:00,1.478292E-01,6.876537E+03,9.698115E-02,0.000000E+00,0.000000E+00,9.698115E-02,8.836491E+02,3.834213E-01,4.989935E+03,8.248901E+03,2.863784E-01,8.541165E+03,7.351799E-02,0.000000E+00,0.000000E+00,7.351799E-02,6.698633E+02,4.527134E-01,5.606285E+03,8.109670E+03,1.777966E-01,5.217841E+03,4.361182E-02,0.000000E+00,0.000000E+00,4.361182E-02,3.973715E+02,2.599819E-01,3.229233E+03,4.723073E+03,2.697585E-01,8.223829E+03,7.351799E-02,0.000000E+00,0.000000E+00,7.351799E-02,6.698633E+02,3.499483E-01,4.449929E+03,6.905185E+03,1.775773E-01,5.213654E+03,4.361182E-02,0.000000E+00,0.000000E+00,4.361182E-02,3.973715E+02,2.331883E-01,2.927742E+03,4.409356E+03
13:40:00,1.478278E-01,6.876510E+03,9.698115E-02,0.000000E+00,0.000000E+00,9.698115E-02,8.749596E+02,3.828828E-01,4.992510E+03,8.251252E+03,2.863774E-01,8.541146E+03,7.351799E-02,0.000000E+00,0.000000E+00,7.351799E-02,6.632761E+02,4.507084E-01,5.590262E+03,8.093204E+03,1.777959E-01,5.217828E+03,4.361182E-02,0.000000E+00,0.000000E+00,4.361182E-02,3.934639E+02,2.598360E-01,3.231470E+03,4.725340E+03,2.697575E-01,8.223810E+03,7.351799E-02,0.000000E+00,0.000000E+00,7.351799E-02,6.632761E+02,3.500665E-01,4.457804E+03,6.913288E+03,1.775766E-01,5.213642E+03,4.361182E-02,0.000000E+00,0.000000E+00,4.361182E-02,3.934639E+02,2.333766E-01,2.933741E+03,4.415854E+03
13:50:00,1.478264E-01,6.876484E+03,9.698115E-02,0.000000E+00,0.000000E+00,9.698115E-02,8.662701E+02,3.823146E-01,4.994750E+03,8.253193E+03,2.863765E-01,8.541128E+03,7.351799E-02,0.000000E+00,0.000000E+00,7.351799E-02,6.566888E+02,4.479617E-01,5.565896E+03,8.068040E+03,1.777953E-01,5.217817E+03,4.361182E-02,0.000000E+00,0.000000E+00,4.361182E-02,3.895563E+02,2.596897E-01,3.233702E+03,4.727581E+03,2.697566E-01,8.223792E+03,7.351799E-02,0.000000E+00,0.000000E+00,7.351799E-02,6.566888E+02,3.501628E-01,4.465433E+03,6.921097E+03,1.775760E-01,5.213630E+03,4.361182E-02,0.000000E+00,0.000000E+00,4.361182E-02,3.895563E+02,2.340937E-01,2.945689E+03,4.428528E+03
14:00:00,1.478251E-01,6.876458E+03,9.698115E-02,0.000000E+00,0.000000E+00,9.698115E-02,8.575806E+02,3.817543E-01,4.997129E+03,8.255271E+03,2.863755E-01,8.541110E+03,7.351799E-02,0.000000E+00,0.000000E+00,7.351799E-02,6.501016E+02,4.445686E-01,5.534298E+03,8.035312E+03,1.777947E-01,5.217805E+03,4.361182E-02,0.000000E+00,0.000000E+00,4.361182E-02,3.856487E+02,2.595424E-01,3.235946E+03,4.729819E+03,2.697557E-01,8.223775E+03,7.351799E-02,0.000000E+00,0.000000E+00,7.351799E-02,6.501016E+02,3.502601E-01,4.473109E+03,6.928934E+03,1.775754E-01,5.213618E+03,4.361182E-02,0.000000E+00,0.000000E+00,4.361182E-02,3.856487E+02,2.357535E-01,2.968267E+03,4.452045E+03
14:10:00,1.478238E-01,6.876434E+03,9.698115E-02,0.000000E+00,0.000000E+00,9.698115E-02,8.575806E+02,3.812027E-01,4.990922E+03,8.248515E+03,2.863746E-01,8.541093E+03,7.351799E-02,0.000000E+00,0.000000E+00,7.351799E-02,6.501016E+02,4.406086E-01,5.489742E+03,7.989117E+03,1.777941E-01,5.217794E+03,4.361182E-02,0.000000E+00,0.000000E+00,4.361182E-02,3.856487E+02,2.593757E-01,3.234069E+03,4.727801E+03,2.697548E-01,8.223757E+03,7.351799E-02,0.000000E+00,0.000000E+00,7.351799E-02,6.501016E+02,3.503513E-01,4.474135E+03,6.929903E+03,1.775748E-01,5.213607E+03,4.361182E-02,0.000000E+00,0.000000E+00,4.361182E-02,3.856487E+02,2.387737E-01,3.002246E+03,4.487120E+03
14:20:00,1.478225E-01,6.876410E+03,9.698115E-02,0.000000E+00,0.000000E+00,9.698115E-02,8.575806E+02,3.806679E-01,4.984904E+03,8.242026E+03,2.863737E-01,8.541076E+03,7.351799E-02,0.000000E+00,0.000000E+00,7.351799E-02,6.501016E+02,4.362060E-01,5.440207E+03,7.937816E+03,1.777936E-01,5.217783E+03,4.361182E-02,0.000000E+00,0.000000E+00,4.361182E-02,3.856487E+02,2.591792E-01,3.231858E+03,4.725504E+03,2.697539E-01,8.223741E+03,7.351799E-02,0.000000E+00,0.000000E+00,7.351799E-02,6.501016E+02,3.504423E-01,4.475158E+03,6.930955E+03,1.775743E-01,5.213597E+03,4.361182E-02,0.000000E+00,0.000000E+00,4.361182E-02,3.856487E+02,2.435546E-01,3.056037E+03,4.542516E+03
14:30:00,1.478213E-01,6.876386E+03,9.698115E-02,0.000000E+00,0.000000E+00,9.698115E-02,8.575806E+02,3.801582E-01,4.979169E+03,8.235875E+03,2.863729E-01,8.541060E+03,7.351799E-02,0.000000E+00,0.000000E+00,7.351799E-02,6.501016E+02,4.315023E-01,5.387283E+03,7.882965E+03,1.777930E-01,5.217773E+03,4.361182E-02,0.000000E+00,0.000000E+00,4.361182E-02,3.856487E+02,2.589455E-01,3.229229E+03,4.722804E+03,2.697531E-01,8.223725E+03,7.351799E-02,0.000000E+00,0.000000E+00,7.351799E-02,6.501016E+02,3.505431E-01,4.476292E+03,6.932164E+03,1.775737E-01,5.213586E+03,4.361182E-02,0.000000E+00,0.000000E+00,4.361182E-02,3.856487E+02,2.504215E-01,3.133295E+03,4.622108E+03
14:40:00,1.478201E-01,6.876364E+03,9.698115E-02,0.000000E+00,0.000000E+00,9.698115E-02,8.575806E+02,3.796812E-01,4.973802E+03,8.230133E+03,2.863721E-01,8.541044E+03,7.351799E-02,0.000000E+00,0.000000E+00,7.351799E-02,6.501016E+02,4.266509E-01,5.332696E+03,7.826303E+03,1.777925E-01,5.217763E+03,4.361182E-02,0.000000E+00,0.000000E+00,4.361182E-02,3.856487E+02,2.586685E-01,3.226112E+03,4.719600E+03,2.697522E-01,8.223709E+03,7.351799E-02,0.000000E+00,0.000000E+00,7.351799E-02,6.501016E+02,3.506639E-01,4.477651E+03,6.933612E+03,1.775732E-01,5.213576E+03,4.361182E-02,0.000000E+00,0.000000E+00,4.361182E-02,3.856487E+02,2.593462E-01,3.233707E+03,4.725483E+03
14:50:00,1.478190E-01,6.876342E+03,9.698115E-02,0.000000E+00,0.000000E+00,9.698115E-02,8.575806E+02,3.792429E-01,4.968871E+03,8.224858E+03,2.863713E-01,8.541029E+03,7.351799E-02,0.000000E+00,0.000000E+00,7.351799E-02,6.501016E+02,4.218151E-01,5.278285E+03,7.769717E+03,1.777920E-01,5.217753E+03,4.361182E-02,0.000000E+00,0.000000E+00,4.361182E-02,3.856487E+02,2.583433E-01,3.222452E+03,4.715819E+03,2.697514E-01,8.223694E+03,7.351799E-02,0.000000E+00,0.000000E+00,7.351799E-02,6.501016E+02,3.508141E-01,4.479341E+03,6.935389E+03,1.775727E-01,5.213566E+03,4.361182E-02,0.000000E+00,0.000000E+00,4.361182E-02,3.856487E+02,2.700899E-01,3.354585E+03,4.849796E+03
15:00:00,1.478179E-01,6.876320E+03,9.698115E-02,0.000000E+00,0.000000E+00,9.698115E-02,8.575806E+02,3.788475E-01,4.964421E+03,8.220091E+03,2.863705E-01,8.541014E+03,7.351799E-02,0.000000E+00,0.000000E+00,7.351799E-02,6.501016E+02,4.171772E-01,5.226100E+03,7.715346E+03,1.777915E-01,5.217743E+03,4.361182E-02,0.000000E+00,0.000000E+00,4.361182E-02,3.856487E+02,2.579257E-01,3.217754E+03,4.710888E+03,2.697507E-01,8.223679E+03,7.351799E-02,0.000000E+00,0.000000E+00,7.351799E-02,6.501016E+02,3.509438E-01,4.480801E+03,6.936818E+03,1.775722E-01,5.213557E+03,4.361182E-02,0.000000E+00,0.000000E+00,4.361182E-02,3.856487E+02,2.824096E-01,3.493196E+03,4.992428E+03
15:10:00,1.478168E-01,6.876300E+03,9.698115E-02,0.000000E+00,0.000000E+00,9.698115E-02,8.680080E+02,3.784927E-01,4.950001E+03,8.205083E+03,2.863697E-01,8.540999E+03,7.351799E-02,0.000000E+00,0.000000E+00,7.351799E-02,6.580063E+02,4.128471E-01,5.169472E+03,7.656273E+03,1.777910E-01,5.217734E+03,4.361182E-02,0.000000E+00,0.000000E+00,4.361182E-02,3.903378E+02,2.574296E-01,3.207483E+03,4.700293E+03,2.697499E-01,8.223664E+03,7.351799E-02,0.000000E+00,0.000000E+00,7.351799E-02,6.580063E+02,3.510786E-01,4.474413E+03,6.930270E+03,1.775717E-01,5.213547E+03,4.361182E-02,0.000000E+00,0.000000E+00,4.361182E-02,3.903378E+02,2.957107E-01,3.638161E+03,5.141145E+03
15:20:00,1.478157E-01,6.876279E+03,9.698115E-02,0.000000E+00,0.000000E+00,9.698115E-02,8.784354E+02,3.781321E-01,4.935542E+03,8.190234E+03,2.863690E-01,8.540985E+03,7.351799E-02,0.000000E+00,0.000000E+00,7.351799E-02,6.659109E+02,4.089013E-01,5.117188E+03,7.602899E+03,1.777905E-01,5.217725E+03,4.361182E-02,0.000000E+00,0.000000E+00,4.361182E-02,3.950269E+02,2.568463E-01,3.196244E+03,4.688991E+03,2.697492E-01,8.223650E+03,7.351799E-02,0.000000E+00,0.000000E+00,7.351799E-02,6.659109E+02,3.512021E-01,4.467917E+03,6.923672E+03,1.775712E-01,5.213538E+03,4.361182E-02,0.000000E+00,0.000000E+00,4.361182E-02,3.950269E+02,3.094390E-01,3.787953E+03,5.291115E+03
15:30:00,1.478147E-01,6.876260E+03,9.698115E-02,0.000000E+00,0.000000E+00,9.698115E-02,8.888628E+02,3.778132E-01,4.921580E+03,8.175800E+03,2.863683E-01,8.540971E+03,7.351799E-02,0.000000E+00,0.000000E+00,7.351799E-02,6.738156E+02,4.054411E-01,5.070390E+03,7.553683E+03,1.777900E-01,5.217716E+03,4.361182E-02,0.000000E+00,0.000000E+00,4.361182E-02,3.997161E+02,2.561946E-01,3.184251E+03,4.676627E+03,2.697485E-01,8.223637E+03,7.351799E-02,0.000000E+00,0.000000E+00,7.351799E-02,6.738156E+02,3.513398E-01,4.461602E+03,6.917346E+03,1.775708E-01,5.213529E+03,4.361182E-02,0.000000E+00,0.000000E+00,4.361182E-02,3.997161E+02,3.228185E-01,3.933846E+03,5.442810E+03
15:40:00,1.478137E-01,6.876241E+03,9.698115E-02,0.000000E+00,0.000000E+00,9.698115E-02,8.992902E+02,3.775229E-01,4.907941E+03,8.161766E+03,2.863676E-01,8.540958E+03,7.351799E-02,0.000000E+00,0.000000E+00,7.351799E-02,6.817202E+02,4.024847E-01,5.029262E+03,7.510837E+03,1.777896E-01,5.217708E+03,4.361182E-02,0.000000E+00,0.000000E+00,4.361182E-02,4.044052E+02,2.554756E-01,3.171501E+03,4.663517E+03,2.697478E-01,8.223624E+03,7.351799E-02,0.000000E+00,0.000000E+00,7.351799E-02,6.817202E+02,3.514729E-01,4.455237E+03,6.910913E+03,1.775703E-01,5.213521E+03,4.361182E-02,0.000000E+00,0.000000E+00,4.361182E-02,4.044052E+02,3.353456E-01,4.070159E+03,5.583672E+03
15:50:00,1.478127E-01,6.876222E+03,9.698115E-02,0.000000E+00,0.000000E+00,9.698115E-02,9.097176E+02,3.772504E-01,4.894503E+03,8.147920E+03,2.863669E-01,8.540945E+03,7.351799E-02,0.000000E+00,0.000000E+00,7.351799E-02,6.896249E+02,3.999828E-01,4.993247E+03,7.473312E+03,1.777892E-01,5.217699E+03,4.361182E-02,0.000000E+00,0.000000E+00,4.361182E-02,4.090943E+02,2.546897E-01,3.157998E+03,4.649573E+03,2.697471E-01,8.223611E+03,7.351799E-02,0.000000E+00,0.000000E+00,7.351799E-02,6.896249E+02,3.515781E-01,4.448558E+03,6.904092E+03,1.775699E-01,5.213512E+03,4.361182E-02,0.000000E+00,0.000000E+00,4.361182E-02,4.090943E+02,3.467519E-01,4.193866E+03,5.711970E+03
16:00:00,1.478117E-01,6.876204E+03,9.698115E-02,0.000000E+00,0.000000E+00,9.698115E-02,9.201450E+02,3.769858E-01,4.881153E+03,8.134134E+03,2.863662E-01,8.540932E+03,7.351799E-02,0.000000E+00,0.000000E+00,7.351799E-02,6.975295E+02,3.977988E-01,4.960810E+03,7.439494E+03,1.777887E-01,5.217691E+03,4.361182E-02,0.000000E+00,0.000000E+00,4.361182E-02,4.137835E+02,2.538783E-01,3.144208E+03,4.635320E+03,2.697464E-01,8.223598E+03,7.351799E-02,0.000000E+00,0.000000E+00,7.351799E-02,6.975295E+02,3.516885E-01,4.441938E+03,6.897341E+03,1.775695E-01,5.213504E+03,4.361182E-02,0.000000E+00,0.000000E+00,4.361182E-02,4.137835E+02,3.567453E-01,4.301678E+03,5.823847E+03
16:10:00,1.478108E-01,6.876186E+03,9.698115E-02,0.000000E+00,0.000000E+00,9.698115E-02,9.340482E+02,3.767376E-01,4.864512E+03,8.116976E+03,2.863656E-01,8.540920E+03,7.351799E-02,0.000000E+00,0.000000E+00,7.351799E-02,7.080690E+02,3.959155E-01,4.929121E+03,7.406624E+03,1.777883E-01,5.217683E+03,4.361182E-02,0.000000E+00,0.000000E+00,4.361182E-02,4.200357E+02,2.530445E-01,3.128602E+03,4.619207E+03,2.697458E-01,8.223586E+03,7.351799E-02,0.000000E+00,0.000000E+00,7.351799E-02,7.080690E+02,3.517846E-01,4.432522E+03,6.887740E+03,1.775690E-01,5.213496E+03,4.361182E-02,0.000000E+00,0.000000E+00,4.361182E-02,4.200357E+02,3.654040E-01,4.392913E+03,5.918467E+03
16:20:00,1.478099E-01,6.876169E+03,9.698115E-02,0.000000E+00,0.000000E+00,9.698115E-02,9.479514E+02,3.765439E-01,4.848458E+03,8.100535E+03,2.863649E-01,8.540908E+03,7.351799E-02,0.000000E+00,0.000000E+00,7.351799E-02,7.186086E+02,3.943096E-01,4.900533E+03,7.377141E+03,1.777879E-01,5.217676E+03,4.361182E-02,0.000000E+00,0.000000E+00,4.361182E-02,4.262878E+02,2.521990E-01,3.112852E+03,4.602982E+03,2.697452E-01,8.223574E+03,7.351799E-02,0.000000E+00,0.000000E+00,7.351799E-02,7.186086E+02,3.518624E-01,4.422881E+03,6.877971E+03,1.775686E-01,5.213489E+03,4.361182E-02,0.000000E+00,0.000000E+00,4.361182E-02,4.262878E+02,3.727999E-01,4.469919E+03,5.998151E+03
16:30:00,1.478090E-01,6.876152E+03,9.698115E-02,0.000000E+00,0.000000E+00,9.698115E-02,9.618546E+02,3.763247E-01,4.832107E+03,8.083821E+03,2.863643E-01,8.540896E+03,7.351799E-02,0.000000E+00,0.000000E+00,7.351799E-02,7.291481E+02,3.928785E-01,4.873906E+03,7.349915E+03,1.777875E-01,5.217668E+03,4.361182E-02,0.000000E+00,0.000000E+00,4.361182E-02,4.325400E+02,2.513136E-01,3.096648E+03,4.586430E+03,2.697446E-01,8.223562E+03,7.351799E-02,0.000000E+00,0.000000E+00,7.351799E-02,7.291481E+02,3.518552E-01,4.412275E+03,6.867211E+03,1.775682E-01,5.213481E+03,4.361182E-02,0.000000E+00,0.000000E+00,4.361182E-02,4.325400E+02,3.792880E-01,4.536698E+03,6.066624E+03
16:40:00,1.478082E-01,6.876135E+03,9.698115E-02,0.000000E+00,0.000000E+00,9.698115E-02,9.757578E+02,3.761112E-01,4.815828E+03,8.067127E+03,2.863637E-01,8.540885E+03,7.351799E-02,0.000000E+00,0.000000E+00,7.351799E-02,7.396876E+02,3.915080E-01,4.847969E+03,7.323061E+03,1.777871E-01,5.217661E+03,4.361182E-02,0.000000E+00,0.000000E+00,4.361182E-02,4.387922E+02,2.503410E-01,3.079468E+03,4.568702E+03,2.697440E-01,8.223551E+03,7.351799E-02,0.000000E+00,0.000000E+00,7.351799E-02,7.396876E+02,3.516903E-01,4.399903E+03,6.854572E+03,1.775679E-01,5.213474E+03,4.361182E-02,0.000000E+00,0.000000E+00,4.361182E-02,4.387922E+02,3.851887E-01,4.596871E+03,6.128993E+03
16:50:00,1.478073E-01,6.876119E+03,9.698115E-02,0.000000E+00,0.000000E+00,9.698115E-02,9.896610E+02,3.758978E-01,4.799551E+03,8.050431E+03,2.863632E-01,8.540874E+03,7.351799E-02,0.000000E+00,0.000000E+00,7.351799E-02,7.502271E+02,3.902431E-01,4.823219E+03,7.297513E+03,1.777868E-01,5.217654E+03,4.361182E-02,0.000000E+00,0.000000E+00,4.361182E-02,4.450444E+02,2.493129E-01,3.061663E+03,4.550398E+03,2.697434E-01,8.223540E+03,7.351799E-02,0.000000E+00,0.000000E+00,7.351799E-02,7.502271E+02,3.514096E-01,4.386227E+03,6.840633E+03,1.775675E-01,5.213467E+03,4.361182E-02,0.000000E+00,0.000000E+00,4.361182E-02,4.450444E+02,3.905119E-01,4.650546E+03,6.184429E+03
17:00:00,1.478065E-01,6.876104E+03,9.698115E-02,0.000000E+00,0.000000E+00,9.698115E-02,1.003564E+03,3.756834E-01,4.783262E+03,8.033701E+03,2.863626E-01,8.540863E+03,7.351799E-02,0.000000E+00,0.000000E+00,7.351799E-02,7.607667E+02,3.891207E-01,4.800074E+03,7.273605E+03,1.777864E-01,5.217647E+03,4.361182E-02,0.000000E+00,0.000000E+00,4.361182E-02,4.512966E+02,2.482397E-01,3.043350E+03,4.531537E+03,2.697428E-01,8.223529E+03,7.351799E-02,0.000000E+00,0.000000E+00,7.351799E-02,7.607667E+02,3.510251E-01,4.371383E+03,6.825433E+03,1.775671E-01,5.213460E+03,4.361182E-02,0.000000E+00,0.000000E+00,4.361182E-02,4.512966E+02,3.952373E-01,4.697496E+03,6.233009E+03
17:10:00,1.478057E-01,6.876089E+03,9.698115E-02,0.000000E+00,0.000000E+00,9.698115E-02,1.020943E+03,3.754675E-01,4.763481E+03,8.013380E+03,2.863620E-01,8.540853E+03,7.351799E-02,0.000000E+00,0.000000E+00,7.351799E-02,7.739411E+02,3.881246E-01,4.775715E+03,7.248463E+03,1.777861E-01,5.217640E+03,4.361182E-02,0.000000E+00,0.000000E+00,4.361182E-02,4.591118E+02,2.471223E-01,3.022977E+03,4.510514E+03,2.697423E-01,8.223519E+03,7.351799E-02,0.000000E+00,0.000000E+00,7.351799E-02,7.739411E+02,3.505425E-01,4.352800E+03,6.806318E+03,1.775668E-01,5.213453E+03,4.361182E-02,0.000000E+00,0.000000E+00,4.361182E-02,4.591118E+02,3.993059E-01,4.735491E+03,6.272558E+03
17:20:00,1.478049E-01,6.876074E+03,9.698115E-02,0.000000E+00,0.000000E+00,9.698115E-02,1.038322E+03,3.752602E-01,4.743796E+03,7.993178E+03,2.863615E-01,8.540842E+03,7.351799E-02,0.000000E+00,0.000000E+00,7.351799E-02,7.871155E+02,3.871950E-01,4.752103E+03,7.224104E+03,1.777857E-01,5.217634E+03,4.361182E-02,0.000000E+00,0.000000E+00,4.361182E-02,4.669270E+02,2.459601E-01,3.002099E+03,4.488942E+03,2.697417E-01,8.223509E+03,7.351799E-02,0.000000E+00,0.000000E+00,7.351799E-02,7.871155E+02,3.499728E-01,4.333237E+03,6.786143E+03,1.775664E-01,5.213447E+03,4.361182E-02,0.000000E+00,0.000000E+00,4.361182E-02,4.669270E+02,4.025114E-01,4.763775E+03,6.302371E+03
17:30:00,1.478042E-01,6.876059E+03,9.698115E-02,0.000000E+00,0.000000E+00,9.698115E-02,1.055701E+03,3.751234E-01,4.724887E+03,7.973864E+03,2.863610E-01,8.540832E+03,7.351799E-02,0.000000E+00,0.000000E+00,7.351799E-02,8.002899E+02,3.862845E-01,4.728691E+03,7.199974E+03,1.777854E-01,5.217627E+03,4.361182E-02,0.000000E+00,0.000000E+00,4.361182E-02,4.747423E+02,2.447617E-01,2.980804E+03,4.466925E+03,2.697412E-01,8.223499E+03,7.351799E-02,0.000000E+00,0.000000E+00,7.351799E-02,8.002899E+02,3.493292E-01,4.312829E+03,6.765058E+03,1.775661E-01,5.213440E+03,4.361182E-02,0.000000E+00,0.000000E+00,4.361182E-02,4.747423E+02,4.046821E-01,4.780398E+03,6.320563E+03
17:40:00,1.478035E-01,6.876045E+03,9.698115E-02,0.000000E+00,0.000000E+00,9.698115E-02,1.073080E+03,3.750819E-01,4.707041E+03,7.955677E+03,2.863605E-01,8.540823E+03,7.351799E-02,0.000000E+00,0.000000E+00,7.351799E-02,8.134643E+02,3.854056E-01,4.705627E+03,7.176306E+03,1.777851E-01,5.217621E+03,4.361182E-02,0.000000E+00,0.000000E+00,4.361182E-02,4.825575E+02,2.435722E-01,2.959603E+03,4.445046E+03,2.697407E-01,8.223489E+03,7.351799E-02,0.000000E+00,0.000000E+00,7.351799E-02,8.134643E+02,3.487022E-01,4.292598E+03,6.744230E+03,1.775658E-01,5.213434E+03,4.361182E-02,0.000000E+00,0.000000E+00,4.361182E-02,4.825575E+02,4.056290E-01,4.783240E+03,6.324783E+03
17:50:00,1.478027E-01,6.876032E+03,9.698115E-02,0.000000E+00,0.000000E+00,9.698115E-02,1.090459E+03,3.751832E-01,4.690802E+03,7.939179E+03,2.863600E-01,8.540813E+03,7.351799E-02,0.000000E+00,0.000000E+00,7.351799E-02,8.266387E+02,3.844445E-01,4.681637E+03,7.151696E+03,1.777847E-01,5.217615E+03,4.361182E-02,0.000000E+00,0.000000E+00,4.361182E-02,4.903727E+02,2.423593E-01,2.938140E+03,4.422893E+03,2.697402E-01,8.223480E+03,7.351799E-02,0.000000E+00,0.000000E+00,7.351799E-02,8.266387E+02,3.481269E-01,4.272950E+03,6.724022E+03,1.775655E-01,5.213428E+03,4.361182E-02,0.000000E+00,0.000000E+00,4.361182E-02,4.903727E+02,4.053604E-01,4.772404E+03,6.314954E+03
18:00:00,1.478020E-01,6.876018E+03,9.698115E-02,0.000000E+00,0.000000E+00,9.698115E-02,1.107838E+03,3.754508E-01,4.676434E+03,7.924663E+03,2.863595E-01,8.540804E+03,7.351799E-02,0.000000E+00,0.000000E+00,7.351799E-02,8.398131E+02,3.833361E-01,4.655989E+03,7.125352E+03,1.777844E-01,5.217609E+03,4.361182E-02,0.000000E+00,0.000000E+00,4.361182E-02,4.981880E+02,2.411132E-01,2.916302E+03,4.400335E+03,2.697397E-01,8.223470E+03,7.351799E-02,0.000000E+00,0.000000E+00,7.351799E-02,8.398131E+02,3.475055E-01,4.252783E+03,6.703162E+03,1.775651E-01,5.213422E+03,4.361182E-02,0.000000E+00,0.000000E+00,4.361182E-02,4.981880E+02,4.038462E-01,4.747550E+03,6.290619E+03
18:10:00,1.679914E-01,7.261526E+03,9.698115E-02,0.000000E+00,0.000000E+00,9.698115E-02,1.133907E+03,3.758733E-01,4.655119E+03,7.903118E+03,2.976411E-01,8.756214E+03,7.351799E-02,0.000000E+00,0.000000E+00,7.351799E-02,8.595747E+02,3.820002E-01,4.621195E+03,7.089588E+03,1.853055E-01,5.361216E+03,4.361182E-02,0.000000E+00,0.000000E+00,4.361182E-02,5.099108E+02,2.398170E-01,2.889993E+03,4.373181E+03,2.810214E-01,8.438880E+03,7.351799E-02,0.000000E+00,0.000000E+00,7.351799E-02,8.595747E+02,3.467486E-01,4.224504E+03,6.673982E+03,1.850862E-01,5.357029E+03,4.361182E-02,0.000000E+00,0.000000E+00,4.361182E-02,5.099108E+02,4.010294E-01,4.704131E+03,6.247147E+03
18:20:00,1.881805E-01,7.647055E+03,9.698115E-02,0.000000E+00,0.000000E+00,9.698115E-02,1.159975E+03,3.764045E-01,4.635039E+03,7.882952E+03,3.089225E-01,8.971630E+03,7.351799E-02,0.000000E+00,0.000000E+00,7.351799E-02,8.793363E+02,3.803979E-01,4.583413E+03,7.050918E+03,1.928262E-01,5.504825E+03,4.361182E-02,0.000000E+00,0.000000E+00,4.361182E-02,5.216336E+02,2.384677E-01,2.863093E+03,4.345561E+03,2.923026E-01,8.654295E+03,7.351799E-02,0.000000E+00,0.000000E+00,7.351799E-02,8.793363E+02,3.458536E-01,4.194681E+03,6.643441E+03,1.926069E-01,5.500638E+03,4.361182E-02,0.000000E+00,0.000000E+00,4.361182E-02,5.216336E+02,3.969677E-01,4.646715E+03,6.189692E+03
18:30:00,2.083714E-01,8.032651E+03,9.698115E-02,0.000000E+00,0.000000E+00,9.698115E-02,1.186044E+03,3.769831E-01,4.615497E+03,7.863515E+03,3.202013E-01,9.187052E+03,7.351799E-02,0.000000E+00,0.000000E+00,7.351799E-02,8.990980E+02,3.785316E-01,4.542665E+03,7.009014E+03,2.003448E-01,5.648433E+03,4.361182E-02,0.000000E+00,0.000000E+00,4.361182E-02,5.333565E+02,2.370775E-01,2.835736E+03,4.317343E+03,3.035816E-01,8.869715E+03,7.351799E-02,0.000000E+00,0.000000E+00,7.351799E-02,8.990980E+02,3.449283E-01,4.164519E+03,6.612541E+03,2.001255E-01,5.644245E+03,4.361182E-02,0.000000E+00,0.000000E+00,4.361182E-02,5.333565E+02,3.917104E-01,4.575848E+03,6.118279E+03
18:40:00,2.285650E-01,8.418334E+03,9.698115E-02,0.000000E+00,0.000000E+00,9.698115E-02,1.212112E+03,3.775027E-01,4.595291E+03,7.843396E+03,3.314801E-01,9.402522E+03,7.351799E-02,0.000000E+00,0.000000E+00,7.351799E-02,9.188596E+02,3.763954E-01,4.498878E+03,6.963912E+03,2.078632E-01,5.792070E+03,4.361182E-02,0.000000E+00,0.000000E+00,4.361182E-02,5.450793E+02,2.356485E-01,2.807941E+03,4.288666E+03,3.148607E-01,9.085183E+03,7.351799E-02,0.000000E+00,0.000000E+00,7.351799E-02,9.188596E+02,3.440273E-01,4.134632E+03,6.581850E+03,2.076439E-01,5.787883E+03,4.361182E-02,0.000000E+00,0.000000E+00,4.361182E-02,5.450793E+02,3.851383E-01,4.490184E+03,6.031809E+03
18:50:00,2.487616E-01,8.804113E+03,9.698115E-02,0.000000E+00,0.000000E+00,9.698115E-02,1.238181E+03,3.778654E-01,4.573320E+03,7.821373E+03,3.427606E-01,9.618062E+03,7.351799E-02,0.000000E+00,0.000000E+00,7.351799E-02,9.386212E+02,3.739835E-01,4.451990E+03,6.915501E+03,2.153827E-01,5.935754E+03,4.361182E-02,0.000000E+00,0.000000E+00,4.361182E-02,5.568022E+02,2.341797E-01,2.779699E+03,4.259495E+03,3.261415E-01,9.300718E+03,7.351799E-02,0.000000E+00,0.000000E+00,7.351799E-02,9.386212E+02,3.431320E-01,4.104808E+03,6.550977E+03,2.151634E-01,5.931567E+03,4.361182E-02,0.000000E+00,0.000000E+00,4.361182E-02,5.568022E+02,3.771249E-01,4.388302E+03,5.928748E+03
19:00:00,2.689613E-01,9.189991E+03,9.698115E-02,0.000000E+00,0.000000E+00,9.698115E-02,1.264249E+03,3.779941E-01,4.548716E+03,7.796477E+03,3.540435E-01,9.833675E+03,7.351799E-02,0.000000E+00,0.000000E+00,7.351799E-02,9.583828E+02,3.712857E-01,4.401883E+03,6.863651E+03,2.229037E-01,6.079488E+03,4.361182E-02,0.000000E+00,0.000000E+00,4.361182E-02,5.685250E+02,2.326655E-01,2.750945E+03,4.229762E+03,3.374247E-01,9.516325E+03,7.351799E-02,0.000000E+00,0.000000E+00,7.351799E-02,9.583828E+02,3.423074E-01,4.075780E+03,6.520809E+03,2.226844E-01,6.075301E+03,4.361182E-02,0.000000E+00,0.000000E+00,4.361182E-02,5.685250E+02,3.675901E-01,4.269297E+03,5.808106E+03
19:10:00,2.689739E-01,9.190373E+03,9.698115E-02,0.000000E+00,0.000000E+00,9.698115E-02,1.283366E+03,3.778777E-01,4.528305E+03,7.775718E+03,3.540467E-01,9.833913E+03,7.351799E-02,0.000000E+00,0.000000E+00,7.351799E-02,9.728746E+02,3.683315E-01,4.354162E+03,6.814180E+03,2.229051E-01,6.079637E+03,4.361182E-02,0.000000E+00,0.000000E+00,4.361182E-02,5.771218E+02,2.311217E-01,2.724985E+03,4.202888E+03,3.374281E-01,9.516557E+03,7.351799E-02,0.000000E+00,0.000000E+00,7.351799E-02,9.728746E+02,3.414658E-01,4.051830E+03,6.495933E+03,2.226858E-01,6.075450E+03,4.361182E-02,0.000000E+00,0.000000E+00,4.361182E-02,5.771218E+02,3.563361E-01,4.134072E+03,5.670778E+03
19:20:00,2.689896E-01,9.190773E+03,9.698115E-02,0.000000E+00,0.000000E+00,9.698115E-02,1.302483E+03,3.775007E-01,4.504951E+03,7.751737E+03,3.540526E-01,9.834195E+03,7.351799E-02,0.000000E+00,0.000000E+00,7.351799E-02,9.873665E+02,3.651447E-01,4.303812E+03,6.761972E+03,2.229083E-01,6.079817E+03,4.361182E-02,0.000000E+00,0.000000E+00,4.361182E-02,5.857185E+02,2.295465E-01,2.698664E+03,4.175648E+03,3.374343E-01,9.516832E+03,7.351799E-02,0.000000E+00,0.000000E+00,7.351799E-02,9.873665E+02,3.404722E-01,4.026160E+03,6.469558E+03,2.226891E-01,6.075630E+03,4.361182E-02,0.000000E+00,0.000000E+00,4.361182E-02,5.857185E+02,3.434146E-01,3.980070E+03,5.514138E+03
19:30:00,2.690061E-01,9.191159E+03,9.698115E-02,0.000000E+00,0.000000E+00,9.698115E-02,1.321600E+03,3.768327E-01,4.478317E+03,7.724153E+03,3.540633E-01,9.834512E+03,7.351799E-02,0.000000E+00,0.000000E+00,7.351799E-02,1.001858E+03,3.617073E-01,4.250638E+03,6.706761E+03,2.229153E-01,6.080025E+03,4.361182E-02,0.000000E+00,0.000000E+00,4.361182E-02,5.943153E+02,2.279004E-01,2.671544E+03,4.147565E+03,3.374451E-01,9.517143E+03,7.351799E-02,0.000000E+00,0.000000E+00,7.351799E-02,1.001858E+03,3.389325E-01,3.994342E+03,6.436909E+03,2.226960E-01,6.075838E+03,4.361182E-02,0.000000E+00,0.000000E+00,4.361182E-02,5.943153E+02,3.288844E-01,3.807962E+03,5.338508E+03
19:40:00,2.690223E-01,9.191521E+03,9.698115E-02,0.000000E+00,0.000000E+00,9.698115E-02,1.340717E+03,3.758665E-01,4.448327E+03,7.692915E+03,3.540759E-01,9.834823E+03,7.351799E-02,0.000000E+00,0.000000E+00,7.351799E-02,1.016350E+03,3.580460E-01,4.194944E+03,6.648847E+03,2.229237E-01,6.080232E+03,4.361182E-02,0.000000E+00,0.000000E+00,4.361182E-02,6.029120E+02,2.261631E-01,2.643396E+03,4.118414E+03,3.374576E-01,9.517449E+03,7.351799E-02,0.000000E+00,0.000000E+00,7.351799E-02,1.016350E+03,3.364693E-01,3.952131E+03,6.393500E+03,2.227044E-01,6.076044E+03,4.361182E-02,0.000000E+00,0.000000E+00,4.361182E-02,6.029120E+02,3.131636E-01,3.622455E+03,5.148366E+03
19:50:00,2.690376E-01,9.191851E+03,9.698115E-02,0.000000E+00,0.000000E+00,9.698115E-02,1.359834E+03,3.746302E-01,4.415289E+03,7.658231E+03,3.540886E-01,9.835108E+03,7.351799E-02,0.000000E+00,0.000000E+00,7.351799E-02,1.030842E+03,3.542764E-01,4.138023E+03,6.589215E+03,2.229322E-01,6.080422E+03,4.361182E-02,0.000000E+00,0.000000E+00,4.361182E-02,6.115088E+02,2.243630E-01,2.614537E+03,4.088348E+03,3.374702E-01,9.517731E+03,7.351799E-02,0.000000E+00,0.000000E+00,7.351799E-02,1.030842E+03,3.331139E-01,3.899873E+03,6.339223E+03,2.227130E-01,6.076235E+03,4.361182E-02,0.000000E+00,0.000000E+00,4.361182E-02,6.115088E+02,2.973551E-01,3.435955E+03,4.954702E+03
20:00:00,2.690518E-01,9.192149E+03,9.698115E-02,0.000000E+00,0.000000E+00,9.698115E-02,1.378951E+03,3.731716E-01,4.379743E+03,7.621014E+03,3.541006E-01,9.835362E+03,7.351799E-02,0.000000E+00,0.000000E+00,7.351799E-02,1.045334E+03,3.505345E-01,4.081410E+03,6.530181E+03,2.229403E-01,6.080591E+03,4.361182E-02,0.000000E+00,0.000000E+00,4.361182E-02,6.201055E+02,2.225402E-01,2.585419E+03,4.058166E+03,3.374821E-01,9.517984E+03,7.351799E-02,0.000000E+00,0.000000E+00,7.351799E-02,1.045334E+03,3.291734E-01,3.841027E+03,6.278118E+03,2.227210E-01,6.076404E+03,4.361182E-02,0.000000E+00,0.000000E+00,4.361182E-02,6.201055E+02,2.825055E-01,3.260242E+03,4.771609E+03
20:10:00,2.690646E-01,9.192414E+03,9.698115E-02,0.000000E+00,0.000000E+00,9.698115E-02,1.394592E+03,3.715803E-01,4.346180E+03,7.585706E+03,3.541114E-01,9.835585E+03,7.351799E-02,0.000000E+00,0.000000E+00,7.351799E-02,1.057191E+03,3.469805E-01,4.029547E+03,6.475872E+03,2.229475E-01,6.080740E+03,4.361182E-02,0.000000E+00,0.000000E+00,4.361182E-02,6.271392E+02,2.207536E-01,2.558272E+03,4.029905E+03,3.374928E-01,9.518206E+03,7.351799E-02,0.000000E+00,0.000000E+00,7.351799E-02,1.057191E+03,3.250251E-01,3.782477E+03,6.216576E+03,2.227283E-01,6.076552E+03,4.361182E-02,0.000000E+00,0.000000E+00,4.361182E-02,6.271392E+02,2.694279E-01,3.106031E+03,4.608839E+03
20:20:00,2.690762E-01,9.192649E+03,9.698115E-02,0.000000E+00,0.000000E+00,9.698115E-02,1.410233E+03,3.699558E-01,4.312243E+03,7.549910E+03,3.541210E-01,9.835778E+03,7.351799E-02,0.000000E+00,0.000000E+00,7.351799E-02,1.069048E+03,3.436984E-01,3.980742E+03,6.424653E+03,2.229540E-01,6.080869E+03,4.361182E-02,0.000000E+00,0.000000E+00,4.361182E-02,6.341729E+02,2.190379E-01,2.531923E+03,4.002384E+03,3.375025E-01,9.518401E+03,7.351799E-02,0.000000E+00,0.000000E+00,7.351799E-02,1.069048E+03,3.208973E-01,3.724157E+03,6.154630E+03,2.227347E-01,6.076681E+03,4.361182E-02,0.000000E+00,0.000000E+00,4.361182E-02,6.341729E+02,2.585232E-01,2.976274E+03,4.470792E+03
20:30:00,2.690865E-01,9.192857E+03,9.698115E-02,0.000000E+00,0.000000E+00,9.698115E-02,1.425874E+03,3.684116E-01,4.279198E+03,7.514689E+03,3.541295E-01,9.835946E+03,7.351799E-02,0.000000E+00,0.000000E+00,7.351799E-02,1.080905E+03,3.407845E-01,3.936072E+03,6.377309E+03,2.229596E-01,6.080980E+03,4.361182E-02,0.000000E+00,0.000000E+00,4.361182E-02,6.412066E+02,2.174545E-01,2.507056E+03,3.976125E+03,3.375110E-01,9.518570E+03,7.351799E-02,0.000000E+00,0.000000E+00,7.351799E-02,1.080905E+03,3.171702E-01,3.670338E+03,6.096718E+03,2.227404E-01,6.076793E+03,4.361182E-02,0.000000E+00,0.000000E+00,4.361182E-02,6.412066E+02,2.501184E-01,2.874641E+03,4.361632E+03
20:40:00,2.690958E-01,9.193040E+03,9.698115E-02,0.000000E+00,0.000000E+00,9.698115E-02,1.441515E+03,3.670108E-01,4.247753E+03,7.481617E+03,3.541370E-01,9.836092E+03,7.351799E-02,0.000000E+00,0.000000E+00,7.351799E-02,1.092762E+03,3.382639E-01,3.895817E+03,6.335338E+03,2.229646E-01,6.081077E+03,4.361182E-02,0.000000E+00,0.000000E+00,4.361182E-02,6.482403E+02,2.160324E-01,2.483997E+03,3.952131E+03,3.375185E-01,9.518717E+03,7.351799E-02,0.000000E+00,0.000000E+00,7.351799E-02,1.092762E+03,3.141831E-01,3.624837E+03,6.048727E+03,2.227454E-01,6.076890E+03,4.361182E-02,0.000000E+00,0.000000E+00,4.361182E-02,6.482403E+02,2.441670E-01,2.800609E+03,4.283676E+03
20:50:00,2.691040E-01,9.193203E+03,9.698115E-02,0.000000E+00,0.000000E+00,9.698115E-02,1.457156E+03,3.658061E-01,4.218524E+03,7.450919E+03,3.541435E-01,9.836220E+03,7.351799E-02,0.000000E+00,0.000000E+00,7.351799E-02,1.104619E+03,3.360869E-01,3.859436E+03,6.297400E+03,2.229690E-01,6.081162E+03,4.361182E-02,0.000000E+00,0.000000E+00,4.361182E-02,6.552740E+02,2.147597E-01,2.462625E+03,3.929873E+03,3.375251E-01,9.518845E+03,7.351799E-02,0.000000E+00,0.000000E+00,7.351799E-02,1.104619E+03,3.118915E-01,3.587168E+03,6.009270E+03,2.227497E-01,6.076974E+03,4.361182E-02,0.000000E+00,0.000000E+00,4.361182E-02,6.552740E+02,2.399294E-01,2.745867E+03,4.226317E+03
21:00:00,2.691113E-01,9.193347E+03,9.698115E-02,0.000000E+00,0.000000E+00,9.698115E-02,1.472797E+03,3.648206E-01,4.191767E+03,7.423021E+03,3.541493E-01,9.836332E+03,7.351799E-02,0.000000E+00,0.000000E+00,7.351799E-02,1.116476E+03,3.341856E-01,3.826162E+03,6.262810E+03,2.229728E-01,6.081236E+03,4.361182E-02,0.000000E+00,0.000000E+00,4.361182E-02,6.623078E+02,2.136136E-01,2.442680E+03,3.909153E+03,3.375309E-01,9.518958E+03,7.351799E-02,0.000000E+00,0.000000E+00,7.351799E-02,1.116476E+03,3.100459E-01,3.554522E+03,5.975302E+03,2.227535E-01,6.077048E+03,4.361182E-02,0.000000E+00,0.000000E+00,4.361182E-02,6.623078E+02,2.366825E-01,2.702279E+03,4.180849E+03
21:10:00,2.691179E-01,9.193475E+03,9.698115E-02,0.000000E+00,0.000000E+00,9.698115E-02,1.488438E+03,3.640082E-01,4.166957E+03,7.397301E+03,3.541544E-01,9.836430E+03,7.351799E-02,0.000000E+00,0.000000E+00,7.351799E-02,1.128333E+03,3.324781E-01,3.795070E+03,6.230537E+03,2.229762E-01,6.081301E+03,4.361182E-02,0.000000E+00,0.000000E+00,4.361182E-02,6.693415E+02,2.125572E-01,2.423745E+03,3.889506E+03,3.375361E-01,9.519057E+03,7.351799E-02,0.000000E+00,0.000000E+00,7.351799E-02,1.128333E+03,3.084891E-01,3.525127E+03,5.944813E+03,2.227569E-01,6.077113E+03,4.361182E-02,0.000000E+00,0.000000E+00,4.361182E-02,6.693415E+02,2.340925E-01,2.666083E+03,4.143181E+03
21:20:00,2.691237E-01,9.193589E+03,9.698115E-02,0.000000E+00,0.000000E+00,9.698115E-02,1.504079E+03,3.633280E-01,4.143636E+03,7.373225E+03,3.541589E-01,9.836517E+03,7.351799E-02,0.000000E+00,0.000000E+00,7.351799E-02,1.140190E+03,3.309156E-01,3.765609E+03,6.199988E+03,2.229792E-01,6.081358E+03,4.361182E-02,0.000000E+00,0.000000E+00,4.361182E-02,6.763752E+02,2.115689E-01,2.405576E+03,3.870670E+03,3.375406E-01,9.519145E+03,7.351799E-02,0.000000E+00,0.000000E+00,7.351799E-02,1.140190E+03,3.071456E-01,3.498133E+03,5.916870E+03,2.227599E-01,6.077170E+03,4.361182E-02,0.000000E+00,0.000000E+00,4.361182E-02,6.763752E+02,2.319824E-01,2.635289E+03,4.111194E+03
21:30:00,2.691290E-01,9.193691E+03,9.698115E-02,0.000000E+00,0.000000E+00,9.698115E-02,1.519721E+03,3.627253E-01,4.121198E+03,7.350076E+03,3.541630E-01,9.836595E+03,7.351799E-02,0.000000E+00,0.000000E+00,7.351799E-02,1.152047E+03,3.294472E-01,3.737216E+03,6.170536E+03,2.229819E-01,6.081409E+03,4.361182E-02,0.000000E+00,0.000000E+00,4.361182E-02,6.834089E+02,2.106231E-01,2.387891E+03,3.852331E+03,3.375447E-01,9.519223E+03,7.351799E-02,0.000000E+00,0.000000E+00,7.351799E-02,1.152047E+03,3.059486E-01,3.472794E+03,5.890645E+03,2.227626E-01,6.077222E+03,4.361182E-02,0.000000E+00,0.000000E+00,4.361182E-02,6.834089E+02,2.302207E-01,2.608421E+03,4.083318E+03
21:40:00,2.691338E-01,9.193784E+03,9.698115E-02,0.000000E+00,0.000000E+00,9.698115E-02,1.535362E+03,3.622002E-01,4.099648E+03,7.327888E+03,3.541666E-01,9.836665E+03,7.351799E-02,0.000000E+00,0.000000E+00,7.351799E-02,1.163904E+03,3.280612E-01,3.709762E+03,6.142064E+03,2.229843E-01,6.081455E+03,4.361182E-02,0.000000E+00,0.000000E+00,4.361182E-02,6.904426E+02,2.097167E-01,2.370658E+03,3.834463E+03,3.375484E-01,9.519294E+03,7.351799E-02,0.000000E+00,0.000000E+00,7.351799E-02,1.163904E+03,3.048748E-01,3.448853E+03,5.865882E+03,2.227650E-01,6.077268E+03,4.361182E-02,0.000000E+00,0.000000E+00,4.361182E-02,6.904426E+02,2.287264E-01,2.584571E+03,4.058604E+03
21:50:00,2.691382E-01,9.193868E+03,9.698115E-02,0.000000E+00,0.000000E+00,9.698115E-02,1.551003E+03,3.617660E-01,4.079120E+03,7.306710E+03,3.541699E-01,9.836728E+03,7.351799E-02,0.000000E+00,0.000000E+00,7.351799E-02,1.175761E+03,3.267578E-01,3.683237E+03,6.114292E+03,2.229864E-01,6.081497E+03,4.361182E-02,0.000000E+00,0.000000E+00,4.361182E-02,6.974763E+02,2.088528E-01,2.353903E+03,3.816912E+03,3.375517E-01,9.519357E+03,7.351799E-02,0.000000E+00,0.000000E+00,7.351799E-02,1.175761E+03,3.039156E-01,3.426202E+03,5.842271E+03,2.227672E-01,6.077309E+03,4.361182E-02,0.000000E+00,0.000000E+00,4.361182E-02,6.974763E+02,2.274443E-01,2.563109E+03,4.036159E+03
22:00:00,2.691421E-01,9.193944E+03,9.698115E-02,0.000000E+00,0.000000E+00,9.698115E-02,1.566644E+03,3.613714E-01,4.058993E+03,7.285996E+03,3.541729E-01,9.836785E+03,7.351799E-02,0.000000E+00,0.000000E+00,7.351799E-02,1.187618E+03,3.254992E-01,3.657184E+03,6.087248E+03,2.229884E-01,6.081534E+03,4.361182E-02,0.000000E+00,0.000000E+00,4.361182E-02,7.045100E+02,2.080109E-01,2.337374E+03,3.799761E+03,3.375547E-01,9.519415E+03,7.351799E-02,0.000000E+00,0.000000E+00,7.351799E-02,1.187618E+03,3.030254E-01,3.404296E+03,5.819606E+03,2.227691E-01,6.077347E+03,4.361182E-02,0.000000E+00,0.000000E+00,4.361182E-02,7.045100E+02,2.263105E-01,2.543294E+03,4.015662E+03
22:10:00,2.691458E-01,9.194014E+03,9.698115E-02,0.000000E+00,0.000000E+00,9.698115E-02,1.578809E+03,3.009767E-01,3.396210E+03,6.585974E+03,3.541757E-01,9.836837E+03,7.351799E-02,0.000000E+00,0.000000E+00,7.351799E-02,1.196840E+03,2.707239E-01,3.063977E+03,5.473678E+03,2.229902E-01,6.081568E+03,4.361182E-02,0.000000E+00,0.000000E+00,4.361182E-02,7.099806E+02,1.729909E-01,1.960351E+03,3.419780E+03,3.375575E-01,9.519467E+03,7.351799E-02,0.000000E+00,0.000000E+00,7.351799E-02,1.196840E+03,2.521496E-01,2.849996E+03,5.237268E+03,2.227709E-01,6.077381E+03,4.361182E-02,0.000000E+00,0.000000E+00,4.361182E-02,7.099806E+02,1.881213E-01,2.135352E+03,3.611906E+03
22:20:00,2.691492E-01,9.194079E+03,9.698115E-02,0.000000E+00,0.000000E+00,9.698115E-02,1.590974E+03,2.406606E-01,2.740775E+03,5.901033E+03,3.541782E-01,9.836885E+03,7.351799E-02,0.000000E+00,0.000000E+00,7.351799E-02,1.206062E+03,2.161705E-01,2.480582E+03,4.880763E+03,2.229919E-01,6.081600E+03,4.361182E-02,0.000000E+00,0.000000E+00,4.361182E-02,7.154513E+02,1.386504E-01,1.596240E+03,3.063583E+03,3.375600E-01,9.519516E+03,7.351799E-02,0.000000E+00,0.000000E+00,7.351799E-02,1.206062E+03,2.014387E-01,2.303464E+03,4.670973E+03,2.227726E-01,6.077412E+03,4.361182E-02,0.000000E+00,0.000000E+00,4.361182E-02,7.154513E+02,1.521303E-01,1.759078E+03,3.257117E+03
22:30:00,2.691523E-01,9.194139E+03,9.698115E-02,0.000000E+00,0.000000E+00,9.698115E-02,1.603140E+03,1.836186E-01,2.097512E+03,5.110123E+03,3.541805E-01,9.836930E+03,7.351799E-02,0.000000E+00,0.000000E+00,7.351799E-02,1.215284E+03,1.671343E-01,1.937168E+03,4.256252E+03,2.229934E-01,6.081629E+03,4.361182E-02,0.000000E+00,0.000000E+00,4.361182E-02,7.209220E+02,1.075345E-01,1.253100E+03,2.673963E+03,3.375623E-01,9.519560E+03,7.351799E-02,0.000000E+00,0.000000E+00,7.351799E-02,1.215284E+03,1.538457E-01,1.770548E+03,4.044447E+03,2.227741E-01,6.077441E+03,4.361182E-02,0.000000E+00,0.000000E+00,4.361182E-02,7.209220E+02,1.193962E-01,1.401026E+03,2.858217E+03
22:40:00,2.691552E-01,9.194195E+03,9.698115E-02,0.000000E+00,0.000000E+00,9.698115E-02,1.615305E+03,1.294685E-01,1.443799E+03,4.174003E+03,3.541827E-01,9.836971E+03,7.351799E-02,0.000000E+00,0.000000E+00,7.351799E-02,1.224506E+03,1.194745E-01,1.366812E+03,3.503773E+03,2.229948E-01,6.081656E+03,4.361182E-02,0.000000E+00,0.000000E+00,4.361182E-02,7.263926E+02,7.731516E-02,8.931770E+02,2.200760E+03,3.375645E-01,9.519602E+03,7.351799E-02,0.000000E+00,0.000000E+00,7.351799E-02,1.224506E+03,1.082322E-01,1.222566E+03,3.310445E+03,2.227755E-01,6.077469E+03,4.361182E-02,0.000000E+00,0.000000E+00,4.361182E-02,7.263926E+02,8.756383E-02,1.024820E+03,2.374535E+03
22:50:00,2.691580E-01,9.194248E+03,9.698115E-02,0.000000E+00,0.000000E+00,9.698115E-02,1.627470E+03,9.698115E-02,1.023233E+03,3.507509E+03,3.541847E-01,9.837010E+03,7.351799E-02,0.000000E+00,0.000000E+00,7.351799E-02,1.233728E+03,7.351799E-02,7.756771E+02,2.658919E+03,2.229961E-01,6.081681E+03,4.361182E-02,0.000000E+00,0.000000E+00,4.361182E-02,7.318633E+02,4.778285E-02,5.149422E+02,1.656892E+03,3.375665E-01,9.519641E+03,7.351799E-02,0.000000E+00,0.000000E+00,7.351799E-02,1.233728E+03,7.351799E-02,7.756771E+02,2.658919E+03,2.227768E-01,6.077494E+03,4.361182E-02,0.000000E+00,0.000000E+00,4.361182E-02,7.318633E+02,5.640660E-02,6.287165E+02,1.817920E+03
23:00:00,2.691606E-01,9.194297E+03,9.698115E-02,0.000000E+00,0.000000E+00,9.698115E-02,1.639636E+03,9.698115E-02,1.011068E+03,3.459612E+03,3.541866E-01,9.837046E+03,7.351799E-02,0.000000E+00,0.000000E+00,7.351799E-02,1.242950E+03,7.351799E-02,7.664551E+02,2.622610E+03,2.229974E-01,6.081705E+03,4.361182E-02,0.000000E+00,0.000000E+00,4.361182E-02,7.373339E+02,4.361182E-02,4.546710E+02,1.555766E+03,3.375684E-01,9.519677E+03,7.351799E-02,0.000000E+00,0.000000E+00,7.351799E-02,1.242950E+03,7.351799E-02,7.664551E+02,2.622610E+03,2.227781E-01,6.077517E+03,4.361182E-02,0.000000E+00,0.000000E+00,4.361182E-02,7.373339E+02,4.361182E-02,4.546710E+02,1.555766E+03
23:10:00,2.691630E-01,9.194344E+03,9.698115E-02,0.000000E+00,0.000000E+00,9.698115E-02,1.651801E+03,9.698115E-02,9.989028E+02,3.411968E+03,3.541884E-01,9.837080E+03,7.351799E-02,0.000000E+00,0.000000E+00,7.351799E-02,1.252172E+03,7.351799E-02,7.572330E+02,2.586493E+03,2.229985E-01,6.081727E+03,4.361182E-02,0.000000E+00,0.000000E+00,4.361182E-02,7.428046E+02,4.361182E-02,4.492003E+02,1.534341E+03,3.375702E-01,9.519711E+03,7.351799E-02,0.000000E+00,0.000000E+00,7.351799E-02,1.252172E+03,7.351799E-02,7.572330E+02,2.586493E+03,2.227792E-01,6.077540E+03,4.361182E-02,0.000000E+00,0.000000E+00,4.361182E-02,7.428046E+02,4.361182E-02,4.492003E+02,1.534341E+03
23:20:00,2.691653E-01,9.194388E+03,9.698115E-02,0.000000E+00,0.000000E+00,9.698115E-02,1.663966E+03,9.698115E-02,9.867375E+02,3.364577E+03,3.541901E-01,9.837113E+03,7.351799E-02,0.000000E+00,0.000000E+00,7.351799E-02,1.261394E+03,7.351799E-02,7.480109E+02,2.550567E+03,2.229996E-01,6.081748E+03,4.361182E-02,0.000000E+00,0.000000E+00,4.361182E-02,7.482753E+02,4.361182E-02,4.437297E+02,1.513029E+03,3.375719E-01,9.519743E+03,7.351799E-02,0.000000E+00,0.000000E+00,7.351799E-02,1.261394E+03,7.351799E-02,7.480109E+02,2.550567E+03,2.227803E-01,6.077561E+03,4.361182E-02,0.000000E+00,0.000000E+00,4.361182E-02,7.482753E+02,4.361182E-02,4.437297E+02,1.513029E+03
23:30:00,2.691675E-01,9.194430E+03,9.698115E-02,0.000000E+00,0.000000E+00,9.698115E-02,1.676132E+03,9.698115E-02,9.745722E+02,3.317437E+03,3.541917E-01,9.837143E+03,7.351799E-02,0.000000E+00,0.000000E+00,7.351799E-02,1.270616E+03,7.351799E-02,7.387888E+02,2.514832E+03,2.230007E-01,6.081768E+03,4.361182E-02,0.000000E+00,0.000000E+00,4.361182E-02,7.537459E+02,4.361182E-02,4.382590E+02,1.491831E+03,3.375735E-01,9.519774E+03,7.351799E-02,0.000000E+00,0.000000E+00,7.351799E-02,1.270616E+03,7.351799E-02,7.387888E+02,2.514832E+03,2.227814E-01,6.077581E+03,4.361182E-02,0.000000E+00,0.000000E+00,4.361182E-02,7.537459E+02,4.361182E-02,4.382590E+02,1.491831E+03
23:40:00,2.691696E-01,9.194469E+03,9.698115E-02,0.000000E+00,0.000000E+00,9.698115E-02,1.688297E+03,9.698115E-02,9.624069E+02,3.270545E+03,3.541932E-01,9.837173E+03,7.351799E-02,0.000000E+00,0.000000E+00,7.351799E-02,1.279838E+03,7.351799E-02,7.295667E+02,2.479285E+03,2.230017E-01,6.081787E+03,4.361182E-02,0.000000E+00,0.000000E+00,4.361182E-02,7.592166E+02,4.361182E-02,4.327884E+02,1.470744E+03,3.375750E-01,9.519803E+03,7.351799E-02,0.000000E+00,0.000000E+00,7.351799E-02,1.279838E+03,7.351799E-02,7.295667E+02,2.479285E+03,2.227824E-01,6.077600E+03,4.361182E-02,0.000000E+00,0.000000E+00,4.361182E-02,7.592166E+02,4.376156E-02,4.348794E+02,1.473941E+03
23:50:00,2.691716E-01,9.194508E+03,9.698115E-02,0.000000E+00,0.000000E+00,9.698115E-02,1.700462E+03,9.698115E-02,9.502416E+02,3.223902E+03,3.541947E-01,9.837201E+03,7.351799E-02,0.000000E+00,0.000000E+00,7.351799E-02,1.289060E+03,7.351799E-02,7.203446E+02,2.443926E+03,2.230026E-01,6.081805E+03,4.361182E-02,0.000000E+00,0.000000E+00,4.361182E-02,7.646872E+02,4.361182E-02,4.273177E+02,1.449768E+03,3.375765E-01,9.519831E+03,7.351799E-02,0.000000E+00,0.000000E+00,7.351799E-02,1.289060E+03,7.351799E-02,7.203446E+02,2.443926E+03,2.227833E-01,6.077618E+03,4.361182E-02,0.000000E+00,0.000000E+00,4.361182E-02,7.646872E+02,4.581717E-02,4.581130E+02,1.497067E+03
24:00:00,2.691735E-01,9.194544E+03,9.698115E-02,0.000000E+00,0.000000E+00,9.698115E-02,1.712627E+03,9.698115E-02,9.380763E+02,3.177504E+03,3.541961E-01,9.837227E+03,7.351799E-02,0.000000E+00,0.000000E+00,7.351799E-02,1.298283E+03,7.351799E-02,7.111225E+02,2.408753E+03,2.230035E-01,6.081823E+03,4.361182E-02,0.000000E+00,0.000000E+00,4.361182E-02,7.701579E+02,4.361182E-02,4.218470E+02,1.428904E+03,3.375779E-01,9.519857E+03,7.351799E-02,0.000000E+00,0.000000E+00,7.351799E-02,1.298283E+03,7.351799E-02,7.111225E+02,2.408753E+03,2.227842E-01,6.077635E+03,4.361182E-02,0.000000E+00,0.000000E+00,4.361182E-02,7.701579E+02,4.762457E-02,4.778797E+02,1.515166E+03
Coinc Peak   ,2.692145E-01,5.270745E-01,9.195327E+03,5.729582E+03,3.542256E-01,4.543275E-01,9.837791E+03,5.611370E+03,2.230225E-01,4.105496E-01,6.082185E+03,4.548639E+03,3.376072E-01,4.333269E-01,9.520418E+03,4.727276E+03,2.228033E-01,4.056290E-01,6.077998E+03,4.783240E+03
NonCoinc Peak,2.692145E-01,5.270745E-01,9.195327E+03,5.729582E+03,3.542256E-01,4.543275E-01,9.837791E+03,5.611370E+03,2.230225E-01,4.104981E-01,6.082185E+03,4.548639E+03,3.376072E-01,4.333269E-01,9.520418E+03,4.727276E+03,2.228033E-01,4.056290E-01,6.077998E+03,4.783240E+03
