Time,FURNACE_PACU_CAV_1:1:DesPer 1:Des Heat Mass Flow [kg/s],FURNACE_PACU_CAV_1:1:DesPer 1:Des Heat Cap [W],FURNACE_PACU_CAV_1:1:DesPer 1:Des Cool Mass Flow [kg/s],FURNACE_PACU_CAV_1:1:DesPer 1:Des Sens Cool Cap [W],FURNACE_PACU_CAV_1:1:DesPer 1:Des Tot Cool Cap [W],FURNACE_PACU_CAV_1:1:DesPer 2:Des Heat Mass Flow [kg/s],FURNACE_PACU_CAV_1:1:DesPer 2:Des Heat Cap [W],FURNACE_PACU_CAV_1:1:DesPer 2:Des Cool Mass Flow [kg/s],FURNACE_PACU_CAV_1:1:DesPer 2:Des Sens Cool Cap [W],FURNACE_PACU_CAV_1:1:DesPer 2:Des Tot Cool Cap [W],FURNACE_PACU_CAV_2:2:DesPer 1:Des Heat Mass Flow [kg/s],FURNACE_PACU_CAV_2:2:DesPer 1:Des Heat Cap [W],FURNACE_PACU_CAV_2:2:DesPer 1:Des Cool Mass Flow [kg/s],FURNACE_PACU_CAV_2:2:DesPer 1:Des Sens Cool Cap [W],FURNACE_PACU_CAV_2:2:DesPer 1:Des Tot Cool Cap [W],FURNACE_PACU_CAV_2:2:DesPer 2:Des Heat Mass Flow [kg/s],FURNACE_PACU_CAV_2:2:DesPer 2:Des Heat Cap [W],FURNACE_PACU_CAV_2:2:DesPer 2:Des Cool Mass Flow [kg/s],FURNACE_PACU_CAV_2:2:DesPer 2:Des Sens Cool Cap [W],FURNACE_PACU_CAV_2:2:DesPer 2:Des Tot Cool Cap [W]
00:10:00,1.502372E+00,3.121157E+04,6.020116E-02,0.000000E+00,0.000000E+00,6.020116E-02,1.069588E+03,6.020116E-02,5.758391E+02,1.947872E+03,5.959403E+00,1.614259E+05,4.194245E-01,0.000000E+00,0.000000E+00,4.194245E-01,7.451875E+03,4.194245E-01,4.011900E+03,1.357092E+04
00:20:00,1.502372E+00,3.121157E+04,6.020116E-02,0.000000E+00,0.000000E+00,6.020116E-02,1.076061E+03,6.020116E-02,5.693663E+02,1.923417E+03,5.959403E+00,1.614259E+05,4.194245E-01,0.000000E+00,0.000000E+00,4.194245E-01,7.496971E+03,4.194245E-01,3.966803E+03,1.340054E+04
00:30:00,1.502372E+00,3.121157E+04,6.020116E-02,0.000000E+00,0.000000E+00,6.020116E-02,1.082534E+03,6.020116E-02,5.628934E+02,1.899071E+03,5.959403E+00,1.614259E+05,4.194245E-01,0.000000E+00,0.000000E+00,4.194245E-01,7.542068E+03,4.194245E-01,3.921707E+03,1.323092E+04
00:40:00,1.502372E+00,3.121157E+04,6.020116E-02,0.000000E+00,0.000000E+00,6.020116E-02,1.089007E+03,6.020116E-02,5.564206E+02,1.874835E+03,5.959403E+00,1.614259E+05,4.194245E-01,0.000000E+00,0.000000E+00,4.194245E-01,7.587164E+03,4.194245E-01,3.876610E+03,1.306207E+04
00:50:00,1.502372E+00,3.121157E+04,6.020116E-02,0.000000E+00,0.000000E+00,6.020116E-02,1.095480E+03,6.020116E-02,5.499478E+02,1.850708E+03,5.959403E+00,1.614259E+05,4.194245E-01,0.000000E+00,0.000000E+00,4.194245E-01,7.632261E+03,4.194245E-01,3.831514E+03,1.289397E+04
01:00:00,1.502372E+00,3.121157E+04,6.020116E-02,0.000000E+00,0.000000E+00,6.020116E-02,1.101952E+03,6.020116E-02,5.434750E+02,1.826689E+03,5.959403E+00,1.614259E+05,4.194245E-01,0.000000E+00,0.000000E+00,4.194245E-01,7.677357E+03,4.194245E-01,3.786417E+03,1.272663E+04
01:10:00,1.502372E+00,3.121157E+04,6.020116E-02,0.000000E+00,0.000000E+00,6.020116E-02,1.106268E+03,6.020116E-02,5.391598E+02,1.810736E+03,5.959403E+00,1.614259E+05,4.194245E-01,0.000000E+00,0.000000E+00,4.194245E-01,7.707421E+03,4.194245E-01,3.756353E+03,1.261549E+04
01:20:00,1.502372E+00,3.121157E+04,6.020116E-02,0.000000E+00,0.000000E+00,6.020116E-02,1.110583E+03,6.020116E-02,5.348445E+02,1.794831E+03,5.959403E+00,1.614259E+05,4.194245E-01,0.000000E+00,0.000000E+00,4.194245E-01,7.737486E+03,4.194245E-01,3.726289E+03,1.250468E+04
01:30:00,1.502372E+00,3.121157E+04,6.020116E-02,0.000000E+00,0.000000E+00,6.020116E-02,1.114898E+03,6.020116E-02,5.305293E+02,1.778973E+03,5.959403E+00,1.614259E+05,4.194245E-01,0.000000E+00,0.000000E+00,4.194245E-01,7.767550E+03,4.194245E-01,3.696224E+03,1.239420E+04
01:40:00,1.502372E+00,3.121157E+04,6.020116E-02,0.000000E+00,0.000000E+00,6.020116E-02,1.119213E+03,6.020116E-02,5.262141E+02,1.763163E+03,5.959403E+00,1.614259E+05,4.194245E-01,0.000000E+00,0.000000E+00,4.194245E-01,7.797614E+03,4.194245E-01,3.666160E+03,1.228404E+04
01:50:00,1.502372E+00,3.121157E+04,6.020116E-02,0.000000E+00,0.000000E+00,6.020116E-02,1.123528E+03,6.020116E-02,5.218989E+02,1.747400E+03,5.959403E+00,1.614259E+05,4.194245E-01,0.000000E+00,0.000000E+00,4.194245E-01,7.827679E+03,4.194245E-01,3.636096E+03,1.217422E+04
02:00:00,1.502372E+00,3.121157E+04,6.020116E-02,0.000000E+00,0.000000E+00,6.020116E-02,1.127844E+03,6.020116E-02,5.175837E+02,1.731683E+03,5.959403E+00,1.614259E+05,4.194245E-01,0.000000E+00,0.000000E+00,4.194245E-01,7.857743E+03,4.194245E-01,3.606031E+03,1.206473E+04
02:10:00,1.502372E+00,3.121157E+04,6.020116E-02,0.000000E+00,0.000000E+00,6.020116E-02,1.131080E+03,6.020116E-02,5.143473E+02,1.719927E+03,5.959403E+00,1.614259E+05,4.194245E-01,0.000000E+00,0.000000E+00,4.194245E-01,7.880291E+03,4.194245E-01,3.583483E+03,1.198282E+04
02:20:00,1.502372E+00,3.121157E+04,6.020116E-02,0.000000E+00,0.000000E+00,6.020116E-02,1.134316E+03,6.020116E-02,5.111109E+02,1.708197E+03,5.959403E+00,1.614259E+05,4.194245E-01,0.000000E+00,0.000000E+00,4.194245E-01,7.902839E+03,4.194245E-01,3.560935E+03,1.190109E+04
02:30:00,1.502372E+00,3.121157E+04,6.020116E-02,0.000000E+00,0.000000E+00,6.020116E-02,1.137553E+03,6.020116E-02,5.078745E+02,1.696493E+03,5.959403E+00,1.614259E+05,4.194245E-01,0.000000E+00,0.000000E+00,4.194245E-01,7.925388E+03,4.194245E-01,3.538387E+03,1.181955E+04
02:40:00,1.502372E+00,3.121157E+04,6.020116E-02,0.000000E+00,0.000000E+00,6.020116E-02,1.140789E+03,6.020116E-02,5.046380E+02,1.684814E+03,5.959403E+00,1.614259E+05,4.194245E-01,0.000000E+00,0.000000E+00,4.194245E-01,7.947936E+03,4.194245E-01,3.515838E+03,1.173819E+04
02:50:00,1.502372E+00,3.121157E+04,6.020116E-02,0.000000E+00,0.000000E+00,6.020116E-02,1.144026E+03,6.020116E-02,5.014016E+02,1.673162E+03,5.959403E+00,1.614259E+05,4.194245E-01,0.000000E+00,0.000000E+00,4.194245E-01,7.970484E+03,4.194245E-01,3.493290E+03,1.165701E+04
03:00:00,1.502372E+00,3.121157E+04,6.020116E-02,0.000000E+00,0.000000E+00,6.020116E-02,1.147262E+03,6.020116E-02,4.981652E+02,1.661537E+03,5.959403E+00,1.614259E+05,4.194245E-01,0.000000E+00,0.000000E+00,4.194245E-01,7.993032E+03,4.194245E-01,3.470742E+03,1.157601E+04
03:10:00,1.502372E+00,3.121157E+04,6.020116E-02,0.000000E+00,0.000000E+00,6.020116E-02,1.150499E+03,6.020116E-02,4.949288E+02,1.649936E+03,5.959403E+00,1.614259E+05,4.194245E-01,0.000000E+00,0.000000E+00,4.194245E-01,8.015581E+03,4.194245E-01,3.448194E+03,1.149519E+04
03:20:00,1.502372E+00,3.121157E+04,6.020116E-02,0.000000E+00,0.000000E+00,6.020116E-02,1.153735E+03,6.020116E-02,4.916924E+02,1.638362E+03,5.959403E+00,1.614259E+05,4.194245E-01,0.000000E+00,0.000000E+00,4.194245E-01,8.038129E+03,4.194245E-01,3.425645E+03,1.141455E+04
03:30:00,1.502372E+00,3.121157E+04,6.020116E-02,0.000000E+00,0.000000E+00,6.020116E-02,1.156971E+03,6.020116E-02,4.884560E+02,1.626813E+03,5.959403E+00,1.614259E+05,4.194245E-01,0.000000E+00,0.000000E+00,4.194245E-01,8.060677E+03,4.194245E-01,3.403097E+03,1.133409E+04
03:40:00,1.502372E+00,3.121157E+04,6.020116E-02,0.000000E+00,0.000000E+00,6.020116E-02,1.160208E+03,6.020116E-02,4.852196E+02,1.615290E+03,5.959403E+00,1.614259E+05,4.194245E-01,0.000000E+00,0.000000E+00,4.194245E-01,8.083225E+03,4.194245E-01,3.380549E+03,1.125381E+04
03:50:00,1.502372E+00,3.121157E+04,6.020116E-02,0.000000E+00,0.000000E+00,6.020116E-02,1.163444E+03,6.020116E-02,4.819832E+02,1.603793E+03,5.959403E+00,1.614259E+05,4.194245E-01,0.000000E+00,0.000000E+00,4.194245E-01,8.105773E+03,4.194245E-01,3.358001E+03,1.117370E+04
04:00:00,1.502372E+00,3.121157E+04,6.020116E-02,0.000000E+00,0.000000E+00,6.020116E-02,1.166681E+03,6.020116E-02,4.787468E+02,1.592321E+03,5.959403E+00,1.614259E+05,4.194245E-01,0.000000E+00,0.000000E+00,4.194245E-01,8.128322E+03,4.194245E-01,3.335453E+03,1.109378E+04
04:10:00,1.502372E+00,3.121157E+04,6.020116E-02,0.000000E+00,0.000000E+00,6.020116E-02,1.168838E+03,6.020116E-02,4.765892E+02,1.584687E+03,5.959403E+00,1.614259E+05,4.194245E-01,0.000000E+00,0.000000E+00,4.194245E-01,8.143354E+03,4.194245E-01,3.320420E+03,1.104059E+04
04:20:00,1.502372E+00,3.121157E+04,6.020116E-02,0.000000E+00,0.000000E+00,6.020116E-02,1.170996E+03,6.020116E-02,4.744315E+02,1.577064E+03,5.959403E+00,1.614259E+05,4.194245E-01,0.000000E+00,0.000000E+00,4.194245E-01,8.158386E+03,4.194245E-01,3.305388E+03,1.098749E+04
04:30:00,1.502372E+00,3.121157E+04,6.020116E-02,0.000000E+00,0.000000E+00,6.020116E-02,1.173153E+03,6.020116E-02,4.722739E+02,1.569453E+03,5.959403E+00,1.614259E+05,4.194245E-01,0.000000E+00,0.000000E+00,4.194245E-01,8.173418E+03,4.194245E-01,3.290356E+03,1.093446E+04
04:40:00,1.502372E+00,3.121157E+04,6.020116E-02,0.000000E+00,0.000000E+00,6.020116E-02,1.175311E+03,6.020116E-02,4.701163E+02,1.561853E+03,5.959403E+00,1.614259E+05,4.194245E-01,0.000000E+00,0.000000E+00,4.194245E-01,8.188450E+03,4.194245E-01,3.275324E+03,1.088151E+04
04:50:00,1.502372E+00,3.121157E+04,6.020116E-02,0.000000E+00,0.000000E+00,6.020116E-02,1.177469E+03,6.020116E-02,4.679587E+02,1.554264E+03,5.959403E+00,1.614259E+05,4.194245E-01,0.000000E+00,0.000000E+00,4.194245E-01,8.203482E+03,4.194245E-01,3.260292E+03,1.082864E+04
05:00:00,1.502372E+00,3.121157E+04,6.020116E-02,0.000000E+00,0.000000E+00,6.020116E-02,1.179626E+03,6.020116E-02,4.658011E+02,1.546687E+03,5.959403E+00,1.614259E+05,4.194245E-01,0.000000E+00,0.000000E+00,4.194245E-01,8.218515E+03,4.194245E-01,3.245260E+03,1.077584E+04
05:10:00,1.502372E+00,3.121157E+04,6.020116E-02,0.000000E+00,0.000000E+00,6.020116E-02,1.177469E+03,6.020116E-02,4.679587E+02,1.554264E+03,5.959403E+00,1.614259E+05,4.194245E-01,0.000000E+00,0.000000E+00,4.194245E-01,8.203482E+03,4.194245E-01,3.260292E+03,1.082864E+04
05:20:00,1.502372E+00,3.121157E+04,6.020116E-02,0.000000E+00,0.000000E+00,6.020116E-02,1.175311E+03,6.020116E-02,4.701163E+02,1.561853E+03,5.959403E+00,1.614259E+05,4.194245E-01,0.000000E+00,0.000000E+00,4.194245E-01,8.188450E+03,4.194245E-01,3.275324E+03,1.088151E+04
05:30:00,1.502372E+00,3.121157E+04,6.020116E-02,0.000000E+00,0.000000E+00,6.020116E-02,1.173153E+03,6.020116E-02,4.722739E+02,1.569453E+03,5.959403E+00,1.614259E+05,4.194245E-01,0.000000E+00,0.000000E+00,4.194245E-01,8.173418E+03,4.194245E-01,3.290356E+03,1.093446E+04
05:40:00,1.502372E+00,3.121157E+04,6.020116E-02,0.000000E+00,0.000000E+00,6.020116E-02,1.170996E+03,6.020116E-02,4.744315E+02,1.577064E+03,5.959403E+00,1.614259E+05,4.194245E-01,0.000000E+00,0.000000E+00,4.194245E-01,8.158386E+03,4.194245E-01,3.305388E+03,1.098749E+04
05:50:00,1.502372E+00,3.121157E+04,6.020116E-02,0.000000E+00,0.000000E+00,6.020116E-02,1.168838E+03,6.020116E-02,4.765892E+02,1.584687E+03,5.959403E+00,1.614259E+05,4.194245E-01,0.000000E+00,0.000000E+00,4.194245E-01,8.143354E+03,4.194245E-01,3.320420E+03,1.104059E+04
06:00:00,1.502372E+00,3.121157E+04,6.020116E-02,0.000000E+00,0.000000E+00,6.020116E-02,1.166681E+03,6.020116E-02,4.787468E+02,1.592321E+03,5.959403E+00,1.614259E+05,4.194245E-01,0.000000E+00,0.000000E+00,4.194245E-01,8.128322E+03,4.194245E-01,3.335453E+03,1.109378E+04
06:10:00,1.502372E+00,3.121157E+04,6.020116E-02,0.000000E+00,0.000000E+00,6.020116E-02,1.159129E+03,6.020116E-02,4.862984E+02,1.619128E+03,5.959403E+00,1.614259E+05,4.194245E-01,0.000000E+00,0.000000E+00,4.194245E-01,8.075709E+03,4.194245E-01,3.388065E+03,1.128055E+04
06:20:00,1.502372E+00,3.121157E+04,6.020116E-02,0.000000E+00,0.000000E+00,6.020116E-02,1.151577E+03,6.020116E-02,4.938500E+02,1.646075E+03,5.959403E+00,1.614259E+05,4.194245E-01,0.000000E+00,0.000000E+00,4.194245E-01,8.023097E+03,4.194245E-01,3.440678E+03,1.146829E+04
06:30:00,1.502372E+00,3.121157E+04,6.020116E-02,0.000000E+00,0.000000E+00,6.020116E-02,1.144026E+03,6.020116E-02,5.014016E+02,1.673162E+03,5.959403E+00,1.614259E+05,4.194245E-01,0.000000E+00,0.000000E+00,4.194245E-01,7.970484E+03,4.194245E-01,3.493290E+03,1.165701E+04
06:40:00,1.502372E+00,3.121157E+04,6.020116E-02,0.000000E+00,0.000000E+00,6.020116E-02,1.136474E+03,6.020116E-02,5.089533E+02,1.700391E+03,5.959403E+00,1.614259E+05,4.194245E-01,0.000000E+00,0.000000E+00,4.194245E-01,7.917872E+03,4.194245E-01,3.545903E+03,1.184671E+04
06:50:00,1.502372E+00,3.121157E+04,6.020116E-02,0.000000E+00,0.000000E+00,6.020116E-02,1.128922E+03,6.020116E-02,5.165049E+02,1.727762E+03,5.959403E+00,1.614259E+05,4.194245E-01,0.000000E+00,0.000000E+00,4.194245E-01,7.865259E+03,4.194245E-01,3.598515E+03,1.203740E+04
07:00:00,1.502372E+00,3.121157E+04,6.020116E-02,0.000000E+00,0.000000E+00,6.020116E-02,1.121371E+03,6.020116E-02,5.240565E+02,1.755275E+03,5.959403E+00,1.614259E+05,4.194245E-01,0.000000E+00,0.000000E+00,4.194245E-01,7.812646E+03,4.194245E-01,3.651128E+03,1.222909E+04
07:10:00,1.502372E+00,3.121157E+04,6.020116E-02,0.000000E+00,0.000000E+00,6.020116E-02,1.103031E+03,1.524900E-01,1.777840E+03,4.742309E+03,5.959403E+00,1.614259E+05,4.194245E-01,0.000000E+00,0.000000E+00,4.194245E-01,7.684873E+03,4.194245E-01,3.778901E+03,1.269881E+04
07:20:00,1.502372E+00,3.121157E+04,6.020116E-02,0.000000E+00,0.000000E+00,6.020116E-02,1.084692E+03,2.341575E-01,2.819723E+03,6.867893E+03,5.959403E+00,1.614259E+05,4.194245E-01,0.000000E+00,0.000000E+00,4.194245E-01,7.557100E+03,4.194245E-01,3.906674E+03,1.317455E+04
07:30:00,1.502372E+00,3.121157E+04,6.020116E-02,0.000000E+00,0.000000E+00,6.020116E-02,1.066352E+03,3.123232E-01,3.750723E+03,8.449483E+03,5.959403E+00,1.614259E+05,4.194245E-01,0.000000E+00,0.000000E+00,4.194245E-01,7.429327E+03,4.194245E-01,4.034448E+03,1.365641E+04
07:40:00,1.502372E+00,3.121157E+04,6.020116E-02,0.000000E+00,0.000000E+00,6.020116E-02,1.048012E+03,3.896025E-01,4.606179E+03,9.797478E+03,5.959403E+00,1.614259E+05,4.194245E-01,0.000000E+00,0.000000E+00,4.194245E-01,7.301553E+03,4.194245E-01,4.162221E+03,1.414447E+04
07:50:00,1.502372E+00,3.121157E+04,6.020116E-02,0.000000E+00,0.000000E+00,6.020116E-02,1.029673E+03,4.668461E-01,5.396155E+03,1.099708E+04,5.959403E+00,1.614259E+05,4.194245E-01,0.000000E+00,0.000000E+00,4.194245E-01,7.173780E+03,4.194245E-01,4.289994E+03,1.463884E+04
08:00:00,1.502372E+00,3.121157E+04,6.020116E-02,0.000000E+00,0.000000E+00,6.020116E-02,1.011333E+03,5.448344E-01,6.128411E+03,1.210782E+04,5.959403E+00,1.614259E+05,4.194245E-01,0.000000E+00,0.000000E+00,4.194245E-01,7.046007E+03,4.194245E-01,4.417768E+03,1.513963E+04
08:10:00,1.502372E+00,3.121157E+04,6.020116E-02,0.000000E+00,0.000000E+00,6.020116E-02,9.908356E+02,4.715288E-01,5.279664E+03,1.034222E+04,5.959403E+00,1.614259E+05,4.194245E-01,0.000000E+00,0.000000E+00,4.194245E-01,6.903201E+03,4.194245E-01,4.560573E+03,1.560785E+04
08:20:00,1.502372E+00,3.121157E+04,6.020116E-02,0.000000E+00,0.000000E+00,6.020116E-02,9.703383E+02,4.706118E-01,5.289568E+03,1.012601E+04,5.959403E+00,1.614259E+05,4.194245E-01,0.000000E+00,0.000000E+00,4.194245E-01,6.760396E+03,4.194245E-01,4.703379E+03,1.575561E+04
08:30:00,1.502372E+00,3.121157E+04,6.020116E-02,0.000000E+00,0.000000E+00,6.020116E-02,9.498411E+02,4.750993E-01,5.360969E+03,1.005135E+04,5.959403E+00,1.614259E+05,4.194245E-01,0.000000E+00,0.000000E+00,4.194245E-01,6.617590E+03,4.194245E-01,4.846184E+03,1.590338E+04
08:40:00,1.502372E+00,3.121157E+04,6.020116E-02,0.000000E+00,0.000000E+00,6.020116E-02,9.293438E+02,4.826665E-01,5.466917E+03,1.005857E+04,5.959403E+00,1.614259E+05,4.194245E-01,0.000000E+00,0.000000E+00,4.194245E-01,6.474785E+03,4.194245E-01,4.988990E+03,1.605115E+04
08:50:00,1.502372E+00,3.121157E+04,6.020116E-02,0.000000E+00,0.000000E+00,6.020116E-02,9.088465E+02,4.927135E-01,5.600655E+03,1.012726E+04,5.959403E+00,1.614259E+05,4.194245E-01,0.000000E+00,0.000000E+00,4.194245E-01,6.331979E+03,4.194245E-01,5.131795E+03,1.619891E+04
09:00:00,1.502372E+00,3.121157E+04,6.020116E-02,0.000000E+00,0.000000E+00,6.020116E-02,8.883493E+02,5.046784E-01,5.755895E+03,1.024088E+04,5.959403E+00,1.614259E+05,4.194245E-01,0.000000E+00,0.000000E+00,4.194245E-01,6.189174E+03,4.194245E-01,5.274601E+03,1.634667E+04
09:10:00,1.502372E+00,3.121157E+04,6.020116E-02,0.000000E+00,0.000000E+00,6.020116E-02,8.700096E+02,5.181880E-01,5.926304E+03,1.038612E+04,5.959403E+00,1.614259E+05,4.194245E-01,0.000000E+00,0.000000E+00,4.194245E-01,6.061400E+03,4.194245E-01,5.402374E+03,1.647889E+04
09:20:00,1.502372E+00,3.121157E+04,6.020116E-02,0.000000E+00,0.000000E+00,6.020116E-02,8.516700E+02,5.330129E-01,6.111477E+03,1.055872E+04,5.959403E+00,1.614259E+05,4.194245E-01,0.000000E+00,0.000000E+00,4.194245E-01,5.933627E+03,4.194245E-01,5.530147E+03,1.661110E+04
09:30:00,1.502372E+00,3.121157E+04,6.020116E-02,0.000000E+00,0.000000E+00,6.020116E-02,8.333303E+02,5.489247E-01,6.308855E+03,1.075244E+04,5.959403E+00,1.614259E+05,4.194245E-01,0.000000E+00,0.000000E+00,4.194245E-01,5.805854E+03,4.194245E-01,5.657921E+03,1.674330E+04
09:40:00,1.502372E+00,3.121157E+04,6.020116E-02,0.000000E+00,0.000000E+00,6.020116E-02,8.149906E+02,5.657155E-01,6.516106E+03,1.096216E+04,5.959403E+00,1.614259E+05,4.194245E-01,0.000000E+00,0.000000E+00,4.194245E-01,5.678080E+03,4.194245E-01,5.785694E+03,1.687552E+04
09:50:00,1.502372E+00,3.121157E+04,6.020116E-02,0.000000E+00,0.000000E+00,6.020116E-02,7.966510E+02,5.831100E-01,6.730137E+03,1.118221E+04,5.959403E+00,1.614259E+05,4.194245E-01,0.000000E+00,0.000000E+00,4.194245E-01,5.550307E+03,4.721450E-01,6.649359E+03,1.883589E+04
10:00:00,1.502372E+00,3.121157E+04,6.020116E-02,0.000000E+00,0.000000E+00,6.020116E-02,7.783113E+02,6.009822E-01,6.949535E+03,1.141045E+04,5.959403E+00,1.614259E+05,4.194245E-01,0.000000E+00,0.000000E+00,4.194245E-01,5.422534E+03,5.768931E-01,8.240195E+03,2.254629E+04
10:10:00,1.502372E+00,3.121157E+04,6.020116E-02,0.000000E+00,0.000000E+00,6.020116E-02,7.621293E+02,6.191885E-01,7.170529E+03,1.164152E+04,5.959403E+00,1.614259E+05,4.194245E-01,0.000000E+00,0.000000E+00,4.194245E-01,5.309793E+03,6.708135E-01,9.664313E+03,2.578834E+04
10:20:00,1.502372E+00,3.121157E+04,6.020116E-02,0.000000E+00,0.000000E+00,6.020116E-02,7.459472E+02,6.375969E-01,7.393792E+03,1.187597E+04,5.959403E+00,1.614259E+05,4.194245E-01,0.000000E+00,0.000000E+00,4.194245E-01,5.197051E+03,7.644725E-01,1.108469E+04,2.893162E+04
10:30:00,1.502372E+00,3.121157E+04,6.020116E-02,0.000000E+00,0.000000E+00,6.020116E-02,7.297652E+02,6.560878E-01,7.617983E+03,1.211173E+04,5.959403E+00,1.614259E+05,4.194245E-01,0.000000E+00,0.000000E+00,4.194245E-01,5.084310E+03,8.584000E-01,1.250873E+04,3.198359E+04
10:40:00,1.502372E+00,3.121157E+04,6.020116E-02,0.000000E+00,0.000000E+00,6.020116E-02,7.135831E+02,6.745487E-01,7.841836E+03,1.234703E+04,5.959403E+00,1.614259E+05,4.194245E-01,0.000000E+00,0.000000E+00,4.194245E-01,4.971569E+03,9.533197E-01,1.394655E+04,3.495958E+04
10:50:00,1.502372E+00,3.121157E+04,6.020116E-02,0.000000E+00,0.000000E+00,6.020116E-02,6.974011E+02,6.929662E-01,8.065201E+03,1.258183E+04,5.959403E+00,1.614259E+05,4.194245E-01,0.000000E+00,0.000000E+00,4.194245E-01,4.858828E+03,1.049311E+00,1.539926E+04,3.785525E+04
11:00:00,1.502372E+00,3.121157E+04,6.020116E-02,0.000000E+00,0.000000E+00,6.020116E-02,6.812190E+02,7.111959E-01,8.286453E+03,1.281401E+04,5.959403E+00,1.614259E+05,4.194245E-01,0.000000E+00,0.000000E+00,4.194245E-01,4.746087E+03,1.147168E+00,1.687797E+04,4.069089E+04
11:10:00,1.502372E+00,3.121157E+04,6.020116E-02,0.000000E+00,0.000000E+00,6.020116E-02,6.704310E+02,7.289892E-01,8.497404E+03,1.303442E+04,5.959403E+00,1.614259E+05,4.194245E-01,0.000000E+00,0.000000E+00,4.194245E-01,4.670926E+03,1.243741E+00,1.830114E+04,4.332697E+04
11:20:00,1.502372E+00,3.121157E+04,6.020116E-02,0.000000E+00,0.000000E+00,6.020116E-02,6.596429E+02,7.462611E-01,8.702491E+03,1.324928E+04,5.959403E+00,1.614259E+05,4.194245E-01,0.000000E+00,0.000000E+00,4.194245E-01,4.595765E+03,1.338515E+00,1.969916E+04,4.579510E+04
11:30:00,1.502372E+00,3.121157E+04,6.020116E-02,0.000000E+00,0.000000E+00,6.020116E-02,6.488549E+02,7.629372E-01,8.900879E+03,1.345724E+04,5.959403E+00,1.614259E+05,4.194245E-01,0.000000E+00,0.000000E+00,4.194245E-01,4.520605E+03,1.431044E+00,2.106583E+04,4.808989E+04
11:40:00,1.502372E+00,3.121157E+04,6.020116E-02,0.000000E+00,0.000000E+00,6.020116E-02,6.380669E+02,7.789512E-01,9.091820E+03,1.365717E+04,5.959403E+00,1.614259E+05,4.194245E-01,0.000000E+00,0.000000E+00,4.194245E-01,4.445444E+03,1.520945E+00,2.239580E+04,5.021026E+04
11:50:00,1.502372E+00,3.121157E+04,6.020116E-02,0.000000E+00,0.000000E+00,6.020116E-02,6.272788E+02,7.942350E-01,9.274549E+03,1.384804E+04,5.959403E+00,1.614259E+05,4.194245E-01,0.000000E+00,0.000000E+00,4.194245E-01,4.370283E+03,1.607886E+00,2.368448E+04,5.215822E+04
12:00:00,1.502372E+00,3.121157E+04,6.020116E-02,0.000000E+00,0.000000E+00,6.020116E-02,6.164908E+02,8.087284E-01,9.448389E+03,1.402899E+04,5.959403E+00,1.614259E+05,4.194245E-01,0.000000E+00,0.000000E+00,4.194245E-01,4.295122E+03,1.691577E+00,2.492781E+04,5.393809E+04
12:10:00,1.502372E+00,3.121157E+04,6.020116E-02,0.000000E+00,0.000000E+00,6.020116E-02,6.078604E+02,8.225220E-01,9.612200E+03,1.419930E+04,5.959403E+00,1.614259E+05,4.194245E-01,0.000000E+00,0.000000E+00,4.194245E-01,4.234994E+03,1.772477E+00,2.611718E+04,5.555997E+04
12:20:00,1.502372E+00,3.121157E+04,6.020116E-02,0.000000E+00,0.000000E+00,6.020116E-02,5.992300E+02,8.355929E-01,9.767881E+03,1.436163E+04,5.959403E+00,1.614259E+05,4.194245E-01,0.000000E+00,0.000000E+00,4.194245E-01,4.174865E+03,1.850502E+00,2.726644E+04,5.705152E+04
12:30:00,1.502372E+00,3.121157E+04,6.020116E-02,0.000000E+00,0.000000E+00,6.020116E-02,5.905995E+02,8.482087E-01,9.918442E+03,1.451971E+04,5.959403E+00,1.614259E+05,4.194245E-01,0.000000E+00,0.000000E+00,4.194245E-01,4.114736E+03,1.925764E+00,2.837718E+04,5.842731E+04
12:40:00,1.502372E+00,3.121157E+04,6.020116E-02,0.000000E+00,0.000000E+00,6.020116E-02,5.819691E+02,8.605746E-01,1.006619E+04,1.467464E+04,5.959403E+00,1.614259E+05,4.194245E-01,0.000000E+00,0.000000E+00,4.194245E-01,4.054608E+03,1.998238E+00,2.944903E+04,5.969666E+04
12:50:00,1.502372E+00,3.121157E+04,6.020116E-02,0.000000E+00,0.000000E+00,6.020116E-02,5.733387E+02,8.728407E-01,1.021281E+04,1.482780E+04,5.959403E+00,1.614259E+05,4.194245E-01,0.000000E+00,0.000000E+00,4.194245E-01,3.994479E+03,2.067945E+00,3.048229E+04,6.087005E+04
13:00:00,1.502372E+00,3.121157E+04,6.020116E-02,0.000000E+00,0.000000E+00,6.020116E-02,5.647082E+02,8.851312E-01,1.035971E+04,1.498083E+04,5.959403E+00,1.614259E+05,4.194245E-01,0.000000E+00,0.000000E+00,4.194245E-01,3.934350E+03,2.134979E+00,3.147827E+04,6.195859E+04
13:10:00,1.502372E+00,3.121157E+04,6.020116E-02,0.000000E+00,0.000000E+00,6.020116E-02,5.593142E+02,8.974861E-01,1.050409E+04,1.513111E+04,5.959403E+00,1.614259E+05,4.194245E-01,0.000000E+00,0.000000E+00,4.194245E-01,3.896770E+03,2.199280E+00,3.241358E+04,6.294511E+04
13:20:00,1.502372E+00,3.121157E+04,6.020116E-02,0.000000E+00,0.000000E+00,6.020116E-02,5.539202E+02,9.099577E-01,1.064978E+04,1.528405E+04,5.959403E+00,1.614259E+05,4.194245E-01,0.000000E+00,0.000000E+00,4.194245E-01,3.859190E+03,2.260912E+00,3.331165E+04,6.386435E+04
13:30:00,1.502372E+00,3.121157E+04,6.020116E-02,0.000000E+00,0.000000E+00,6.020116E-02,5.485262E+02,9.222986E-01,1.079400E+04,1.543592E+04,5.959403E+00,1.614259E+05,4.194245E-01,0.000000E+00,0.000000E+00,4.194245E-01,3.821609E+03,2.319777E+00,3.417112E+04,6.471963E+04
13:40:00,1.502372E+00,3.121157E+04,6.020116E-02,0.000000E+00,0.000000E+00,6.020116E-02,5.431322E+02,9.343206E-01,1.093463E+04,1.558398E+04,5.959403E+00,1.614259E+05,4.194245E-01,0.000000E+00,0.000000E+00,4.194245E-01,3.784029E+03,2.375916E+00,3.499256E+04,6.551692E+04
13:50:00,1.502372E+00,3.121157E+04,6.020116E-02,0.000000E+00,0.000000E+00,6.020116E-02,5.377382E+02,9.458864E-01,1.107013E+04,1.572639E+04,5.959403E+00,1.614259E+05,4.194245E-01,0.000000E+00,0.000000E+00,4.194245E-01,3.746449E+03,2.429309E+00,3.577568E+04,6.625998E+04
14:00:00,1.502372E+00,3.121157E+04,6.020116E-02,0.000000E+00,0.000000E+00,6.020116E-02,5.323441E+02,9.568800E-01,1.119920E+04,1.586161E+04,5.959403E+00,1.614259E+05,4.194245E-01,0.000000E+00,0.000000E+00,4.194245E-01,3.708868E+03,2.479852E+00,3.651904E+04,6.694991E+04
14:10:00,1.502372E+00,3.121157E+04,6.020116E-02,0.000000E+00,0.000000E+00,6.020116E-02,5.323441E+02,9.671137E-01,1.131432E+04,1.598160E+04,5.959403E+00,1.614259E+05,4.194245E-01,0.000000E+00,0.000000E+00,4.194245E-01,3.708868E+03,2.526877E+00,3.717571E+04,6.753584E+04
14:20:00,1.502372E+00,3.121157E+04,6.020116E-02,0.000000E+00,0.000000E+00,6.020116E-02,5.323441E+02,9.765025E-01,1.141995E+04,1.609264E+04,5.959403E+00,1.614259E+05,4.194245E-01,0.000000E+00,0.000000E+00,4.194245E-01,3.708868E+03,2.570113E+00,3.777948E+04,6.805895E+04
14:30:00,1.502372E+00,3.121157E+04,6.020116E-02,0.000000E+00,0.000000E+00,6.020116E-02,5.323441E+02,9.849670E-01,1.151518E+04,1.619312E+04,5.959403E+00,1.614259E+05,4.194245E-01,0.000000E+00,0.000000E+00,4.194245E-01,3.708868E+03,2.609273E+00,3.832637E+04,6.851542E+04
14:40:00,1.502372E+00,3.121157E+04,6.020116E-02,0.000000E+00,0.000000E+00,6.020116E-02,5.323441E+02,9.924288E-01,1.159913E+04,1.628172E+04,5.959403E+00,1.614259E+05,4.194245E-01,0.000000E+00,0.000000E+00,4.194245E-01,3.708868E+03,2.644088E+00,3.881262E+04,6.890151E+04
14:50:00,1.502372E+00,3.121157E+04,6.020116E-02,0.000000E+00,0.000000E+00,6.020116E-02,5.323441E+02,9.988094E-01,1.167092E+04,1.635725E+04,5.959403E+00,1.614259E+05,4.194245E-01,0.000000E+00,0.000000E+00,4.194245E-01,3.708868E+03,2.674313E+00,3.923478E+04,6.921347E+04
15:00:00,1.502372E+00,3.121157E+04,6.020116E-02,0.000000E+00,0.000000E+00,6.020116E-02,5.323441E+02,1.004410E+00,1.173394E+04,1.642414E+04,5.959403E+00,1.614259E+05,4.194245E-01,0.000000E+00,0.000000E+00,4.194245E-01,3.708868E+03,2.699522E+00,3.958693E+04,6.944320E+04
15:10:00,1.502372E+00,3.121157E+04,6.020116E-02,0.000000E+00,0.000000E+00,6.020116E-02,5.388170E+02,1.008838E+00,1.177729E+04,1.646789E+04,5.959403E+00,1.614259E+05,4.194245E-01,0.000000E+00,0.000000E+00,4.194245E-01,3.753965E+03,2.718861E+00,3.981203E+04,6.952748E+04
15:20:00,1.502372E+00,3.121157E+04,6.020116E-02,0.000000E+00,0.000000E+00,6.020116E-02,5.452898E+02,1.011979E+00,1.180617E+04,1.649820E+04,5.959403E+00,1.614259E+05,4.194245E-01,0.000000E+00,0.000000E+00,4.194245E-01,3.799061E+03,2.732186E+00,3.995318E+04,6.951852E+04
15:30:00,1.502372E+00,3.121157E+04,6.020116E-02,0.000000E+00,0.000000E+00,6.020116E-02,5.517626E+02,1.013774E+00,1.181991E+04,1.651373E+04,5.959403E+00,1.614259E+05,4.194245E-01,0.000000E+00,0.000000E+00,4.194245E-01,3.844158E+03,2.739486E+00,4.001021E+04,6.941566E+04
15:40:00,1.502372E+00,3.121157E+04,6.020116E-02,0.000000E+00,0.000000E+00,6.020116E-02,5.582354E+02,1.014175E+00,1.181796E+04,1.651316E+04,5.959403E+00,1.614259E+05,4.194245E-01,0.000000E+00,0.000000E+00,4.194245E-01,3.889254E+03,2.740730E+00,3.998271E+04,6.921712E+04
15:50:00,1.502372E+00,3.121157E+04,6.020116E-02,0.000000E+00,0.000000E+00,6.020116E-02,5.647082E+02,1.013152E+00,1.180000E+04,1.649571E+04,5.959403E+00,1.614259E+05,4.194245E-01,0.000000E+00,0.000000E+00,4.194245E-01,3.934350E+03,2.735870E+00,3.986998E+04,6.892052E+04
16:00:00,1.502372E+00,3.121157E+04,6.020116E-02,0.000000E+00,0.000000E+00,6.020116E-02,5.711811E+02,1.010312E+00,1.176160E+04,1.645543E+04,5.959403E+00,1.614259E+05,4.194245E-01,0.000000E+00,0.000000E+00,4.194245E-01,3.979447E+03,2.725043E+00,3.967394E+04,6.852740E+04
16:10:00,1.502372E+00,3.121157E+04,6.020116E-02,0.000000E+00,0.000000E+00,6.020116E-02,5.798115E+02,1.006138E+00,1.170605E+04,1.639689E+04,5.959403E+00,1.614259E+05,4.194245E-01,0.000000E+00,0.000000E+00,4.194245E-01,4.039576E+03,2.709602E+00,3.939845E+04,6.805004E+04
16:20:00,1.502372E+00,3.121157E+04,6.020116E-02,0.000000E+00,0.000000E+00,6.020116E-02,5.884419E+02,1.000716E+00,1.163644E+04,1.632399E+04,5.959403E+00,1.614259E+05,4.194245E-01,0.000000E+00,0.000000E+00,4.194245E-01,4.099704E+03,2.689566E+00,3.905879E+04,6.750461E+04
16:30:00,1.502372E+00,3.121157E+04,6.020116E-02,0.000000E+00,0.000000E+00,6.020116E-02,5.970723E+02,9.941125E-01,1.155355E+04,1.623718E+04,5.959403E+00,1.614259E+05,4.194245E-01,0.000000E+00,0.000000E+00,4.194245E-01,4.159833E+03,2.664864E+00,3.865398E+04,6.688764E+04
16:40:00,1.502372E+00,3.121157E+04,6.020116E-02,0.000000E+00,0.000000E+00,6.020116E-02,6.057028E+02,9.864348E-01,1.145857E+04,1.613748E+04,5.959403E+00,1.614259E+05,4.194245E-01,0.000000E+00,0.000000E+00,4.194245E-01,4.219961E+03,2.635188E+00,3.817972E+04,6.619053E+04
16:50:00,1.502372E+00,3.121157E+04,6.020116E-02,0.000000E+00,0.000000E+00,6.020116E-02,6.143332E+02,9.778084E-01,1.135292E+04,1.602618E+04,5.959403E+00,1.614259E+05,4.194245E-01,0.000000E+00,0.000000E+00,4.194245E-01,4.280090E+03,2.600085E+00,3.762968E+04,6.540239E+04
17:00:00,1.502372E+00,3.121157E+04,6.020116E-02,0.000000E+00,0.000000E+00,6.020116E-02,6.229636E+02,9.684153E-01,1.123865E+04,1.590545E+04,5.959403E+00,1.614259E+05,4.194245E-01,0.000000E+00,0.000000E+00,4.194245E-01,4.340219E+03,2.559608E+00,3.700461E+04,6.452355E+04
17:10:00,1.502372E+00,3.121157E+04,6.020116E-02,0.000000E+00,0.000000E+00,6.020116E-02,6.337517E+02,8.030846E-01,9.516933E+03,1.404409E+04,5.959403E+00,1.614259E+05,4.194245E-01,0.000000E+00,0.000000E+00,4.194245E-01,4.415379E+03,2.512999E+00,3.628001E+04,6.356706E+04
17:20:00,1.502372E+00,3.121157E+04,6.020116E-02,0.000000E+00,0.000000E+00,6.020116E-02,6.445397E+02,6.391797E-01,7.896383E+03,1.244372E+04,5.959403E+00,1.614259E+05,4.194245E-01,0.000000E+00,0.000000E+00,4.194245E-01,4.490540E+03,2.466749E+00,3.556054E+04,6.258282E+04
17:30:00,1.502372E+00,3.121157E+04,6.020116E-02,0.000000E+00,0.000000E+00,6.020116E-02,6.553277E+02,4.768345E-01,6.202888E+03,1.034685E+04,5.959403E+00,1.614259E+05,4.194245E-01,0.000000E+00,0.000000E+00,4.194245E-01,4.565701E+03,2.424137E+00,3.489154E+04,6.166505E+04
17:40:00,1.502372E+00,3.121157E+04,6.020116E-02,0.000000E+00,0.000000E+00,6.020116E-02,6.661158E+02,3.161493E-01,4.361007E+03,7.862500E+03,5.959403E+00,1.614259E+05,4.194245E-01,0.000000E+00,0.000000E+00,4.194245E-01,4.640862E+03,2.387341E+00,3.430344E+04,6.089632E+04
17:50:00,1.502372E+00,3.121157E+04,6.020116E-02,0.000000E+00,0.000000E+00,6.020116E-02,6.769038E+02,1.572006E-01,2.321572E+03,4.742170E+03,5.959403E+00,1.614259E+05,4.194245E-01,0.000000E+00,0.000000E+00,4.194245E-01,4.716023E+03,2.359631E+00,3.384217E+04,6.029749E+04
18:00:00,1.502372E+00,3.121157E+04,6.020116E-02,0.000000E+00,0.000000E+00,6.020116E-02,6.876918E+02,6.020116E-02,9.577355E+02,2.553909E+03,5.959403E+00,1.614259E+05,4.194245E-01,0.000000E+00,0.000000E+00,4.194245E-01,4.791183E+03,2.340173E+00,3.349537E+04,5.987419E+04
18:10:00,1.502372E+00,3.121157E+04,6.020116E-02,0.000000E+00,0.000000E+00,6.020116E-02,7.038739E+02,6.020116E-02,9.415534E+02,2.537165E+03,5.959403E+00,1.614259E+05,4.194245E-01,0.000000E+00,0.000000E+00,4.194245E-01,4.903924E+03,2.329184E+00,3.322815E+04,5.958847E+04
18:20:00,1.502372E+00,3.121157E+04,6.020116E-02,0.000000E+00,0.000000E+00,6.020116E-02,7.200559E+02,6.020116E-02,9.253714E+02,2.520421E+03,5.959403E+00,1.614259E+05,4.194245E-01,0.000000E+00,0.000000E+00,4.194245E-01,5.016666E+03,2.319345E+00,3.297681E+04,5.932707E+04
18:30:00,1.502372E+00,3.121157E+04,6.020116E-02,0.000000E+00,0.000000E+00,6.020116E-02,7.362380E+02,6.020116E-02,9.091893E+02,2.503678E+03,5.959403E+00,1.614259E+05,4.194245E-01,0.000000E+00,0.000000E+00,4.194245E-01,5.129407E+03,2.306006E+00,3.267686E+04,5.899352E+04
18:40:00,1.502372E+00,3.121157E+04,6.020116E-02,0.000000E+00,0.000000E+00,6.020116E-02,7.524200E+02,6.020116E-02,8.930073E+02,2.486934E+03,5.959403E+00,1.614259E+05,4.194245E-01,0.000000E+00,0.000000E+00,4.194245E-01,5.242148E+03,2.285456E+00,3.227648E+04,5.851185E+04
18:50:00,1.502372E+00,3.121157E+04,6.020116E-02,0.000000E+00,0.000000E+00,6.020116E-02,7.686021E+02,6.020116E-02,8.768252E+02,2.470190E+03,5.959403E+00,1.614259E+05,4.194245E-01,0.000000E+00,0.000000E+00,4.194245E-01,5.354889E+03,2.252506E+00,3.170300E+04,5.777273E+04
19:00:00,1.502372E+00,3.121157E+04,6.020116E-02,0.000000E+00,0.000000E+00,6.020116E-02,7.847842E+02,6.020116E-02,8.606432E+02,2.453445E+03,5.959403E+00,1.614259E+05,4.194245E-01,0.000000E+00,0.000000E+00,4.194245E-01,5.467630E+03,2.205154E+00,3.092916E+04,5.673739E+04
19:10:00,1.502372E+00,3.121157E+04,6.020116E-02,0.000000E+00,0.000000E+00,6.020116E-02,7.966510E+02,6.020116E-02,8.487764E+02,2.441166E+03,5.959403E+00,1.614259E+05,4.194245E-01,0.000000E+00,0.000000E+00,4.194245E-01,5.550307E+03,2.141853E+00,2.996278E+04,5.540486E+04
19:20:00,1.502372E+00,3.121157E+04,6.020116E-02,0.000000E+00,0.000000E+00,6.020116E-02,8.085178E+02,6.020116E-02,8.369095E+02,2.428887E+03,5.959403E+00,1.614259E+05,4.194245E-01,0.000000E+00,0.000000E+00,4.194245E-01,5.632984E+03,2.059437E+00,2.872955E+04,5.367231E+04
19:30:00,1.502372E+00,3.121157E+04,6.020116E-02,0.000000E+00,0.000000E+00,6.020116E-02,8.203847E+02,6.020116E-02,8.250427E+02,2.416608E+03,5.959403E+00,1.614259E+05,4.194245E-01,0.000000E+00,0.000000E+00,4.194245E-01,5.715661E+03,1.955599E+00,2.719725E+04,5.148635E+04
19:40:00,1.502372E+00,3.121157E+04,6.020116E-02,0.000000E+00,0.000000E+00,6.020116E-02,8.322515E+02,6.020116E-02,8.131758E+02,2.404329E+03,5.959403E+00,1.614259E+05,4.194245E-01,0.000000E+00,0.000000E+00,4.194245E-01,5.798338E+03,1.829311E+00,2.535153E+04,4.881397E+04
19:50:00,1.502372E+00,3.121157E+04,6.020116E-02,0.000000E+00,0.000000E+00,6.020116E-02,8.441183E+02,6.020116E-02,8.013090E+02,2.392050E+03,5.959403E+00,1.614259E+05,4.194245E-01,0.000000E+00,0.000000E+00,4.194245E-01,5.881015E+03,1.682969E+00,2.322578E+04,4.569025E+04
20:00:00,1.502372E+00,3.121157E+04,6.020116E-02,0.000000E+00,0.000000E+00,6.020116E-02,8.559852E+02,6.020116E-02,7.894422E+02,2.379771E+03,5.959403E+00,1.614259E+05,4.194245E-01,0.000000E+00,0.000000E+00,4.194245E-01,5.963691E+03,1.523389E+00,2.091518E+04,4.224118E+04
20:10:00,1.502372E+00,3.121157E+04,6.020116E-02,0.000000E+00,0.000000E+00,6.020116E-02,8.656944E+02,6.020116E-02,7.797329E+02,2.369726E+03,5.959403E+00,1.614259E+05,4.194245E-01,0.000000E+00,0.000000E+00,4.194245E-01,6.031336E+03,1.359304E+00,1.855665E+04,3.864919E+04
20:20:00,1.502372E+00,3.121157E+04,6.020116E-02,0.000000E+00,0.000000E+00,6.020116E-02,8.754036E+02,6.020116E-02,7.700237E+02,2.359679E+03,5.959403E+00,1.614259E+05,4.194245E-01,0.000000E+00,0.000000E+00,4.194245E-01,6.098981E+03,1.199671E+00,1.626018E+04,3.508167E+04
20:30:00,1.502372E+00,3.121157E+04,6.020116E-02,0.000000E+00,0.000000E+00,6.020116E-02,8.851129E+02,6.020116E-02,7.603145E+02,2.349633E+03,5.959403E+00,1.614259E+05,4.194245E-01,0.000000E+00,0.000000E+00,4.194245E-01,6.166625E+03,1.052722E+00,1.414074E+04,3.172522E+04
20:40:00,1.502372E+00,3.121157E+04,6.020116E-02,0.000000E+00,0.000000E+00,6.020116E-02,8.948221E+02,6.020116E-02,7.506052E+02,2.339586E+03,5.959403E+00,1.614259E+05,4.194245E-01,0.000000E+00,0.000000E+00,4.194245E-01,6.234270E+03,9.215259E-01,1.224117E+04,2.865729E+04
20:50:00,1.502372E+00,3.121157E+04,6.020116E-02,0.000000E+00,0.000000E+00,6.020116E-02,9.045313E+02,6.020116E-02,7.408960E+02,2.329539E+03,5.959403E+00,1.614259E+05,4.194245E-01,0.000000E+00,0.000000E+00,4.194245E-01,6.301915E+03,8.084387E-01,1.059440E+04,2.595111E+04
21:00:00,1.502372E+00,3.121157E+04,6.020116E-02,0.000000E+00,0.000000E+00,6.020116E-02,9.142406E+02,6.020116E-02,7.311868E+02,2.319493E+03,5.959403E+00,1.614259E+05,4.194245E-01,0.000000E+00,0.000000E+00,4.194245E-01,6.369560E+03,7.113259E-01,9.170655E+03,2.356779E+04
21:10:00,1.502372E+00,3.121157E+04,6.020116E-02,0.000000E+00,0.000000E+00,6.020116E-02,9.239498E+02,6.020116E-02,7.214775E+02,2.309446E+03,5.959403E+00,1.614259E+05,4.194245E-01,0.000000E+00,0.000000E+00,4.194245E-01,6.437204E+03,6.257767E-01,7.908346E+03,2.140884E+04
21:20:00,1.502372E+00,3.121157E+04,6.020116E-02,0.000000E+00,0.000000E+00,6.020116E-02,9.336590E+02,6.020116E-02,7.117683E+02,2.299400E+03,5.959403E+00,1.614259E+05,4.194245E-01,0.000000E+00,0.000000E+00,4.194245E-01,6.504849E+03,5.484638E-01,6.761027E+03,1.939846E+04
21:30:00,1.502372E+00,3.121157E+04,6.020116E-02,0.000000E+00,0.000000E+00,6.020116E-02,9.433683E+02,6.020116E-02,7.020591E+02,2.289353E+03,5.959403E+00,1.614259E+05,4.194245E-01,0.000000E+00,0.000000E+00,4.194245E-01,6.572494E+03,4.763393E-01,5.686135E+03,1.746367E+04
21:40:00,1.502372E+00,3.121157E+04,6.020116E-02,0.000000E+00,0.000000E+00,6.020116E-02,9.530775E+02,6.020116E-02,6.923498E+02,2.279308E+03,5.959403E+00,1.614259E+05,4.194245E-01,0.000000E+00,0.000000E+00,4.194245E-01,6.640138E+03,4.194245E-01,4.823636E+03,1.588005E+04
21:50:00,1.502372E+00,3.121157E+04,6.020116E-02,0.000000E+00,0.000000E+00,6.020116E-02,9.627867E+02,6.020116E-02,6.826406E+02,2.269261E+03,5.959403E+00,1.614259E+05,4.194245E-01,0.000000E+00,0.000000E+00,4.194245E-01,6.707783E+03,4.194245E-01,4.755991E+03,1.581005E+04
22:00:00,1.502372E+00,3.121157E+04,6.020116E-02,0.000000E+00,0.000000E+00,6.020116E-02,9.724960E+02,6.020116E-02,6.729314E+02,2.259215E+03,5.959403E+00,1.614259E+05,4.194245E-01,0.000000E+00,0.000000E+00,4.194245E-01,6.775428E+03,4.194245E-01,4.688347E+03,1.574006E+04
22:10:00,1.502372E+00,3.121157E+04,6.020116E-02,0.000000E+00,0.000000E+00,6.020116E-02,9.800476E+02,6.020116E-02,6.653798E+02,2.251401E+03,5.959403E+00,1.614259E+05,4.194245E-01,0.000000E+00,0.000000E+00,4.194245E-01,6.828040E+03,4.194245E-01,4.635734E+03,1.568562E+04
22:20:00,1.502372E+00,3.121157E+04,6.020116E-02,0.000000E+00,0.000000E+00,6.020116E-02,9.875992E+02,6.020116E-02,6.578281E+02,2.243587E+03,5.959403E+00,1.614259E+05,4.194245E-01,0.000000E+00,0.000000E+00,4.194245E-01,6.880653E+03,4.194245E-01,4.583121E+03,1.563118E+04
22:30:00,1.502372E+00,3.121157E+04,6.020116E-02,0.000000E+00,0.000000E+00,6.020116E-02,9.951508E+02,6.020116E-02,6.502765E+02,2.235773E+03,5.959403E+00,1.614259E+05,4.194245E-01,0.000000E+00,0.000000E+00,4.194245E-01,6.933265E+03,4.194245E-01,4.530509E+03,1.557674E+04
22:40:00,1.502372E+00,3.121157E+04,6.020116E-02,0.000000E+00,0.000000E+00,6.020116E-02,1.002702E+03,6.020116E-02,6.427249E+02,2.207182E+03,5.959403E+00,1.614259E+05,4.194245E-01,0.000000E+00,0.000000E+00,4.194245E-01,6.985878E+03,4.194245E-01,4.477896E+03,1.537754E+04
22:50:00,1.502372E+00,3.121157E+04,6.020116E-02,0.000000E+00,0.000000E+00,6.020116E-02,1.010254E+03,6.020116E-02,6.351733E+02,2.177290E+03,5.959403E+00,1.614259E+05,4.194245E-01,0.000000E+00,0.000000E+00,4.194245E-01,7.038490E+03,4.194245E-01,4.425284E+03,1.516929E+04
23:00:00,1.502372E+00,3.121157E+04,6.020116E-02,0.000000E+00,0.000000E+00,6.020116E-02,1.017806E+03,6.020116E-02,6.276216E+02,2.147558E+03,5.959403E+00,1.614259E+05,4.194245E-01,0.000000E+00,0.000000E+00,4.194245E-01,7.091103E+03,4.194245E-01,4.372671E+03,1.496214E+04
23:10:00,1.502372E+00,3.121157E+04,6.020116E-02,0.000000E+00,0.000000E+00,6.020116E-02,1.025357E+03,6.020116E-02,6.200700E+02,2.117983E+03,5.959403E+00,1.614259E+05,4.194245E-01,0.000000E+00,0.000000E+00,4.194245E-01,7.143716E+03,4.194245E-01,4.320059E+03,1.475609E+04
23:20:00,1.502372E+00,3.121157E+04,6.020116E-02,0.000000E+00,0.000000E+00,6.020116E-02,1.032909E+03,6.020116E-02,6.125184E+02,2.088565E+03,5.959403E+00,1.614259E+05,4.194245E-01,0.000000E+00,0.000000E+00,4.194245E-01,7.196328E+03,4.194245E-01,4.267446E+03,1.455114E+04
23:30:00,1.502372E+00,3.121157E+04,6.020116E-02,0.000000E+00,0.000000E+00,6.020116E-02,1.040461E+03,6.020116E-02,6.049668E+02,2.059303E+03,5.959403E+00,1.614259E+05,4.194245E-01,0.000000E+00,0.000000E+00,4.194245E-01,7.248941E+03,4.194245E-01,4.214834E+03,1.434726E+04
23:40:00,1.502372E+00,3.121157E+04,6.020116E-02,0.000000E+00,0.000000E+00,6.020116E-02,1.048012E+03,6.020116E-02,5.974151E+02,2.030195E+03,5.959403E+00,1.614259E+05,4.194245E-01,0.000000E+00,0.000000E+00,4.194245E-01,7.301553E+03,4.194245E-01,4.162221E+03,1.414447E+04
23:50:00,1.502372E+00,3.121157E+04,6.020116E-02,0.000000E+00,0.000000E+00,6.020116E-02,1.055564E+03,6.020116E-02,5.898635E+02,2.001241E+03,5.959403E+00,1.614259E+05,4.194245E-01,0.000000E+00,0.000000E+00,4.194245E-01,7.354166E+03,4.194245E-01,4.109609E+03,1.394274E+04
24:00:00,1.502372E+00,3.121157E+04,6.020116E-02,0.000000E+00,0.000000E+00,6.020116E-02,1.063115E+03,6.020116E-02,5.823119E+02,1.972439E+03,5.959403E+00,1.614259E+05,4.194245E-01,0.000000E+00,0.000000E+00,4.194245E-01,7.406778E+03,4.194245E-01,4.056996E+03,1.374208E+04
Coinc Peak   ,1.502372E+00,1.014175E+00,3.121157E+04,1.181796E+04,5.959403E+00,2.740730E+00,1.614259E+05,3.998271E+04
NonCoinc Peak,1.502372E+00,1.014175E+00,3.121157E+04,1.181796E+04,5.959403E+00,2.740730E+00,1.614259E+05,3.998271E+04
